	{ "mmATHUB_ATS_MODE_CNTL", REG_MMIO, 0x0000, 0, &mmATHUB_ATS_MODE_CNTL[0], sizeof(mmATHUB_ATS_MODE_CNTL)/sizeof(mmATHUB_ATS_MODE_CNTL[0]), 0, 0 },
	{ "mmATHUB_SHARED_VIRT_RESET_REQ", REG_MMIO, 0x0001, 0, &mmATHUB_SHARED_VIRT_RESET_REQ[0], sizeof(mmATHUB_SHARED_VIRT_RESET_REQ)/sizeof(mmATHUB_SHARED_VIRT_RESET_REQ[0]), 0, 0 },
	{ "mmATHUB_SHARED_ACTIVE_FCN_ID", REG_MMIO, 0x0002, 0, &mmATHUB_SHARED_ACTIVE_FCN_ID[0], sizeof(mmATHUB_SHARED_ACTIVE_FCN_ID)/sizeof(mmATHUB_SHARED_ACTIVE_FCN_ID[0]), 0, 0 },
	{ "mmATC_ATS_CNTL", REG_MMIO, 0x0003, 0, &mmATC_ATS_CNTL[0], sizeof(mmATC_ATS_CNTL)/sizeof(mmATC_ATS_CNTL[0]), 0, 0 },
	{ "mmATC_ATS_FAULT_CNTL", REG_MMIO, 0x0006, 0, &mmATC_ATS_FAULT_CNTL[0], sizeof(mmATC_ATS_FAULT_CNTL)/sizeof(mmATC_ATS_FAULT_CNTL[0]), 0, 0 },
	{ "mmATC_ATS_DEFAULT_PAGE_LOW", REG_MMIO, 0x0007, 0, &mmATC_ATS_DEFAULT_PAGE_LOW[0], sizeof(mmATC_ATS_DEFAULT_PAGE_LOW)/sizeof(mmATC_ATS_DEFAULT_PAGE_LOW[0]), 0, 0 },
	{ "mmATC_TRANS_FAULT_RSPCNTRL", REG_MMIO, 0x0008, 0, &mmATC_TRANS_FAULT_RSPCNTRL[0], sizeof(mmATC_TRANS_FAULT_RSPCNTRL)/sizeof(mmATC_TRANS_FAULT_RSPCNTRL[0]), 0, 0 },
	{ "mmATHUB_MISC_CNTL", REG_MMIO, 0x0009, 0, &mmATHUB_MISC_CNTL[0], sizeof(mmATHUB_MISC_CNTL)/sizeof(mmATHUB_MISC_CNTL[0]), 0, 0 },
	{ "mmATHUB_MEM_POWER_LS", REG_MMIO, 0x000a, 0, &mmATHUB_MEM_POWER_LS[0], sizeof(mmATHUB_MEM_POWER_LS)/sizeof(mmATHUB_MEM_POWER_LS[0]), 0, 0 },
	{ "mmATC_ATS_SDPPORT_CNTL", REG_MMIO, 0x000b, 0, &mmATC_ATS_SDPPORT_CNTL[0], sizeof(mmATC_ATS_SDPPORT_CNTL)/sizeof(mmATC_ATS_SDPPORT_CNTL[0]), 0, 0 },
	{ "mmATC_ATS_CNTL2", REG_MMIO, 0x000d, 0, &mmATC_ATS_CNTL2[0], sizeof(mmATC_ATS_CNTL2)/sizeof(mmATC_ATS_CNTL2[0]), 0, 0 },
	{ "mmATC_ATS_TR_QOS_CNTL", REG_MMIO, 0x000e, 0, &mmATC_ATS_TR_QOS_CNTL[0], sizeof(mmATC_ATS_TR_QOS_CNTL)/sizeof(mmATC_ATS_TR_QOS_CNTL[0]), 0, 0 },
	{ "mmATC_ATS_MISC_CNTL", REG_MMIO, 0x000f, 0, &mmATC_ATS_MISC_CNTL[0], sizeof(mmATC_ATS_MISC_CNTL)/sizeof(mmATC_ATS_MISC_CNTL[0]), 0, 0 },
	{ "mmATC_PERFCOUNTER0_CFG", REG_MMIO, 0x0010, 0, &mmATC_PERFCOUNTER0_CFG[0], sizeof(mmATC_PERFCOUNTER0_CFG)/sizeof(mmATC_PERFCOUNTER0_CFG[0]), 0, 0 },
	{ "mmATC_PERFCOUNTER1_CFG", REG_MMIO, 0x0011, 0, &mmATC_PERFCOUNTER1_CFG[0], sizeof(mmATC_PERFCOUNTER1_CFG)/sizeof(mmATC_PERFCOUNTER1_CFG[0]), 0, 0 },
	{ "mmATC_PERFCOUNTER2_CFG", REG_MMIO, 0x0012, 0, &mmATC_PERFCOUNTER2_CFG[0], sizeof(mmATC_PERFCOUNTER2_CFG)/sizeof(mmATC_PERFCOUNTER2_CFG[0]), 0, 0 },
	{ "mmATC_PERFCOUNTER3_CFG", REG_MMIO, 0x0013, 0, &mmATC_PERFCOUNTER3_CFG[0], sizeof(mmATC_PERFCOUNTER3_CFG)/sizeof(mmATC_PERFCOUNTER3_CFG[0]), 0, 0 },
	{ "mmATC_PERFCOUNTER_RSLT_CNTL", REG_MMIO, 0x0014, 0, &mmATC_PERFCOUNTER_RSLT_CNTL[0], sizeof(mmATC_PERFCOUNTER_RSLT_CNTL)/sizeof(mmATC_PERFCOUNTER_RSLT_CNTL[0]), 0, 0 },
	{ "mmATC_PERFCOUNTER_LO", REG_MMIO, 0x0015, 0, &mmATC_PERFCOUNTER_LO[0], sizeof(mmATC_PERFCOUNTER_LO)/sizeof(mmATC_PERFCOUNTER_LO[0]), 0, 0 },
	{ "mmATC_PERFCOUNTER_HI", REG_MMIO, 0x0016, 0, &mmATC_PERFCOUNTER_HI[0], sizeof(mmATC_PERFCOUNTER_HI)/sizeof(mmATC_PERFCOUNTER_HI[0]), 0, 0 },
	{ "mmATS_IH_CREDIT", REG_MMIO, 0x0017, 0, &mmATS_IH_CREDIT[0], sizeof(mmATS_IH_CREDIT)/sizeof(mmATS_IH_CREDIT[0]), 0, 0 },
	{ "mmATHUB_IH_CREDIT", REG_MMIO, 0x0018, 0, &mmATHUB_IH_CREDIT[0], sizeof(mmATHUB_IH_CREDIT)/sizeof(mmATHUB_IH_CREDIT[0]), 0, 0 },
	{ "mmATC_ATS_GFX_ATCL2_STATUS", REG_MMIO, 0x0019, 0, &mmATC_ATS_GFX_ATCL2_STATUS[0], sizeof(mmATC_ATS_GFX_ATCL2_STATUS)/sizeof(mmATC_ATS_GFX_ATCL2_STATUS[0]), 0, 0 },
	{ "mmATC_ATS_MMHUB_ATCL2_STATUS", REG_MMIO, 0x001a, 0, &mmATC_ATS_MMHUB_ATCL2_STATUS[0], sizeof(mmATC_ATS_MMHUB_ATCL2_STATUS)/sizeof(mmATC_ATS_MMHUB_ATCL2_STATUS[0]), 0, 0 },
	{ "mmATC_ATS_FAULT_STATUS_INFO", REG_MMIO, 0x001b, 0, &mmATC_ATS_FAULT_STATUS_INFO[0], sizeof(mmATC_ATS_FAULT_STATUS_INFO)/sizeof(mmATC_ATS_FAULT_STATUS_INFO[0]), 0, 0 },
	{ "mmATC_ATS_FAULT_STATUS_ADDR", REG_MMIO, 0x001c, 0, &mmATC_ATS_FAULT_STATUS_ADDR[0], sizeof(mmATC_ATS_FAULT_STATUS_ADDR)/sizeof(mmATC_ATS_FAULT_STATUS_ADDR[0]), 0, 0 },
	{ "mmATC_ATS_FAULT_STATUS_INFO2", REG_MMIO, 0x001d, 0, &mmATC_ATS_FAULT_STATUS_INFO2[0], sizeof(mmATC_ATS_FAULT_STATUS_INFO2)/sizeof(mmATC_ATS_FAULT_STATUS_INFO2[0]), 0, 0 },
	{ "mmATHUB_PCIE_ATS_CNTL", REG_MMIO, 0x001e, 0, &mmATHUB_PCIE_ATS_CNTL[0], sizeof(mmATHUB_PCIE_ATS_CNTL)/sizeof(mmATHUB_PCIE_ATS_CNTL[0]), 0, 0 },
	{ "mmATHUB_PCIE_PASID_CNTL", REG_MMIO, 0x001f, 0, &mmATHUB_PCIE_PASID_CNTL[0], sizeof(mmATHUB_PCIE_PASID_CNTL)/sizeof(mmATHUB_PCIE_PASID_CNTL[0]), 0, 0 },
	{ "mmATHUB_PCIE_PAGE_REQ_CNTL", REG_MMIO, 0x0020, 0, &mmATHUB_PCIE_PAGE_REQ_CNTL[0], sizeof(mmATHUB_PCIE_PAGE_REQ_CNTL)/sizeof(mmATHUB_PCIE_PAGE_REQ_CNTL[0]), 0, 0 },
	{ "mmATHUB_PCIE_OUTSTAND_PAGE_REQ_ALLOC", REG_MMIO, 0x0021, 0, &mmATHUB_PCIE_OUTSTAND_PAGE_REQ_ALLOC[0], sizeof(mmATHUB_PCIE_OUTSTAND_PAGE_REQ_ALLOC)/sizeof(mmATHUB_PCIE_OUTSTAND_PAGE_REQ_ALLOC[0]), 0, 0 },
	{ "mmATHUB_COMMAND", REG_MMIO, 0x0022, 0, &mmATHUB_COMMAND[0], sizeof(mmATHUB_COMMAND)/sizeof(mmATHUB_COMMAND[0]), 0, 0 },
	{ "mmATHUB_PCIE_ATS_CNTL_VF_0", REG_MMIO, 0x0023, 0, &mmATHUB_PCIE_ATS_CNTL_VF_0[0], sizeof(mmATHUB_PCIE_ATS_CNTL_VF_0)/sizeof(mmATHUB_PCIE_ATS_CNTL_VF_0[0]), 0, 0 },
	{ "mmATHUB_PCIE_ATS_CNTL_VF_1", REG_MMIO, 0x0024, 0, &mmATHUB_PCIE_ATS_CNTL_VF_1[0], sizeof(mmATHUB_PCIE_ATS_CNTL_VF_1)/sizeof(mmATHUB_PCIE_ATS_CNTL_VF_1[0]), 0, 0 },
	{ "mmATHUB_PCIE_ATS_CNTL_VF_2", REG_MMIO, 0x0025, 0, &mmATHUB_PCIE_ATS_CNTL_VF_2[0], sizeof(mmATHUB_PCIE_ATS_CNTL_VF_2)/sizeof(mmATHUB_PCIE_ATS_CNTL_VF_2[0]), 0, 0 },
	{ "mmATHUB_PCIE_ATS_CNTL_VF_3", REG_MMIO, 0x0026, 0, &mmATHUB_PCIE_ATS_CNTL_VF_3[0], sizeof(mmATHUB_PCIE_ATS_CNTL_VF_3)/sizeof(mmATHUB_PCIE_ATS_CNTL_VF_3[0]), 0, 0 },
	{ "mmATHUB_PCIE_ATS_CNTL_VF_4", REG_MMIO, 0x0027, 0, &mmATHUB_PCIE_ATS_CNTL_VF_4[0], sizeof(mmATHUB_PCIE_ATS_CNTL_VF_4)/sizeof(mmATHUB_PCIE_ATS_CNTL_VF_4[0]), 0, 0 },
	{ "mmATHUB_PCIE_ATS_CNTL_VF_5", REG_MMIO, 0x0028, 0, &mmATHUB_PCIE_ATS_CNTL_VF_5[0], sizeof(mmATHUB_PCIE_ATS_CNTL_VF_5)/sizeof(mmATHUB_PCIE_ATS_CNTL_VF_5[0]), 0, 0 },
	{ "mmATHUB_PCIE_ATS_CNTL_VF_6", REG_MMIO, 0x0029, 0, &mmATHUB_PCIE_ATS_CNTL_VF_6[0], sizeof(mmATHUB_PCIE_ATS_CNTL_VF_6)/sizeof(mmATHUB_PCIE_ATS_CNTL_VF_6[0]), 0, 0 },
	{ "mmATHUB_PCIE_ATS_CNTL_VF_7", REG_MMIO, 0x002a, 0, &mmATHUB_PCIE_ATS_CNTL_VF_7[0], sizeof(mmATHUB_PCIE_ATS_CNTL_VF_7)/sizeof(mmATHUB_PCIE_ATS_CNTL_VF_7[0]), 0, 0 },
	{ "mmATHUB_PCIE_ATS_CNTL_VF_8", REG_MMIO, 0x002b, 0, &mmATHUB_PCIE_ATS_CNTL_VF_8[0], sizeof(mmATHUB_PCIE_ATS_CNTL_VF_8)/sizeof(mmATHUB_PCIE_ATS_CNTL_VF_8[0]), 0, 0 },
	{ "mmATHUB_PCIE_ATS_CNTL_VF_9", REG_MMIO, 0x002c, 0, &mmATHUB_PCIE_ATS_CNTL_VF_9[0], sizeof(mmATHUB_PCIE_ATS_CNTL_VF_9)/sizeof(mmATHUB_PCIE_ATS_CNTL_VF_9[0]), 0, 0 },
	{ "mmATHUB_PCIE_ATS_CNTL_VF_10", REG_MMIO, 0x002d, 0, &mmATHUB_PCIE_ATS_CNTL_VF_10[0], sizeof(mmATHUB_PCIE_ATS_CNTL_VF_10)/sizeof(mmATHUB_PCIE_ATS_CNTL_VF_10[0]), 0, 0 },
	{ "mmATHUB_PCIE_ATS_CNTL_VF_11", REG_MMIO, 0x002e, 0, &mmATHUB_PCIE_ATS_CNTL_VF_11[0], sizeof(mmATHUB_PCIE_ATS_CNTL_VF_11)/sizeof(mmATHUB_PCIE_ATS_CNTL_VF_11[0]), 0, 0 },
	{ "mmATHUB_PCIE_ATS_CNTL_VF_12", REG_MMIO, 0x002f, 0, &mmATHUB_PCIE_ATS_CNTL_VF_12[0], sizeof(mmATHUB_PCIE_ATS_CNTL_VF_12)/sizeof(mmATHUB_PCIE_ATS_CNTL_VF_12[0]), 0, 0 },
	{ "mmATHUB_PCIE_ATS_CNTL_VF_13", REG_MMIO, 0x0030, 0, &mmATHUB_PCIE_ATS_CNTL_VF_13[0], sizeof(mmATHUB_PCIE_ATS_CNTL_VF_13)/sizeof(mmATHUB_PCIE_ATS_CNTL_VF_13[0]), 0, 0 },
	{ "mmATHUB_PCIE_ATS_CNTL_VF_14", REG_MMIO, 0x0031, 0, &mmATHUB_PCIE_ATS_CNTL_VF_14[0], sizeof(mmATHUB_PCIE_ATS_CNTL_VF_14)/sizeof(mmATHUB_PCIE_ATS_CNTL_VF_14[0]), 0, 0 },
	{ "mmATHUB_PCIE_ATS_CNTL_VF_15", REG_MMIO, 0x0032, 0, &mmATHUB_PCIE_ATS_CNTL_VF_15[0], sizeof(mmATHUB_PCIE_ATS_CNTL_VF_15)/sizeof(mmATHUB_PCIE_ATS_CNTL_VF_15[0]), 0, 0 },
	{ "mmATHUB_PCIE_ATS_CNTL_VF_16", REG_MMIO, 0x0033, 0, &mmATHUB_PCIE_ATS_CNTL_VF_16[0], sizeof(mmATHUB_PCIE_ATS_CNTL_VF_16)/sizeof(mmATHUB_PCIE_ATS_CNTL_VF_16[0]), 0, 0 },
	{ "mmATHUB_PCIE_ATS_CNTL_VF_17", REG_MMIO, 0x0034, 0, &mmATHUB_PCIE_ATS_CNTL_VF_17[0], sizeof(mmATHUB_PCIE_ATS_CNTL_VF_17)/sizeof(mmATHUB_PCIE_ATS_CNTL_VF_17[0]), 0, 0 },
	{ "mmATHUB_PCIE_ATS_CNTL_VF_18", REG_MMIO, 0x0035, 0, &mmATHUB_PCIE_ATS_CNTL_VF_18[0], sizeof(mmATHUB_PCIE_ATS_CNTL_VF_18)/sizeof(mmATHUB_PCIE_ATS_CNTL_VF_18[0]), 0, 0 },
	{ "mmATHUB_PCIE_ATS_CNTL_VF_19", REG_MMIO, 0x0036, 0, &mmATHUB_PCIE_ATS_CNTL_VF_19[0], sizeof(mmATHUB_PCIE_ATS_CNTL_VF_19)/sizeof(mmATHUB_PCIE_ATS_CNTL_VF_19[0]), 0, 0 },
	{ "mmATHUB_PCIE_ATS_CNTL_VF_20", REG_MMIO, 0x0037, 0, &mmATHUB_PCIE_ATS_CNTL_VF_20[0], sizeof(mmATHUB_PCIE_ATS_CNTL_VF_20)/sizeof(mmATHUB_PCIE_ATS_CNTL_VF_20[0]), 0, 0 },
	{ "mmATHUB_PCIE_ATS_CNTL_VF_21", REG_MMIO, 0x0038, 0, &mmATHUB_PCIE_ATS_CNTL_VF_21[0], sizeof(mmATHUB_PCIE_ATS_CNTL_VF_21)/sizeof(mmATHUB_PCIE_ATS_CNTL_VF_21[0]), 0, 0 },
	{ "mmATHUB_PCIE_ATS_CNTL_VF_22", REG_MMIO, 0x0039, 0, &mmATHUB_PCIE_ATS_CNTL_VF_22[0], sizeof(mmATHUB_PCIE_ATS_CNTL_VF_22)/sizeof(mmATHUB_PCIE_ATS_CNTL_VF_22[0]), 0, 0 },
	{ "mmATHUB_PCIE_ATS_CNTL_VF_23", REG_MMIO, 0x003a, 0, &mmATHUB_PCIE_ATS_CNTL_VF_23[0], sizeof(mmATHUB_PCIE_ATS_CNTL_VF_23)/sizeof(mmATHUB_PCIE_ATS_CNTL_VF_23[0]), 0, 0 },
	{ "mmATHUB_PCIE_ATS_CNTL_VF_24", REG_MMIO, 0x003b, 0, &mmATHUB_PCIE_ATS_CNTL_VF_24[0], sizeof(mmATHUB_PCIE_ATS_CNTL_VF_24)/sizeof(mmATHUB_PCIE_ATS_CNTL_VF_24[0]), 0, 0 },
	{ "mmATHUB_PCIE_ATS_CNTL_VF_25", REG_MMIO, 0x003c, 0, &mmATHUB_PCIE_ATS_CNTL_VF_25[0], sizeof(mmATHUB_PCIE_ATS_CNTL_VF_25)/sizeof(mmATHUB_PCIE_ATS_CNTL_VF_25[0]), 0, 0 },
	{ "mmATHUB_PCIE_ATS_CNTL_VF_26", REG_MMIO, 0x003d, 0, &mmATHUB_PCIE_ATS_CNTL_VF_26[0], sizeof(mmATHUB_PCIE_ATS_CNTL_VF_26)/sizeof(mmATHUB_PCIE_ATS_CNTL_VF_26[0]), 0, 0 },
	{ "mmATHUB_PCIE_ATS_CNTL_VF_27", REG_MMIO, 0x003e, 0, &mmATHUB_PCIE_ATS_CNTL_VF_27[0], sizeof(mmATHUB_PCIE_ATS_CNTL_VF_27)/sizeof(mmATHUB_PCIE_ATS_CNTL_VF_27[0]), 0, 0 },
	{ "mmATHUB_PCIE_ATS_CNTL_VF_28", REG_MMIO, 0x003f, 0, &mmATHUB_PCIE_ATS_CNTL_VF_28[0], sizeof(mmATHUB_PCIE_ATS_CNTL_VF_28)/sizeof(mmATHUB_PCIE_ATS_CNTL_VF_28[0]), 0, 0 },
	{ "mmATHUB_PCIE_ATS_CNTL_VF_29", REG_MMIO, 0x0040, 0, &mmATHUB_PCIE_ATS_CNTL_VF_29[0], sizeof(mmATHUB_PCIE_ATS_CNTL_VF_29)/sizeof(mmATHUB_PCIE_ATS_CNTL_VF_29[0]), 0, 0 },
	{ "mmATHUB_PCIE_ATS_CNTL_VF_30", REG_MMIO, 0x0041, 0, &mmATHUB_PCIE_ATS_CNTL_VF_30[0], sizeof(mmATHUB_PCIE_ATS_CNTL_VF_30)/sizeof(mmATHUB_PCIE_ATS_CNTL_VF_30[0]), 0, 0 },
	{ "mmATC_VMID_PASID_MAPPING_UPDATE_STATUS", REG_MMIO, 0x0042, 0, &mmATC_VMID_PASID_MAPPING_UPDATE_STATUS[0], sizeof(mmATC_VMID_PASID_MAPPING_UPDATE_STATUS)/sizeof(mmATC_VMID_PASID_MAPPING_UPDATE_STATUS[0]), 0, 0 },
	{ "mmATC_ATS_VMID_STATUS", REG_MMIO, 0x0043, 0, &mmATC_ATS_VMID_STATUS[0], sizeof(mmATC_ATS_VMID_STATUS)/sizeof(mmATC_ATS_VMID_STATUS[0]), 0, 0 },
	{ "mmATC_ATS_STATUS", REG_MMIO, 0x0044, 0, &mmATC_ATS_STATUS[0], sizeof(mmATC_ATS_STATUS)/sizeof(mmATC_ATS_STATUS[0]), 0, 0 },
	{ "mmATC_ATS_VMID_SNAPSHOT_GFX_STAT", REG_MMIO, 0x0045, 0, &mmATC_ATS_VMID_SNAPSHOT_GFX_STAT[0], sizeof(mmATC_ATS_VMID_SNAPSHOT_GFX_STAT)/sizeof(mmATC_ATS_VMID_SNAPSHOT_GFX_STAT[0]), 0, 0 },
	{ "mmATC_ATS_VMID_SNAPSHOT_MMHUB_STAT", REG_MMIO, 0x0046, 0, &mmATC_ATS_VMID_SNAPSHOT_MMHUB_STAT[0], sizeof(mmATC_ATS_VMID_SNAPSHOT_MMHUB_STAT)/sizeof(mmATC_ATS_VMID_SNAPSHOT_MMHUB_STAT[0]), 0, 0 },
	{ "mmATC_VMID0_PASID_MAPPING", REG_MMIO, 0x0047, 0, &mmATC_VMID0_PASID_MAPPING[0], sizeof(mmATC_VMID0_PASID_MAPPING)/sizeof(mmATC_VMID0_PASID_MAPPING[0]), 0, 0 },
	{ "mmATC_VMID1_PASID_MAPPING", REG_MMIO, 0x0048, 0, &mmATC_VMID1_PASID_MAPPING[0], sizeof(mmATC_VMID1_PASID_MAPPING)/sizeof(mmATC_VMID1_PASID_MAPPING[0]), 0, 0 },
	{ "mmATC_VMID2_PASID_MAPPING", REG_MMIO, 0x0049, 0, &mmATC_VMID2_PASID_MAPPING[0], sizeof(mmATC_VMID2_PASID_MAPPING)/sizeof(mmATC_VMID2_PASID_MAPPING[0]), 0, 0 },
	{ "mmATC_VMID3_PASID_MAPPING", REG_MMIO, 0x004a, 0, &mmATC_VMID3_PASID_MAPPING[0], sizeof(mmATC_VMID3_PASID_MAPPING)/sizeof(mmATC_VMID3_PASID_MAPPING[0]), 0, 0 },
	{ "mmATC_VMID4_PASID_MAPPING", REG_MMIO, 0x004b, 0, &mmATC_VMID4_PASID_MAPPING[0], sizeof(mmATC_VMID4_PASID_MAPPING)/sizeof(mmATC_VMID4_PASID_MAPPING[0]), 0, 0 },
	{ "mmATC_VMID5_PASID_MAPPING", REG_MMIO, 0x004c, 0, &mmATC_VMID5_PASID_MAPPING[0], sizeof(mmATC_VMID5_PASID_MAPPING)/sizeof(mmATC_VMID5_PASID_MAPPING[0]), 0, 0 },
	{ "mmATC_VMID6_PASID_MAPPING", REG_MMIO, 0x004d, 0, &mmATC_VMID6_PASID_MAPPING[0], sizeof(mmATC_VMID6_PASID_MAPPING)/sizeof(mmATC_VMID6_PASID_MAPPING[0]), 0, 0 },
	{ "mmATC_VMID7_PASID_MAPPING", REG_MMIO, 0x004e, 0, &mmATC_VMID7_PASID_MAPPING[0], sizeof(mmATC_VMID7_PASID_MAPPING)/sizeof(mmATC_VMID7_PASID_MAPPING[0]), 0, 0 },
	{ "mmATC_VMID8_PASID_MAPPING", REG_MMIO, 0x004f, 0, &mmATC_VMID8_PASID_MAPPING[0], sizeof(mmATC_VMID8_PASID_MAPPING)/sizeof(mmATC_VMID8_PASID_MAPPING[0]), 0, 0 },
	{ "mmATC_VMID9_PASID_MAPPING", REG_MMIO, 0x0050, 0, &mmATC_VMID9_PASID_MAPPING[0], sizeof(mmATC_VMID9_PASID_MAPPING)/sizeof(mmATC_VMID9_PASID_MAPPING[0]), 0, 0 },
	{ "mmATC_VMID10_PASID_MAPPING", REG_MMIO, 0x0051, 0, &mmATC_VMID10_PASID_MAPPING[0], sizeof(mmATC_VMID10_PASID_MAPPING)/sizeof(mmATC_VMID10_PASID_MAPPING[0]), 0, 0 },
	{ "mmATC_VMID11_PASID_MAPPING", REG_MMIO, 0x0052, 0, &mmATC_VMID11_PASID_MAPPING[0], sizeof(mmATC_VMID11_PASID_MAPPING)/sizeof(mmATC_VMID11_PASID_MAPPING[0]), 0, 0 },
	{ "mmATC_VMID12_PASID_MAPPING", REG_MMIO, 0x0053, 0, &mmATC_VMID12_PASID_MAPPING[0], sizeof(mmATC_VMID12_PASID_MAPPING)/sizeof(mmATC_VMID12_PASID_MAPPING[0]), 0, 0 },
	{ "mmATC_VMID13_PASID_MAPPING", REG_MMIO, 0x0054, 0, &mmATC_VMID13_PASID_MAPPING[0], sizeof(mmATC_VMID13_PASID_MAPPING)/sizeof(mmATC_VMID13_PASID_MAPPING[0]), 0, 0 },
	{ "mmATC_VMID14_PASID_MAPPING", REG_MMIO, 0x0055, 0, &mmATC_VMID14_PASID_MAPPING[0], sizeof(mmATC_VMID14_PASID_MAPPING)/sizeof(mmATC_VMID14_PASID_MAPPING[0]), 0, 0 },
	{ "mmATC_VMID15_PASID_MAPPING", REG_MMIO, 0x0056, 0, &mmATC_VMID15_PASID_MAPPING[0], sizeof(mmATC_VMID15_PASID_MAPPING)/sizeof(mmATC_VMID15_PASID_MAPPING[0]), 0, 0 },
	{ "mmATC_VMID16_PASID_MAPPING", REG_MMIO, 0x0057, 0, &mmATC_VMID16_PASID_MAPPING[0], sizeof(mmATC_VMID16_PASID_MAPPING)/sizeof(mmATC_VMID16_PASID_MAPPING[0]), 0, 0 },
	{ "mmATC_VMID17_PASID_MAPPING", REG_MMIO, 0x0058, 0, &mmATC_VMID17_PASID_MAPPING[0], sizeof(mmATC_VMID17_PASID_MAPPING)/sizeof(mmATC_VMID17_PASID_MAPPING[0]), 0, 0 },
	{ "mmATC_VMID18_PASID_MAPPING", REG_MMIO, 0x0059, 0, &mmATC_VMID18_PASID_MAPPING[0], sizeof(mmATC_VMID18_PASID_MAPPING)/sizeof(mmATC_VMID18_PASID_MAPPING[0]), 0, 0 },
	{ "mmATC_VMID19_PASID_MAPPING", REG_MMIO, 0x005a, 0, &mmATC_VMID19_PASID_MAPPING[0], sizeof(mmATC_VMID19_PASID_MAPPING)/sizeof(mmATC_VMID19_PASID_MAPPING[0]), 0, 0 },
	{ "mmATC_VMID20_PASID_MAPPING", REG_MMIO, 0x005b, 0, &mmATC_VMID20_PASID_MAPPING[0], sizeof(mmATC_VMID20_PASID_MAPPING)/sizeof(mmATC_VMID20_PASID_MAPPING[0]), 0, 0 },
	{ "mmATC_VMID21_PASID_MAPPING", REG_MMIO, 0x005c, 0, &mmATC_VMID21_PASID_MAPPING[0], sizeof(mmATC_VMID21_PASID_MAPPING)/sizeof(mmATC_VMID21_PASID_MAPPING[0]), 0, 0 },
	{ "mmATC_VMID22_PASID_MAPPING", REG_MMIO, 0x005d, 0, &mmATC_VMID22_PASID_MAPPING[0], sizeof(mmATC_VMID22_PASID_MAPPING)/sizeof(mmATC_VMID22_PASID_MAPPING[0]), 0, 0 },
	{ "mmATC_VMID23_PASID_MAPPING", REG_MMIO, 0x005e, 0, &mmATC_VMID23_PASID_MAPPING[0], sizeof(mmATC_VMID23_PASID_MAPPING)/sizeof(mmATC_VMID23_PASID_MAPPING[0]), 0, 0 },
	{ "mmATC_VMID24_PASID_MAPPING", REG_MMIO, 0x005f, 0, &mmATC_VMID24_PASID_MAPPING[0], sizeof(mmATC_VMID24_PASID_MAPPING)/sizeof(mmATC_VMID24_PASID_MAPPING[0]), 0, 0 },
	{ "mmATC_VMID25_PASID_MAPPING", REG_MMIO, 0x0060, 0, &mmATC_VMID25_PASID_MAPPING[0], sizeof(mmATC_VMID25_PASID_MAPPING)/sizeof(mmATC_VMID25_PASID_MAPPING[0]), 0, 0 },
	{ "mmATC_VMID26_PASID_MAPPING", REG_MMIO, 0x0061, 0, &mmATC_VMID26_PASID_MAPPING[0], sizeof(mmATC_VMID26_PASID_MAPPING)/sizeof(mmATC_VMID26_PASID_MAPPING[0]), 0, 0 },
	{ "mmATC_VMID27_PASID_MAPPING", REG_MMIO, 0x0062, 0, &mmATC_VMID27_PASID_MAPPING[0], sizeof(mmATC_VMID27_PASID_MAPPING)/sizeof(mmATC_VMID27_PASID_MAPPING[0]), 0, 0 },
	{ "mmATC_VMID28_PASID_MAPPING", REG_MMIO, 0x0063, 0, &mmATC_VMID28_PASID_MAPPING[0], sizeof(mmATC_VMID28_PASID_MAPPING)/sizeof(mmATC_VMID28_PASID_MAPPING[0]), 0, 0 },
	{ "mmATC_VMID29_PASID_MAPPING", REG_MMIO, 0x0064, 0, &mmATC_VMID29_PASID_MAPPING[0], sizeof(mmATC_VMID29_PASID_MAPPING)/sizeof(mmATC_VMID29_PASID_MAPPING[0]), 0, 0 },
	{ "mmATC_VMID30_PASID_MAPPING", REG_MMIO, 0x0065, 0, &mmATC_VMID30_PASID_MAPPING[0], sizeof(mmATC_VMID30_PASID_MAPPING)/sizeof(mmATC_VMID30_PASID_MAPPING[0]), 0, 0 },
	{ "mmATC_VMID31_PASID_MAPPING", REG_MMIO, 0x0066, 0, &mmATC_VMID31_PASID_MAPPING[0], sizeof(mmATC_VMID31_PASID_MAPPING)/sizeof(mmATC_VMID31_PASID_MAPPING[0]), 0, 0 },
	{ "mmXPB_RTR_SRC_APRTR0", REG_MMIO, 0x0068, 0, &mmXPB_RTR_SRC_APRTR0[0], sizeof(mmXPB_RTR_SRC_APRTR0)/sizeof(mmXPB_RTR_SRC_APRTR0[0]), 0, 0 },
	{ "mmXPB_RTR_SRC_APRTR1", REG_MMIO, 0x0069, 0, &mmXPB_RTR_SRC_APRTR1[0], sizeof(mmXPB_RTR_SRC_APRTR1)/sizeof(mmXPB_RTR_SRC_APRTR1[0]), 0, 0 },
	{ "mmXPB_RTR_SRC_APRTR2", REG_MMIO, 0x006a, 0, &mmXPB_RTR_SRC_APRTR2[0], sizeof(mmXPB_RTR_SRC_APRTR2)/sizeof(mmXPB_RTR_SRC_APRTR2[0]), 0, 0 },
	{ "mmXPB_RTR_SRC_APRTR3", REG_MMIO, 0x006b, 0, &mmXPB_RTR_SRC_APRTR3[0], sizeof(mmXPB_RTR_SRC_APRTR3)/sizeof(mmXPB_RTR_SRC_APRTR3[0]), 0, 0 },
	{ "mmXPB_RTR_SRC_APRTR4", REG_MMIO, 0x006c, 0, &mmXPB_RTR_SRC_APRTR4[0], sizeof(mmXPB_RTR_SRC_APRTR4)/sizeof(mmXPB_RTR_SRC_APRTR4[0]), 0, 0 },
	{ "mmXPB_RTR_SRC_APRTR5", REG_MMIO, 0x006d, 0, &mmXPB_RTR_SRC_APRTR5[0], sizeof(mmXPB_RTR_SRC_APRTR5)/sizeof(mmXPB_RTR_SRC_APRTR5[0]), 0, 0 },
	{ "mmXPB_RTR_SRC_APRTR6", REG_MMIO, 0x006e, 0, &mmXPB_RTR_SRC_APRTR6[0], sizeof(mmXPB_RTR_SRC_APRTR6)/sizeof(mmXPB_RTR_SRC_APRTR6[0]), 0, 0 },
	{ "mmXPB_RTR_SRC_APRTR7", REG_MMIO, 0x006f, 0, &mmXPB_RTR_SRC_APRTR7[0], sizeof(mmXPB_RTR_SRC_APRTR7)/sizeof(mmXPB_RTR_SRC_APRTR7[0]), 0, 0 },
	{ "mmXPB_RTR_SRC_APRTR8", REG_MMIO, 0x0070, 0, &mmXPB_RTR_SRC_APRTR8[0], sizeof(mmXPB_RTR_SRC_APRTR8)/sizeof(mmXPB_RTR_SRC_APRTR8[0]), 0, 0 },
	{ "mmXPB_RTR_SRC_APRTR9", REG_MMIO, 0x0071, 0, &mmXPB_RTR_SRC_APRTR9[0], sizeof(mmXPB_RTR_SRC_APRTR9)/sizeof(mmXPB_RTR_SRC_APRTR9[0]), 0, 0 },
	{ "mmXPB_RTR_SRC_APRTR10", REG_MMIO, 0x0072, 0, &mmXPB_RTR_SRC_APRTR10[0], sizeof(mmXPB_RTR_SRC_APRTR10)/sizeof(mmXPB_RTR_SRC_APRTR10[0]), 0, 0 },
	{ "mmXPB_RTR_SRC_APRTR11", REG_MMIO, 0x0073, 0, &mmXPB_RTR_SRC_APRTR11[0], sizeof(mmXPB_RTR_SRC_APRTR11)/sizeof(mmXPB_RTR_SRC_APRTR11[0]), 0, 0 },
	{ "mmXPB_RTR_SRC_APRTR12", REG_MMIO, 0x0074, 0, &mmXPB_RTR_SRC_APRTR12[0], sizeof(mmXPB_RTR_SRC_APRTR12)/sizeof(mmXPB_RTR_SRC_APRTR12[0]), 0, 0 },
	{ "mmXPB_RTR_SRC_APRTR13", REG_MMIO, 0x0075, 0, &mmXPB_RTR_SRC_APRTR13[0], sizeof(mmXPB_RTR_SRC_APRTR13)/sizeof(mmXPB_RTR_SRC_APRTR13[0]), 0, 0 },
	{ "mmXPB_RTR_DEST_MAP0", REG_MMIO, 0x0076, 0, &mmXPB_RTR_DEST_MAP0[0], sizeof(mmXPB_RTR_DEST_MAP0)/sizeof(mmXPB_RTR_DEST_MAP0[0]), 0, 0 },
	{ "mmXPB_RTR_DEST_MAP1", REG_MMIO, 0x0077, 0, &mmXPB_RTR_DEST_MAP1[0], sizeof(mmXPB_RTR_DEST_MAP1)/sizeof(mmXPB_RTR_DEST_MAP1[0]), 0, 0 },
	{ "mmXPB_RTR_DEST_MAP2", REG_MMIO, 0x0078, 0, &mmXPB_RTR_DEST_MAP2[0], sizeof(mmXPB_RTR_DEST_MAP2)/sizeof(mmXPB_RTR_DEST_MAP2[0]), 0, 0 },
	{ "mmXPB_RTR_DEST_MAP3", REG_MMIO, 0x0079, 0, &mmXPB_RTR_DEST_MAP3[0], sizeof(mmXPB_RTR_DEST_MAP3)/sizeof(mmXPB_RTR_DEST_MAP3[0]), 0, 0 },
	{ "mmXPB_RTR_DEST_MAP4", REG_MMIO, 0x007a, 0, &mmXPB_RTR_DEST_MAP4[0], sizeof(mmXPB_RTR_DEST_MAP4)/sizeof(mmXPB_RTR_DEST_MAP4[0]), 0, 0 },
	{ "mmXPB_RTR_DEST_MAP5", REG_MMIO, 0x007b, 0, &mmXPB_RTR_DEST_MAP5[0], sizeof(mmXPB_RTR_DEST_MAP5)/sizeof(mmXPB_RTR_DEST_MAP5[0]), 0, 0 },
	{ "mmXPB_RTR_DEST_MAP6", REG_MMIO, 0x007c, 0, &mmXPB_RTR_DEST_MAP6[0], sizeof(mmXPB_RTR_DEST_MAP6)/sizeof(mmXPB_RTR_DEST_MAP6[0]), 0, 0 },
	{ "mmXPB_RTR_DEST_MAP7", REG_MMIO, 0x007d, 0, &mmXPB_RTR_DEST_MAP7[0], sizeof(mmXPB_RTR_DEST_MAP7)/sizeof(mmXPB_RTR_DEST_MAP7[0]), 0, 0 },
	{ "mmXPB_RTR_DEST_MAP8", REG_MMIO, 0x007e, 0, &mmXPB_RTR_DEST_MAP8[0], sizeof(mmXPB_RTR_DEST_MAP8)/sizeof(mmXPB_RTR_DEST_MAP8[0]), 0, 0 },
	{ "mmXPB_RTR_DEST_MAP9", REG_MMIO, 0x007f, 0, &mmXPB_RTR_DEST_MAP9[0], sizeof(mmXPB_RTR_DEST_MAP9)/sizeof(mmXPB_RTR_DEST_MAP9[0]), 0, 0 },
	{ "mmXPB_RTR_DEST_MAP10", REG_MMIO, 0x0080, 0, &mmXPB_RTR_DEST_MAP10[0], sizeof(mmXPB_RTR_DEST_MAP10)/sizeof(mmXPB_RTR_DEST_MAP10[0]), 0, 0 },
	{ "mmXPB_RTR_DEST_MAP11", REG_MMIO, 0x0081, 0, &mmXPB_RTR_DEST_MAP11[0], sizeof(mmXPB_RTR_DEST_MAP11)/sizeof(mmXPB_RTR_DEST_MAP11[0]), 0, 0 },
	{ "mmXPB_RTR_DEST_MAP12", REG_MMIO, 0x0082, 0, &mmXPB_RTR_DEST_MAP12[0], sizeof(mmXPB_RTR_DEST_MAP12)/sizeof(mmXPB_RTR_DEST_MAP12[0]), 0, 0 },
	{ "mmXPB_RTR_DEST_MAP13", REG_MMIO, 0x0083, 0, &mmXPB_RTR_DEST_MAP13[0], sizeof(mmXPB_RTR_DEST_MAP13)/sizeof(mmXPB_RTR_DEST_MAP13[0]), 0, 0 },
	{ "mmXPB_CLG_CFG0", REG_MMIO, 0x0084, 0, &mmXPB_CLG_CFG0[0], sizeof(mmXPB_CLG_CFG0)/sizeof(mmXPB_CLG_CFG0[0]), 0, 0 },
	{ "mmXPB_CLG_CFG1", REG_MMIO, 0x0085, 0, &mmXPB_CLG_CFG1[0], sizeof(mmXPB_CLG_CFG1)/sizeof(mmXPB_CLG_CFG1[0]), 0, 0 },
	{ "mmXPB_CLG_CFG2", REG_MMIO, 0x0086, 0, &mmXPB_CLG_CFG2[0], sizeof(mmXPB_CLG_CFG2)/sizeof(mmXPB_CLG_CFG2[0]), 0, 0 },
	{ "mmXPB_CLG_CFG3", REG_MMIO, 0x0087, 0, &mmXPB_CLG_CFG3[0], sizeof(mmXPB_CLG_CFG3)/sizeof(mmXPB_CLG_CFG3[0]), 0, 0 },
	{ "mmXPB_CLG_CFG4", REG_MMIO, 0x0088, 0, &mmXPB_CLG_CFG4[0], sizeof(mmXPB_CLG_CFG4)/sizeof(mmXPB_CLG_CFG4[0]), 0, 0 },
	{ "mmXPB_CLG_CFG5", REG_MMIO, 0x0089, 0, &mmXPB_CLG_CFG5[0], sizeof(mmXPB_CLG_CFG5)/sizeof(mmXPB_CLG_CFG5[0]), 0, 0 },
	{ "mmXPB_CLG_CFG6", REG_MMIO, 0x008a, 0, &mmXPB_CLG_CFG6[0], sizeof(mmXPB_CLG_CFG6)/sizeof(mmXPB_CLG_CFG6[0]), 0, 0 },
	{ "mmXPB_CLG_CFG7", REG_MMIO, 0x008b, 0, &mmXPB_CLG_CFG7[0], sizeof(mmXPB_CLG_CFG7)/sizeof(mmXPB_CLG_CFG7[0]), 0, 0 },
	{ "mmXPB_CLG_EXTRA", REG_MMIO, 0x008c, 0, &mmXPB_CLG_EXTRA[0], sizeof(mmXPB_CLG_EXTRA)/sizeof(mmXPB_CLG_EXTRA[0]), 0, 0 },
	{ "mmXPB_CLG_EXTRA_MSK", REG_MMIO, 0x008d, 0, &mmXPB_CLG_EXTRA_MSK[0], sizeof(mmXPB_CLG_EXTRA_MSK)/sizeof(mmXPB_CLG_EXTRA_MSK[0]), 0, 0 },
	{ "mmXPB_LB_ADDR", REG_MMIO, 0x008e, 0, &mmXPB_LB_ADDR[0], sizeof(mmXPB_LB_ADDR)/sizeof(mmXPB_LB_ADDR[0]), 0, 0 },
	{ "mmXPB_WCB_STS", REG_MMIO, 0x008f, 0, &mmXPB_WCB_STS[0], sizeof(mmXPB_WCB_STS)/sizeof(mmXPB_WCB_STS[0]), 0, 0 },
	{ "mmXPB_HST_CFG", REG_MMIO, 0x0090, 0, &mmXPB_HST_CFG[0], sizeof(mmXPB_HST_CFG)/sizeof(mmXPB_HST_CFG[0]), 0, 0 },
	{ "mmXPB_P2P_BAR_CFG", REG_MMIO, 0x0091, 0, &mmXPB_P2P_BAR_CFG[0], sizeof(mmXPB_P2P_BAR_CFG)/sizeof(mmXPB_P2P_BAR_CFG[0]), 0, 0 },
	{ "mmXPB_P2P_BAR0", REG_MMIO, 0x0092, 0, &mmXPB_P2P_BAR0[0], sizeof(mmXPB_P2P_BAR0)/sizeof(mmXPB_P2P_BAR0[0]), 0, 0 },
	{ "mmXPB_P2P_BAR1", REG_MMIO, 0x0093, 0, &mmXPB_P2P_BAR1[0], sizeof(mmXPB_P2P_BAR1)/sizeof(mmXPB_P2P_BAR1[0]), 0, 0 },
	{ "mmXPB_P2P_BAR2", REG_MMIO, 0x0094, 0, &mmXPB_P2P_BAR2[0], sizeof(mmXPB_P2P_BAR2)/sizeof(mmXPB_P2P_BAR2[0]), 0, 0 },
	{ "mmXPB_P2P_BAR3", REG_MMIO, 0x0095, 0, &mmXPB_P2P_BAR3[0], sizeof(mmXPB_P2P_BAR3)/sizeof(mmXPB_P2P_BAR3[0]), 0, 0 },
	{ "mmXPB_P2P_BAR4", REG_MMIO, 0x0096, 0, &mmXPB_P2P_BAR4[0], sizeof(mmXPB_P2P_BAR4)/sizeof(mmXPB_P2P_BAR4[0]), 0, 0 },
	{ "mmXPB_P2P_BAR5", REG_MMIO, 0x0097, 0, &mmXPB_P2P_BAR5[0], sizeof(mmXPB_P2P_BAR5)/sizeof(mmXPB_P2P_BAR5[0]), 0, 0 },
	{ "mmXPB_P2P_BAR6", REG_MMIO, 0x0098, 0, &mmXPB_P2P_BAR6[0], sizeof(mmXPB_P2P_BAR6)/sizeof(mmXPB_P2P_BAR6[0]), 0, 0 },
	{ "mmXPB_P2P_BAR7", REG_MMIO, 0x0099, 0, &mmXPB_P2P_BAR7[0], sizeof(mmXPB_P2P_BAR7)/sizeof(mmXPB_P2P_BAR7[0]), 0, 0 },
	{ "mmXPB_P2P_BAR_SETUP", REG_MMIO, 0x009a, 0, &mmXPB_P2P_BAR_SETUP[0], sizeof(mmXPB_P2P_BAR_SETUP)/sizeof(mmXPB_P2P_BAR_SETUP[0]), 0, 0 },
	{ "mmXPB_P2P_BAR_DELTA_ABOVE", REG_MMIO, 0x009c, 0, &mmXPB_P2P_BAR_DELTA_ABOVE[0], sizeof(mmXPB_P2P_BAR_DELTA_ABOVE)/sizeof(mmXPB_P2P_BAR_DELTA_ABOVE[0]), 0, 0 },
	{ "mmXPB_P2P_BAR_DELTA_BELOW", REG_MMIO, 0x009d, 0, &mmXPB_P2P_BAR_DELTA_BELOW[0], sizeof(mmXPB_P2P_BAR_DELTA_BELOW)/sizeof(mmXPB_P2P_BAR_DELTA_BELOW[0]), 0, 0 },
	{ "mmXPB_PEER_SYS_BAR0", REG_MMIO, 0x009e, 0, &mmXPB_PEER_SYS_BAR0[0], sizeof(mmXPB_PEER_SYS_BAR0)/sizeof(mmXPB_PEER_SYS_BAR0[0]), 0, 0 },
	{ "mmXPB_PEER_SYS_BAR1", REG_MMIO, 0x009f, 0, &mmXPB_PEER_SYS_BAR1[0], sizeof(mmXPB_PEER_SYS_BAR1)/sizeof(mmXPB_PEER_SYS_BAR1[0]), 0, 0 },
	{ "mmXPB_PEER_SYS_BAR2", REG_MMIO, 0x00a0, 0, &mmXPB_PEER_SYS_BAR2[0], sizeof(mmXPB_PEER_SYS_BAR2)/sizeof(mmXPB_PEER_SYS_BAR2[0]), 0, 0 },
	{ "mmXPB_PEER_SYS_BAR3", REG_MMIO, 0x00a1, 0, &mmXPB_PEER_SYS_BAR3[0], sizeof(mmXPB_PEER_SYS_BAR3)/sizeof(mmXPB_PEER_SYS_BAR3[0]), 0, 0 },
	{ "mmXPB_PEER_SYS_BAR4", REG_MMIO, 0x00a2, 0, &mmXPB_PEER_SYS_BAR4[0], sizeof(mmXPB_PEER_SYS_BAR4)/sizeof(mmXPB_PEER_SYS_BAR4[0]), 0, 0 },
	{ "mmXPB_PEER_SYS_BAR5", REG_MMIO, 0x00a3, 0, &mmXPB_PEER_SYS_BAR5[0], sizeof(mmXPB_PEER_SYS_BAR5)/sizeof(mmXPB_PEER_SYS_BAR5[0]), 0, 0 },
	{ "mmXPB_PEER_SYS_BAR6", REG_MMIO, 0x00a4, 0, &mmXPB_PEER_SYS_BAR6[0], sizeof(mmXPB_PEER_SYS_BAR6)/sizeof(mmXPB_PEER_SYS_BAR6[0]), 0, 0 },
	{ "mmXPB_PEER_SYS_BAR7", REG_MMIO, 0x00a5, 0, &mmXPB_PEER_SYS_BAR7[0], sizeof(mmXPB_PEER_SYS_BAR7)/sizeof(mmXPB_PEER_SYS_BAR7[0]), 0, 0 },
	{ "mmXPB_PEER_SYS_BAR8", REG_MMIO, 0x00a6, 0, &mmXPB_PEER_SYS_BAR8[0], sizeof(mmXPB_PEER_SYS_BAR8)/sizeof(mmXPB_PEER_SYS_BAR8[0]), 0, 0 },
	{ "mmXPB_PEER_SYS_BAR9", REG_MMIO, 0x00a7, 0, &mmXPB_PEER_SYS_BAR9[0], sizeof(mmXPB_PEER_SYS_BAR9)/sizeof(mmXPB_PEER_SYS_BAR9[0]), 0, 0 },
	{ "mmXPB_PEER_SYS_BAR10", REG_MMIO, 0x00a8, 0, &mmXPB_PEER_SYS_BAR10[0], sizeof(mmXPB_PEER_SYS_BAR10)/sizeof(mmXPB_PEER_SYS_BAR10[0]), 0, 0 },
	{ "mmXPB_PEER_SYS_BAR11", REG_MMIO, 0x00a9, 0, &mmXPB_PEER_SYS_BAR11[0], sizeof(mmXPB_PEER_SYS_BAR11)/sizeof(mmXPB_PEER_SYS_BAR11[0]), 0, 0 },
	{ "mmXPB_PEER_SYS_BAR12", REG_MMIO, 0x00aa, 0, &mmXPB_PEER_SYS_BAR12[0], sizeof(mmXPB_PEER_SYS_BAR12)/sizeof(mmXPB_PEER_SYS_BAR12[0]), 0, 0 },
	{ "mmXPB_PEER_SYS_BAR13", REG_MMIO, 0x00ab, 0, &mmXPB_PEER_SYS_BAR13[0], sizeof(mmXPB_PEER_SYS_BAR13)/sizeof(mmXPB_PEER_SYS_BAR13[0]), 0, 0 },
	{ "mmXPB_CLK_GAT", REG_MMIO, 0x00ac, 0, &mmXPB_CLK_GAT[0], sizeof(mmXPB_CLK_GAT)/sizeof(mmXPB_CLK_GAT[0]), 0, 0 },
	{ "mmXPB_INTF_CFG", REG_MMIO, 0x00ad, 0, &mmXPB_INTF_CFG[0], sizeof(mmXPB_INTF_CFG)/sizeof(mmXPB_INTF_CFG[0]), 0, 0 },
	{ "mmXPB_INTF_STS", REG_MMIO, 0x00ae, 0, &mmXPB_INTF_STS[0], sizeof(mmXPB_INTF_STS)/sizeof(mmXPB_INTF_STS[0]), 0, 0 },
	{ "mmXPB_PIPE_STS", REG_MMIO, 0x00af, 0, &mmXPB_PIPE_STS[0], sizeof(mmXPB_PIPE_STS)/sizeof(mmXPB_PIPE_STS[0]), 0, 0 },
	{ "mmXPB_SUB_CTRL", REG_MMIO, 0x00b0, 0, &mmXPB_SUB_CTRL[0], sizeof(mmXPB_SUB_CTRL)/sizeof(mmXPB_SUB_CTRL[0]), 0, 0 },
	{ "mmXPB_MAP_INVERT_FLUSH_NUM_LSB", REG_MMIO, 0x00b1, 0, &mmXPB_MAP_INVERT_FLUSH_NUM_LSB[0], sizeof(mmXPB_MAP_INVERT_FLUSH_NUM_LSB)/sizeof(mmXPB_MAP_INVERT_FLUSH_NUM_LSB[0]), 0, 0 },
	{ "mmXPB_PERF_KNOBS", REG_MMIO, 0x00b2, 0, &mmXPB_PERF_KNOBS[0], sizeof(mmXPB_PERF_KNOBS)/sizeof(mmXPB_PERF_KNOBS[0]), 0, 0 },
	{ "mmXPB_STICKY", REG_MMIO, 0x00b3, 0, &mmXPB_STICKY[0], sizeof(mmXPB_STICKY)/sizeof(mmXPB_STICKY[0]), 0, 0 },
	{ "mmXPB_STICKY_W1C", REG_MMIO, 0x00b4, 0, &mmXPB_STICKY_W1C[0], sizeof(mmXPB_STICKY_W1C)/sizeof(mmXPB_STICKY_W1C[0]), 0, 0 },
	{ "mmXPB_MISC_CFG", REG_MMIO, 0x00b5, 0, &mmXPB_MISC_CFG[0], sizeof(mmXPB_MISC_CFG)/sizeof(mmXPB_MISC_CFG[0]), 0, 0 },
	{ "mmXPB_INTF_CFG2", REG_MMIO, 0x00b6, 0, &mmXPB_INTF_CFG2[0], sizeof(mmXPB_INTF_CFG2)/sizeof(mmXPB_INTF_CFG2[0]), 0, 0 },
	{ "mmXPB_CLG_EXTRA_RD", REG_MMIO, 0x00b7, 0, &mmXPB_CLG_EXTRA_RD[0], sizeof(mmXPB_CLG_EXTRA_RD)/sizeof(mmXPB_CLG_EXTRA_RD[0]), 0, 0 },
	{ "mmXPB_CLG_EXTRA_MSK_RD", REG_MMIO, 0x00b8, 0, &mmXPB_CLG_EXTRA_MSK_RD[0], sizeof(mmXPB_CLG_EXTRA_MSK_RD)/sizeof(mmXPB_CLG_EXTRA_MSK_RD[0]), 0, 0 },
	{ "mmXPB_CLG_GFX_MATCH", REG_MMIO, 0x00b9, 0, &mmXPB_CLG_GFX_MATCH[0], sizeof(mmXPB_CLG_GFX_MATCH)/sizeof(mmXPB_CLG_GFX_MATCH[0]), 0, 0 },
	{ "mmXPB_CLG_GFX_MATCH_MSK", REG_MMIO, 0x00ba, 0, &mmXPB_CLG_GFX_MATCH_MSK[0], sizeof(mmXPB_CLG_GFX_MATCH_MSK)/sizeof(mmXPB_CLG_GFX_MATCH_MSK[0]), 0, 0 },
	{ "mmXPB_CLG_MM_MATCH", REG_MMIO, 0x00bb, 0, &mmXPB_CLG_MM_MATCH[0], sizeof(mmXPB_CLG_MM_MATCH)/sizeof(mmXPB_CLG_MM_MATCH[0]), 0, 0 },
	{ "mmXPB_CLG_MM_MATCH_MSK", REG_MMIO, 0x00bc, 0, &mmXPB_CLG_MM_MATCH_MSK[0], sizeof(mmXPB_CLG_MM_MATCH_MSK)/sizeof(mmXPB_CLG_MM_MATCH_MSK[0]), 0, 0 },
	{ "mmXPB_CLG_GUS_MATCH", REG_MMIO, 0x00bd, 0, &mmXPB_CLG_GUS_MATCH[0], sizeof(mmXPB_CLG_GUS_MATCH)/sizeof(mmXPB_CLG_GUS_MATCH[0]), 0, 0 },
	{ "mmXPB_CLG_GUS_MATCH_MSK", REG_MMIO, 0x00be, 0, &mmXPB_CLG_GUS_MATCH_MSK[0], sizeof(mmXPB_CLG_GUS_MATCH_MSK)/sizeof(mmXPB_CLG_GUS_MATCH_MSK[0]), 0, 0 },
	{ "mmXPB_CLG_GFX_UNITID_MAPPING0", REG_MMIO, 0x00bf, 0, &mmXPB_CLG_GFX_UNITID_MAPPING0[0], sizeof(mmXPB_CLG_GFX_UNITID_MAPPING0)/sizeof(mmXPB_CLG_GFX_UNITID_MAPPING0[0]), 0, 0 },
	{ "mmXPB_CLG_GFX_UNITID_MAPPING1", REG_MMIO, 0x00c0, 0, &mmXPB_CLG_GFX_UNITID_MAPPING1[0], sizeof(mmXPB_CLG_GFX_UNITID_MAPPING1)/sizeof(mmXPB_CLG_GFX_UNITID_MAPPING1[0]), 0, 0 },
	{ "mmXPB_CLG_GFX_UNITID_MAPPING2", REG_MMIO, 0x00c1, 0, &mmXPB_CLG_GFX_UNITID_MAPPING2[0], sizeof(mmXPB_CLG_GFX_UNITID_MAPPING2)/sizeof(mmXPB_CLG_GFX_UNITID_MAPPING2[0]), 0, 0 },
	{ "mmXPB_CLG_GFX_UNITID_MAPPING3", REG_MMIO, 0x00c2, 0, &mmXPB_CLG_GFX_UNITID_MAPPING3[0], sizeof(mmXPB_CLG_GFX_UNITID_MAPPING3)/sizeof(mmXPB_CLG_GFX_UNITID_MAPPING3[0]), 0, 0 },
	{ "mmXPB_CLG_GFX_UNITID_MAPPING4", REG_MMIO, 0x00c3, 0, &mmXPB_CLG_GFX_UNITID_MAPPING4[0], sizeof(mmXPB_CLG_GFX_UNITID_MAPPING4)/sizeof(mmXPB_CLG_GFX_UNITID_MAPPING4[0]), 0, 0 },
	{ "mmXPB_CLG_GFX_UNITID_MAPPING5", REG_MMIO, 0x00c4, 0, &mmXPB_CLG_GFX_UNITID_MAPPING5[0], sizeof(mmXPB_CLG_GFX_UNITID_MAPPING5)/sizeof(mmXPB_CLG_GFX_UNITID_MAPPING5[0]), 0, 0 },
	{ "mmXPB_CLG_GFX_UNITID_MAPPING6", REG_MMIO, 0x00c5, 0, &mmXPB_CLG_GFX_UNITID_MAPPING6[0], sizeof(mmXPB_CLG_GFX_UNITID_MAPPING6)/sizeof(mmXPB_CLG_GFX_UNITID_MAPPING6[0]), 0, 0 },
	{ "mmXPB_CLG_GFX_UNITID_MAPPING7", REG_MMIO, 0x00c6, 0, &mmXPB_CLG_GFX_UNITID_MAPPING7[0], sizeof(mmXPB_CLG_GFX_UNITID_MAPPING7)/sizeof(mmXPB_CLG_GFX_UNITID_MAPPING7[0]), 0, 0 },
	{ "mmXPB_CLG_MM_UNITID_MAPPING0", REG_MMIO, 0x00c7, 0, &mmXPB_CLG_MM_UNITID_MAPPING0[0], sizeof(mmXPB_CLG_MM_UNITID_MAPPING0)/sizeof(mmXPB_CLG_MM_UNITID_MAPPING0[0]), 0, 0 },
	{ "mmXPB_CLG_MM_UNITID_MAPPING1", REG_MMIO, 0x00c8, 0, &mmXPB_CLG_MM_UNITID_MAPPING1[0], sizeof(mmXPB_CLG_MM_UNITID_MAPPING1)/sizeof(mmXPB_CLG_MM_UNITID_MAPPING1[0]), 0, 0 },
	{ "mmXPB_CLG_MM_UNITID_MAPPING2", REG_MMIO, 0x00c9, 0, &mmXPB_CLG_MM_UNITID_MAPPING2[0], sizeof(mmXPB_CLG_MM_UNITID_MAPPING2)/sizeof(mmXPB_CLG_MM_UNITID_MAPPING2[0]), 0, 0 },
	{ "mmXPB_CLG_MM_UNITID_MAPPING3", REG_MMIO, 0x00ca, 0, &mmXPB_CLG_MM_UNITID_MAPPING3[0], sizeof(mmXPB_CLG_MM_UNITID_MAPPING3)/sizeof(mmXPB_CLG_MM_UNITID_MAPPING3[0]), 0, 0 },
	{ "mmXPB_CLG_GUS_UNITID_MAPPING0", REG_MMIO, 0x00cb, 0, &mmXPB_CLG_GUS_UNITID_MAPPING0[0], sizeof(mmXPB_CLG_GUS_UNITID_MAPPING0)/sizeof(mmXPB_CLG_GUS_UNITID_MAPPING0[0]), 0, 0 },
	{ "mmXPB_CLG_GUS_UNITID_MAPPING1", REG_MMIO, 0x00cc, 0, &mmXPB_CLG_GUS_UNITID_MAPPING1[0], sizeof(mmXPB_CLG_GUS_UNITID_MAPPING1)/sizeof(mmXPB_CLG_GUS_UNITID_MAPPING1[0]), 0, 0 },
	{ "mmXPB_CLG_GUS_UNITID_MAPPING2", REG_MMIO, 0x00cd, 0, &mmXPB_CLG_GUS_UNITID_MAPPING2[0], sizeof(mmXPB_CLG_GUS_UNITID_MAPPING2)/sizeof(mmXPB_CLG_GUS_UNITID_MAPPING2[0]), 0, 0 },
	{ "mmXPB_CLG_GUS_UNITID_MAPPING3", REG_MMIO, 0x00ce, 0, &mmXPB_CLG_GUS_UNITID_MAPPING3[0], sizeof(mmXPB_CLG_GUS_UNITID_MAPPING3)/sizeof(mmXPB_CLG_GUS_UNITID_MAPPING3[0]), 0, 0 },
	{ "mmXPB_CLG_GUS_UNITID_MAPPING4", REG_MMIO, 0x00cf, 0, &mmXPB_CLG_GUS_UNITID_MAPPING4[0], sizeof(mmXPB_CLG_GUS_UNITID_MAPPING4)/sizeof(mmXPB_CLG_GUS_UNITID_MAPPING4[0]), 0, 0 },
	{ "mmXPB_CLG_GUS_UNITID_MAPPING5", REG_MMIO, 0x00d0, 0, &mmXPB_CLG_GUS_UNITID_MAPPING5[0], sizeof(mmXPB_CLG_GUS_UNITID_MAPPING5)/sizeof(mmXPB_CLG_GUS_UNITID_MAPPING5[0]), 0, 0 },
	{ "mmXPB_CLG_GUS_UNITID_MAPPING6", REG_MMIO, 0x00d1, 0, &mmXPB_CLG_GUS_UNITID_MAPPING6[0], sizeof(mmXPB_CLG_GUS_UNITID_MAPPING6)/sizeof(mmXPB_CLG_GUS_UNITID_MAPPING6[0]), 0, 0 },
	{ "mmXPB_CLG_GUS_UNITID_MAPPING7", REG_MMIO, 0x00d2, 0, &mmXPB_CLG_GUS_UNITID_MAPPING7[0], sizeof(mmXPB_CLG_GUS_UNITID_MAPPING7)/sizeof(mmXPB_CLG_GUS_UNITID_MAPPING7[0]), 0, 0 },
	{ "mmRPB_PASSPW_CONF", REG_MMIO, 0x00d4, 0, &mmRPB_PASSPW_CONF[0], sizeof(mmRPB_PASSPW_CONF)/sizeof(mmRPB_PASSPW_CONF[0]), 0, 0 },
	{ "mmRPB_BLOCKLEVEL_CONF", REG_MMIO, 0x00d5, 0, &mmRPB_BLOCKLEVEL_CONF[0], sizeof(mmRPB_BLOCKLEVEL_CONF)/sizeof(mmRPB_BLOCKLEVEL_CONF[0]), 0, 0 },
	{ "mmRPB_TAG_CONF", REG_MMIO, 0x00d6, 0, &mmRPB_TAG_CONF[0], sizeof(mmRPB_TAG_CONF)/sizeof(mmRPB_TAG_CONF[0]), 0, 0 },
	{ "mmRPB_EFF_CNTL", REG_MMIO, 0x00d8, 0, &mmRPB_EFF_CNTL[0], sizeof(mmRPB_EFF_CNTL)/sizeof(mmRPB_EFF_CNTL[0]), 0, 0 },
	{ "mmRPB_ARB_CNTL", REG_MMIO, 0x00d9, 0, &mmRPB_ARB_CNTL[0], sizeof(mmRPB_ARB_CNTL)/sizeof(mmRPB_ARB_CNTL[0]), 0, 0 },
	{ "mmRPB_ARB_CNTL2", REG_MMIO, 0x00da, 0, &mmRPB_ARB_CNTL2[0], sizeof(mmRPB_ARB_CNTL2)/sizeof(mmRPB_ARB_CNTL2[0]), 0, 0 },
	{ "mmRPB_BIF_CNTL", REG_MMIO, 0x00db, 0, &mmRPB_BIF_CNTL[0], sizeof(mmRPB_BIF_CNTL)/sizeof(mmRPB_BIF_CNTL[0]), 0, 0 },
	{ "mmRPB_BIF_CNTL2", REG_MMIO, 0x00dc, 0, &mmRPB_BIF_CNTL2[0], sizeof(mmRPB_BIF_CNTL2)/sizeof(mmRPB_BIF_CNTL2[0]), 0, 0 },
	{ "mmRPB_WR_SWITCH_CNTL", REG_MMIO, 0x00dd, 0, &mmRPB_WR_SWITCH_CNTL[0], sizeof(mmRPB_WR_SWITCH_CNTL)/sizeof(mmRPB_WR_SWITCH_CNTL[0]), 0, 0 },
	{ "mmRPB_RD_SWITCH_CNTL", REG_MMIO, 0x00de, 0, &mmRPB_RD_SWITCH_CNTL[0], sizeof(mmRPB_RD_SWITCH_CNTL)/sizeof(mmRPB_RD_SWITCH_CNTL[0]), 0, 0 },
	{ "mmRPB_SWITCH_CNTL2", REG_MMIO, 0x00df, 0, &mmRPB_SWITCH_CNTL2[0], sizeof(mmRPB_SWITCH_CNTL2)/sizeof(mmRPB_SWITCH_CNTL2[0]), 0, 0 },
	{ "mmRPB_CID_QUEUE_WR", REG_MMIO, 0x00e0, 0, &mmRPB_CID_QUEUE_WR[0], sizeof(mmRPB_CID_QUEUE_WR)/sizeof(mmRPB_CID_QUEUE_WR[0]), 0, 0 },
	{ "mmRPB_EA_QUEUE_WR", REG_MMIO, 0x00e1, 0, &mmRPB_EA_QUEUE_WR[0], sizeof(mmRPB_EA_QUEUE_WR)/sizeof(mmRPB_EA_QUEUE_WR[0]), 0, 0 },
	{ "mmRPB_CID_QUEUE_RD", REG_MMIO, 0x00e2, 0, &mmRPB_CID_QUEUE_RD[0], sizeof(mmRPB_CID_QUEUE_RD)/sizeof(mmRPB_CID_QUEUE_RD[0]), 0, 0 },
	{ "mmRPB_CID_QUEUE_EX", REG_MMIO, 0x00e3, 0, &mmRPB_CID_QUEUE_EX[0], sizeof(mmRPB_CID_QUEUE_EX)/sizeof(mmRPB_CID_QUEUE_EX[0]), 0, 0 },
	{ "mmRPB_CID_QUEUE_EX_DATA", REG_MMIO, 0x00e4, 0, &mmRPB_CID_QUEUE_EX_DATA[0], sizeof(mmRPB_CID_QUEUE_EX_DATA)/sizeof(mmRPB_CID_QUEUE_EX_DATA[0]), 0, 0 },
	{ "mmRPB_DEINTRLV_COMBINE_CNTL", REG_MMIO, 0x00e5, 0, &mmRPB_DEINTRLV_COMBINE_CNTL[0], sizeof(mmRPB_DEINTRLV_COMBINE_CNTL)/sizeof(mmRPB_DEINTRLV_COMBINE_CNTL[0]), 0, 0 },
	{ "mmRPB_VC_SWITCH_RDWR", REG_MMIO, 0x00e6, 0, &mmRPB_VC_SWITCH_RDWR[0], sizeof(mmRPB_VC_SWITCH_RDWR)/sizeof(mmRPB_VC_SWITCH_RDWR[0]), 0, 0 },
	{ "mmRPB_PERF_COUNTER_CNTL", REG_MMIO, 0x00e7, 0, &mmRPB_PERF_COUNTER_CNTL[0], sizeof(mmRPB_PERF_COUNTER_CNTL)/sizeof(mmRPB_PERF_COUNTER_CNTL[0]), 0, 0 },
	{ "mmRPB_PERF_COUNTER_STATUS", REG_MMIO, 0x00e8, 0, &mmRPB_PERF_COUNTER_STATUS[0], sizeof(mmRPB_PERF_COUNTER_STATUS)/sizeof(mmRPB_PERF_COUNTER_STATUS[0]), 0, 0 },
	{ "mmRPB_PERFCOUNTER_LO", REG_MMIO, 0x00e9, 0, &mmRPB_PERFCOUNTER_LO[0], sizeof(mmRPB_PERFCOUNTER_LO)/sizeof(mmRPB_PERFCOUNTER_LO[0]), 0, 0 },
	{ "mmRPB_PERFCOUNTER_HI", REG_MMIO, 0x00ea, 0, &mmRPB_PERFCOUNTER_HI[0], sizeof(mmRPB_PERFCOUNTER_HI)/sizeof(mmRPB_PERFCOUNTER_HI[0]), 0, 0 },
	{ "mmRPB_PERFCOUNTER0_CFG", REG_MMIO, 0x00eb, 0, &mmRPB_PERFCOUNTER0_CFG[0], sizeof(mmRPB_PERFCOUNTER0_CFG)/sizeof(mmRPB_PERFCOUNTER0_CFG[0]), 0, 0 },
	{ "mmRPB_PERFCOUNTER1_CFG", REG_MMIO, 0x00ec, 0, &mmRPB_PERFCOUNTER1_CFG[0], sizeof(mmRPB_PERFCOUNTER1_CFG)/sizeof(mmRPB_PERFCOUNTER1_CFG[0]), 0, 0 },
	{ "mmRPB_PERFCOUNTER2_CFG", REG_MMIO, 0x00ed, 0, &mmRPB_PERFCOUNTER2_CFG[0], sizeof(mmRPB_PERFCOUNTER2_CFG)/sizeof(mmRPB_PERFCOUNTER2_CFG[0]), 0, 0 },
	{ "mmRPB_PERFCOUNTER3_CFG", REG_MMIO, 0x00ee, 0, &mmRPB_PERFCOUNTER3_CFG[0], sizeof(mmRPB_PERFCOUNTER3_CFG)/sizeof(mmRPB_PERFCOUNTER3_CFG[0]), 0, 0 },
	{ "mmRPB_PERFCOUNTER_RSLT_CNTL", REG_MMIO, 0x00ef, 0, &mmRPB_PERFCOUNTER_RSLT_CNTL[0], sizeof(mmRPB_PERFCOUNTER_RSLT_CNTL)/sizeof(mmRPB_PERFCOUNTER_RSLT_CNTL[0]), 0, 0 },
	{ "mmRPB_RD_QUEUE_CNTL", REG_MMIO, 0x00f0, 0, &mmRPB_RD_QUEUE_CNTL[0], sizeof(mmRPB_RD_QUEUE_CNTL)/sizeof(mmRPB_RD_QUEUE_CNTL[0]), 0, 0 },
	{ "mmRPB_RD_QUEUE_CNTL2", REG_MMIO, 0x00f1, 0, &mmRPB_RD_QUEUE_CNTL2[0], sizeof(mmRPB_RD_QUEUE_CNTL2)/sizeof(mmRPB_RD_QUEUE_CNTL2[0]), 0, 0 },
	{ "mmRPB_WR_QUEUE_CNTL", REG_MMIO, 0x00f2, 0, &mmRPB_WR_QUEUE_CNTL[0], sizeof(mmRPB_WR_QUEUE_CNTL)/sizeof(mmRPB_WR_QUEUE_CNTL[0]), 0, 0 },
	{ "mmRPB_WR_QUEUE_CNTL2", REG_MMIO, 0x00f3, 0, &mmRPB_WR_QUEUE_CNTL2[0], sizeof(mmRPB_WR_QUEUE_CNTL2)/sizeof(mmRPB_WR_QUEUE_CNTL2[0]), 0, 0 },
	{ "mmRPB_ATS_CNTL", REG_MMIO, 0x00f4, 0, &mmRPB_ATS_CNTL[0], sizeof(mmRPB_ATS_CNTL)/sizeof(mmRPB_ATS_CNTL[0]), 0, 0 },
	{ "mmRPB_ATS_CNTL2", REG_MMIO, 0x00f5, 0, &mmRPB_ATS_CNTL2[0], sizeof(mmRPB_ATS_CNTL2)/sizeof(mmRPB_ATS_CNTL2[0]), 0, 0 },
	{ "mmRPB_ATS_CNTL3", REG_MMIO, 0x00f6, 0, &mmRPB_ATS_CNTL3[0], sizeof(mmRPB_ATS_CNTL3)/sizeof(mmRPB_ATS_CNTL3[0]), 0, 0 },
	{ "mmRPB_DF_SDPPORT_CNTL", REG_MMIO, 0x00f7, 0, &mmRPB_DF_SDPPORT_CNTL[0], sizeof(mmRPB_DF_SDPPORT_CNTL)/sizeof(mmRPB_DF_SDPPORT_CNTL[0]), 0, 0 },
	{ "mmRPB_SDPPORT_CNTL", REG_MMIO, 0x00f8, 0, &mmRPB_SDPPORT_CNTL[0], sizeof(mmRPB_SDPPORT_CNTL)/sizeof(mmRPB_SDPPORT_CNTL[0]), 0, 0 },
	{ "mmRPB_NBIF_SDPPORT_CNTL", REG_MMIO, 0x00f9, 0, &mmRPB_NBIF_SDPPORT_CNTL[0], sizeof(mmRPB_NBIF_SDPPORT_CNTL)/sizeof(mmRPB_NBIF_SDPPORT_CNTL[0]), 0, 0 },
