	{ "mmSDMA1_UCODE_ADDR", REG_MMIO, 0x0000, 0, &mmSDMA1_UCODE_ADDR[0], sizeof(mmSDMA1_UCODE_ADDR)/sizeof(mmSDMA1_UCODE_ADDR[0]), 0, 0 },
	{ "mmSDMA1_UCODE_DATA", REG_MMIO, 0x0001, 0, &mmSDMA1_UCODE_DATA[0], sizeof(mmSDMA1_UCODE_DATA)/sizeof(mmSDMA1_UCODE_DATA[0]), 0, 0 },
	{ "mmSDMA1_VM_CNTL", REG_MMIO, 0x0004, 0, &mmSDMA1_VM_CNTL[0], sizeof(mmSDMA1_VM_CNTL)/sizeof(mmSDMA1_VM_CNTL[0]), 0, 0 },
	{ "mmSDMA1_VM_CTX_LO", REG_MMIO, 0x0005, 0, &mmSDMA1_VM_CTX_LO[0], sizeof(mmSDMA1_VM_CTX_LO)/sizeof(mmSDMA1_VM_CTX_LO[0]), 0, 0 },
	{ "mmSDMA1_VM_CTX_HI", REG_MMIO, 0x0006, 0, &mmSDMA1_VM_CTX_HI[0], sizeof(mmSDMA1_VM_CTX_HI)/sizeof(mmSDMA1_VM_CTX_HI[0]), 0, 0 },
	{ "mmSDMA1_ACTIVE_FCN_ID", REG_MMIO, 0x0007, 0, &mmSDMA1_ACTIVE_FCN_ID[0], sizeof(mmSDMA1_ACTIVE_FCN_ID)/sizeof(mmSDMA1_ACTIVE_FCN_ID[0]), 0, 0 },
	{ "mmSDMA1_VM_CTX_CNTL", REG_MMIO, 0x0008, 0, &mmSDMA1_VM_CTX_CNTL[0], sizeof(mmSDMA1_VM_CTX_CNTL)/sizeof(mmSDMA1_VM_CTX_CNTL[0]), 0, 0 },
	{ "mmSDMA1_VIRT_RESET_REQ", REG_MMIO, 0x0009, 0, &mmSDMA1_VIRT_RESET_REQ[0], sizeof(mmSDMA1_VIRT_RESET_REQ)/sizeof(mmSDMA1_VIRT_RESET_REQ[0]), 0, 0 },
	{ "mmSDMA1_VF_ENABLE", REG_MMIO, 0x000a, 0, &mmSDMA1_VF_ENABLE[0], sizeof(mmSDMA1_VF_ENABLE)/sizeof(mmSDMA1_VF_ENABLE[0]), 0, 0 },
	{ "mmSDMA1_CONTEXT_REG_TYPE0", REG_MMIO, 0x000b, 0, &mmSDMA1_CONTEXT_REG_TYPE0[0], sizeof(mmSDMA1_CONTEXT_REG_TYPE0)/sizeof(mmSDMA1_CONTEXT_REG_TYPE0[0]), 0, 0 },
	{ "mmSDMA1_CONTEXT_REG_TYPE1", REG_MMIO, 0x000c, 0, &mmSDMA1_CONTEXT_REG_TYPE1[0], sizeof(mmSDMA1_CONTEXT_REG_TYPE1)/sizeof(mmSDMA1_CONTEXT_REG_TYPE1[0]), 0, 0 },
	{ "mmSDMA1_CONTEXT_REG_TYPE2", REG_MMIO, 0x000d, 0, &mmSDMA1_CONTEXT_REG_TYPE2[0], sizeof(mmSDMA1_CONTEXT_REG_TYPE2)/sizeof(mmSDMA1_CONTEXT_REG_TYPE2[0]), 0, 0 },
	{ "mmSDMA1_CONTEXT_REG_TYPE3", REG_MMIO, 0x000e, 0, &mmSDMA1_CONTEXT_REG_TYPE3[0], sizeof(mmSDMA1_CONTEXT_REG_TYPE3)/sizeof(mmSDMA1_CONTEXT_REG_TYPE3[0]), 0, 0 },
	{ "mmSDMA1_PUB_REG_TYPE0", REG_MMIO, 0x000f, 0, &mmSDMA1_PUB_REG_TYPE0[0], sizeof(mmSDMA1_PUB_REG_TYPE0)/sizeof(mmSDMA1_PUB_REG_TYPE0[0]), 0, 0 },
	{ "mmSDMA1_PUB_REG_TYPE1", REG_MMIO, 0x0010, 0, &mmSDMA1_PUB_REG_TYPE1[0], sizeof(mmSDMA1_PUB_REG_TYPE1)/sizeof(mmSDMA1_PUB_REG_TYPE1[0]), 0, 0 },
	{ "mmSDMA1_PUB_REG_TYPE2", REG_MMIO, 0x0011, 0, &mmSDMA1_PUB_REG_TYPE2[0], sizeof(mmSDMA1_PUB_REG_TYPE2)/sizeof(mmSDMA1_PUB_REG_TYPE2[0]), 0, 0 },
	{ "mmSDMA1_PUB_REG_TYPE3", REG_MMIO, 0x0012, 0, &mmSDMA1_PUB_REG_TYPE3[0], sizeof(mmSDMA1_PUB_REG_TYPE3)/sizeof(mmSDMA1_PUB_REG_TYPE3[0]), 0, 0 },
	{ "mmSDMA1_MMHUB_CNTL", REG_MMIO, 0x0013, 0, &mmSDMA1_MMHUB_CNTL[0], sizeof(mmSDMA1_MMHUB_CNTL)/sizeof(mmSDMA1_MMHUB_CNTL[0]), 0, 0 },
	{ "mmSDMA1_CONTEXT_GROUP_BOUNDARY", REG_MMIO, 0x0019, 0, &mmSDMA1_CONTEXT_GROUP_BOUNDARY[0], sizeof(mmSDMA1_CONTEXT_GROUP_BOUNDARY)/sizeof(mmSDMA1_CONTEXT_GROUP_BOUNDARY[0]), 0, 0 },
	{ "mmSDMA1_POWER_CNTL", REG_MMIO, 0x001a, 0, &mmSDMA1_POWER_CNTL[0], sizeof(mmSDMA1_POWER_CNTL)/sizeof(mmSDMA1_POWER_CNTL[0]), 0, 0 },
	{ "mmSDMA1_CLK_CTRL", REG_MMIO, 0x001b, 0, &mmSDMA1_CLK_CTRL[0], sizeof(mmSDMA1_CLK_CTRL)/sizeof(mmSDMA1_CLK_CTRL[0]), 0, 0 },
	{ "mmSDMA1_CNTL", REG_MMIO, 0x001c, 0, &mmSDMA1_CNTL[0], sizeof(mmSDMA1_CNTL)/sizeof(mmSDMA1_CNTL[0]), 0, 0 },
	{ "mmSDMA1_CHICKEN_BITS", REG_MMIO, 0x001d, 0, &mmSDMA1_CHICKEN_BITS[0], sizeof(mmSDMA1_CHICKEN_BITS)/sizeof(mmSDMA1_CHICKEN_BITS[0]), 0, 0 },
	{ "mmSDMA1_GB_ADDR_CONFIG", REG_MMIO, 0x001e, 0, &mmSDMA1_GB_ADDR_CONFIG[0], sizeof(mmSDMA1_GB_ADDR_CONFIG)/sizeof(mmSDMA1_GB_ADDR_CONFIG[0]), 0, 0 },
	{ "mmSDMA1_GB_ADDR_CONFIG_READ", REG_MMIO, 0x001f, 0, &mmSDMA1_GB_ADDR_CONFIG_READ[0], sizeof(mmSDMA1_GB_ADDR_CONFIG_READ)/sizeof(mmSDMA1_GB_ADDR_CONFIG_READ[0]), 0, 0 },
	{ "mmSDMA1_RB_RPTR_FETCH_HI", REG_MMIO, 0x0020, 0, &mmSDMA1_RB_RPTR_FETCH_HI[0], sizeof(mmSDMA1_RB_RPTR_FETCH_HI)/sizeof(mmSDMA1_RB_RPTR_FETCH_HI[0]), 0, 0 },
	{ "mmSDMA1_SEM_WAIT_FAIL_TIMER_CNTL", REG_MMIO, 0x0021, 0, &mmSDMA1_SEM_WAIT_FAIL_TIMER_CNTL[0], sizeof(mmSDMA1_SEM_WAIT_FAIL_TIMER_CNTL)/sizeof(mmSDMA1_SEM_WAIT_FAIL_TIMER_CNTL[0]), 0, 0 },
	{ "mmSDMA1_RB_RPTR_FETCH", REG_MMIO, 0x0022, 0, &mmSDMA1_RB_RPTR_FETCH[0], sizeof(mmSDMA1_RB_RPTR_FETCH)/sizeof(mmSDMA1_RB_RPTR_FETCH[0]), 0, 0 },
	{ "mmSDMA1_IB_OFFSET_FETCH", REG_MMIO, 0x0023, 0, &mmSDMA1_IB_OFFSET_FETCH[0], sizeof(mmSDMA1_IB_OFFSET_FETCH)/sizeof(mmSDMA1_IB_OFFSET_FETCH[0]), 0, 0 },
	{ "mmSDMA1_PROGRAM", REG_MMIO, 0x0024, 0, &mmSDMA1_PROGRAM[0], sizeof(mmSDMA1_PROGRAM)/sizeof(mmSDMA1_PROGRAM[0]), 0, 0 },
	{ "mmSDMA1_STATUS_REG", REG_MMIO, 0x0025, 0, &mmSDMA1_STATUS_REG[0], sizeof(mmSDMA1_STATUS_REG)/sizeof(mmSDMA1_STATUS_REG[0]), 0, 0 },
	{ "mmSDMA1_STATUS1_REG", REG_MMIO, 0x0026, 0, &mmSDMA1_STATUS1_REG[0], sizeof(mmSDMA1_STATUS1_REG)/sizeof(mmSDMA1_STATUS1_REG[0]), 0, 0 },
	{ "mmSDMA1_RD_BURST_CNTL", REG_MMIO, 0x0027, 0, &mmSDMA1_RD_BURST_CNTL[0], sizeof(mmSDMA1_RD_BURST_CNTL)/sizeof(mmSDMA1_RD_BURST_CNTL[0]), 0, 0 },
	{ "mmSDMA1_HBM_PAGE_CONFIG", REG_MMIO, 0x0028, 0, &mmSDMA1_HBM_PAGE_CONFIG[0], sizeof(mmSDMA1_HBM_PAGE_CONFIG)/sizeof(mmSDMA1_HBM_PAGE_CONFIG[0]), 0, 0 },
	{ "mmSDMA1_UCODE_CHECKSUM", REG_MMIO, 0x0029, 0, &mmSDMA1_UCODE_CHECKSUM[0], sizeof(mmSDMA1_UCODE_CHECKSUM)/sizeof(mmSDMA1_UCODE_CHECKSUM[0]), 0, 0 },
	{ "mmSDMA1_F32_CNTL", REG_MMIO, 0x002a, 0, &mmSDMA1_F32_CNTL[0], sizeof(mmSDMA1_F32_CNTL)/sizeof(mmSDMA1_F32_CNTL[0]), 0, 0 },
	{ "mmSDMA1_FREEZE", REG_MMIO, 0x002b, 0, &mmSDMA1_FREEZE[0], sizeof(mmSDMA1_FREEZE)/sizeof(mmSDMA1_FREEZE[0]), 0, 0 },
	{ "mmSDMA1_PHASE0_QUANTUM", REG_MMIO, 0x002c, 0, &mmSDMA1_PHASE0_QUANTUM[0], sizeof(mmSDMA1_PHASE0_QUANTUM)/sizeof(mmSDMA1_PHASE0_QUANTUM[0]), 0, 0 },
	{ "mmSDMA1_PHASE1_QUANTUM", REG_MMIO, 0x002d, 0, &mmSDMA1_PHASE1_QUANTUM[0], sizeof(mmSDMA1_PHASE1_QUANTUM)/sizeof(mmSDMA1_PHASE1_QUANTUM[0]), 0, 0 },
	{ "mmSDMA1_EDC_CONFIG", REG_MMIO, 0x0032, 0, &mmSDMA1_EDC_CONFIG[0], sizeof(mmSDMA1_EDC_CONFIG)/sizeof(mmSDMA1_EDC_CONFIG[0]), 0, 0 },
	{ "mmSDMA1_BA_THRESHOLD", REG_MMIO, 0x0033, 0, &mmSDMA1_BA_THRESHOLD[0], sizeof(mmSDMA1_BA_THRESHOLD)/sizeof(mmSDMA1_BA_THRESHOLD[0]), 0, 0 },
	{ "mmSDMA1_ID", REG_MMIO, 0x0034, 0, &mmSDMA1_ID[0], sizeof(mmSDMA1_ID)/sizeof(mmSDMA1_ID[0]), 0, 0 },
	{ "mmSDMA1_VERSION", REG_MMIO, 0x0035, 0, &mmSDMA1_VERSION[0], sizeof(mmSDMA1_VERSION)/sizeof(mmSDMA1_VERSION[0]), 0, 0 },
	{ "mmSDMA1_EDC_COUNTER", REG_MMIO, 0x0036, 0, &mmSDMA1_EDC_COUNTER[0], sizeof(mmSDMA1_EDC_COUNTER)/sizeof(mmSDMA1_EDC_COUNTER[0]), 0, 0 },
	{ "mmSDMA1_EDC_COUNTER_CLEAR", REG_MMIO, 0x0037, 0, &mmSDMA1_EDC_COUNTER_CLEAR[0], sizeof(mmSDMA1_EDC_COUNTER_CLEAR)/sizeof(mmSDMA1_EDC_COUNTER_CLEAR[0]), 0, 0 },
	{ "mmSDMA1_STATUS2_REG", REG_MMIO, 0x0038, 0, &mmSDMA1_STATUS2_REG[0], sizeof(mmSDMA1_STATUS2_REG)/sizeof(mmSDMA1_STATUS2_REG[0]), 0, 0 },
	{ "mmSDMA1_ATOMIC_CNTL", REG_MMIO, 0x0039, 0, &mmSDMA1_ATOMIC_CNTL[0], sizeof(mmSDMA1_ATOMIC_CNTL)/sizeof(mmSDMA1_ATOMIC_CNTL[0]), 0, 0 },
	{ "mmSDMA1_ATOMIC_PREOP_LO", REG_MMIO, 0x003a, 0, &mmSDMA1_ATOMIC_PREOP_LO[0], sizeof(mmSDMA1_ATOMIC_PREOP_LO)/sizeof(mmSDMA1_ATOMIC_PREOP_LO[0]), 0, 0 },
	{ "mmSDMA1_ATOMIC_PREOP_HI", REG_MMIO, 0x003b, 0, &mmSDMA1_ATOMIC_PREOP_HI[0], sizeof(mmSDMA1_ATOMIC_PREOP_HI)/sizeof(mmSDMA1_ATOMIC_PREOP_HI[0]), 0, 0 },
	{ "mmSDMA1_UTCL1_CNTL", REG_MMIO, 0x003c, 0, &mmSDMA1_UTCL1_CNTL[0], sizeof(mmSDMA1_UTCL1_CNTL)/sizeof(mmSDMA1_UTCL1_CNTL[0]), 0, 0 },
	{ "mmSDMA1_UTCL1_WATERMK", REG_MMIO, 0x003d, 0, &mmSDMA1_UTCL1_WATERMK[0], sizeof(mmSDMA1_UTCL1_WATERMK)/sizeof(mmSDMA1_UTCL1_WATERMK[0]), 0, 0 },
	{ "mmSDMA1_UTCL1_RD_STATUS", REG_MMIO, 0x003e, 0, &mmSDMA1_UTCL1_RD_STATUS[0], sizeof(mmSDMA1_UTCL1_RD_STATUS)/sizeof(mmSDMA1_UTCL1_RD_STATUS[0]), 0, 0 },
	{ "mmSDMA1_UTCL1_WR_STATUS", REG_MMIO, 0x003f, 0, &mmSDMA1_UTCL1_WR_STATUS[0], sizeof(mmSDMA1_UTCL1_WR_STATUS)/sizeof(mmSDMA1_UTCL1_WR_STATUS[0]), 0, 0 },
	{ "mmSDMA1_UTCL1_INV0", REG_MMIO, 0x0040, 0, &mmSDMA1_UTCL1_INV0[0], sizeof(mmSDMA1_UTCL1_INV0)/sizeof(mmSDMA1_UTCL1_INV0[0]), 0, 0 },
	{ "mmSDMA1_UTCL1_INV1", REG_MMIO, 0x0041, 0, &mmSDMA1_UTCL1_INV1[0], sizeof(mmSDMA1_UTCL1_INV1)/sizeof(mmSDMA1_UTCL1_INV1[0]), 0, 0 },
	{ "mmSDMA1_UTCL1_INV2", REG_MMIO, 0x0042, 0, &mmSDMA1_UTCL1_INV2[0], sizeof(mmSDMA1_UTCL1_INV2)/sizeof(mmSDMA1_UTCL1_INV2[0]), 0, 0 },
	{ "mmSDMA1_UTCL1_RD_XNACK0", REG_MMIO, 0x0043, 0, &mmSDMA1_UTCL1_RD_XNACK0[0], sizeof(mmSDMA1_UTCL1_RD_XNACK0)/sizeof(mmSDMA1_UTCL1_RD_XNACK0[0]), 0, 0 },
	{ "mmSDMA1_UTCL1_RD_XNACK1", REG_MMIO, 0x0044, 0, &mmSDMA1_UTCL1_RD_XNACK1[0], sizeof(mmSDMA1_UTCL1_RD_XNACK1)/sizeof(mmSDMA1_UTCL1_RD_XNACK1[0]), 0, 0 },
	{ "mmSDMA1_UTCL1_WR_XNACK0", REG_MMIO, 0x0045, 0, &mmSDMA1_UTCL1_WR_XNACK0[0], sizeof(mmSDMA1_UTCL1_WR_XNACK0)/sizeof(mmSDMA1_UTCL1_WR_XNACK0[0]), 0, 0 },
	{ "mmSDMA1_UTCL1_WR_XNACK1", REG_MMIO, 0x0046, 0, &mmSDMA1_UTCL1_WR_XNACK1[0], sizeof(mmSDMA1_UTCL1_WR_XNACK1)/sizeof(mmSDMA1_UTCL1_WR_XNACK1[0]), 0, 0 },
	{ "mmSDMA1_UTCL1_TIMEOUT", REG_MMIO, 0x0047, 0, &mmSDMA1_UTCL1_TIMEOUT[0], sizeof(mmSDMA1_UTCL1_TIMEOUT)/sizeof(mmSDMA1_UTCL1_TIMEOUT[0]), 0, 0 },
	{ "mmSDMA1_UTCL1_PAGE", REG_MMIO, 0x0048, 0, &mmSDMA1_UTCL1_PAGE[0], sizeof(mmSDMA1_UTCL1_PAGE)/sizeof(mmSDMA1_UTCL1_PAGE[0]), 0, 0 },
	{ "mmSDMA1_POWER_CNTL_IDLE", REG_MMIO, 0x0049, 0, &mmSDMA1_POWER_CNTL_IDLE[0], sizeof(mmSDMA1_POWER_CNTL_IDLE)/sizeof(mmSDMA1_POWER_CNTL_IDLE[0]), 0, 0 },
	{ "mmSDMA1_RELAX_ORDERING_LUT", REG_MMIO, 0x004a, 0, &mmSDMA1_RELAX_ORDERING_LUT[0], sizeof(mmSDMA1_RELAX_ORDERING_LUT)/sizeof(mmSDMA1_RELAX_ORDERING_LUT[0]), 0, 0 },
	{ "mmSDMA1_CHICKEN_BITS_2", REG_MMIO, 0x004b, 0, &mmSDMA1_CHICKEN_BITS_2[0], sizeof(mmSDMA1_CHICKEN_BITS_2)/sizeof(mmSDMA1_CHICKEN_BITS_2[0]), 0, 0 },
	{ "mmSDMA1_STATUS3_REG", REG_MMIO, 0x004c, 0, &mmSDMA1_STATUS3_REG[0], sizeof(mmSDMA1_STATUS3_REG)/sizeof(mmSDMA1_STATUS3_REG[0]), 0, 0 },
	{ "mmSDMA1_PHYSICAL_ADDR_LO", REG_MMIO, 0x004d, 0, &mmSDMA1_PHYSICAL_ADDR_LO[0], sizeof(mmSDMA1_PHYSICAL_ADDR_LO)/sizeof(mmSDMA1_PHYSICAL_ADDR_LO[0]), 0, 0 },
	{ "mmSDMA1_PHYSICAL_ADDR_HI", REG_MMIO, 0x004e, 0, &mmSDMA1_PHYSICAL_ADDR_HI[0], sizeof(mmSDMA1_PHYSICAL_ADDR_HI)/sizeof(mmSDMA1_PHYSICAL_ADDR_HI[0]), 0, 0 },
	{ "mmSDMA1_PHASE2_QUANTUM", REG_MMIO, 0x004f, 0, &mmSDMA1_PHASE2_QUANTUM[0], sizeof(mmSDMA1_PHASE2_QUANTUM)/sizeof(mmSDMA1_PHASE2_QUANTUM[0]), 0, 0 },
	{ "mmSDMA1_ERROR_LOG", REG_MMIO, 0x0050, 0, &mmSDMA1_ERROR_LOG[0], sizeof(mmSDMA1_ERROR_LOG)/sizeof(mmSDMA1_ERROR_LOG[0]), 0, 0 },
	{ "mmSDMA1_PUB_DUMMY_REG0", REG_MMIO, 0x0051, 0, &mmSDMA1_PUB_DUMMY_REG0[0], sizeof(mmSDMA1_PUB_DUMMY_REG0)/sizeof(mmSDMA1_PUB_DUMMY_REG0[0]), 0, 0 },
	{ "mmSDMA1_PUB_DUMMY_REG1", REG_MMIO, 0x0052, 0, &mmSDMA1_PUB_DUMMY_REG1[0], sizeof(mmSDMA1_PUB_DUMMY_REG1)/sizeof(mmSDMA1_PUB_DUMMY_REG1[0]), 0, 0 },
	{ "mmSDMA1_PUB_DUMMY_REG2", REG_MMIO, 0x0053, 0, &mmSDMA1_PUB_DUMMY_REG2[0], sizeof(mmSDMA1_PUB_DUMMY_REG2)/sizeof(mmSDMA1_PUB_DUMMY_REG2[0]), 0, 0 },
	{ "mmSDMA1_PUB_DUMMY_REG3", REG_MMIO, 0x0054, 0, &mmSDMA1_PUB_DUMMY_REG3[0], sizeof(mmSDMA1_PUB_DUMMY_REG3)/sizeof(mmSDMA1_PUB_DUMMY_REG3[0]), 0, 0 },
	{ "mmSDMA1_F32_COUNTER", REG_MMIO, 0x0055, 0, &mmSDMA1_F32_COUNTER[0], sizeof(mmSDMA1_F32_COUNTER)/sizeof(mmSDMA1_F32_COUNTER[0]), 0, 0 },
	{ "mmSDMA1_UNBREAKABLE", REG_MMIO, 0x0056, 0, &mmSDMA1_UNBREAKABLE[0], sizeof(mmSDMA1_UNBREAKABLE)/sizeof(mmSDMA1_UNBREAKABLE[0]), 0, 0 },
	{ "mmSDMA1_PERFMON_CNTL", REG_MMIO, 0x0057, 0, &mmSDMA1_PERFMON_CNTL[0], sizeof(mmSDMA1_PERFMON_CNTL)/sizeof(mmSDMA1_PERFMON_CNTL[0]), 0, 0 },
	{ "mmSDMA1_PERFCOUNTER0_RESULT", REG_MMIO, 0x0058, 0, &mmSDMA1_PERFCOUNTER0_RESULT[0], sizeof(mmSDMA1_PERFCOUNTER0_RESULT)/sizeof(mmSDMA1_PERFCOUNTER0_RESULT[0]), 0, 0 },
	{ "mmSDMA1_PERFCOUNTER1_RESULT", REG_MMIO, 0x0059, 0, &mmSDMA1_PERFCOUNTER1_RESULT[0], sizeof(mmSDMA1_PERFCOUNTER1_RESULT)/sizeof(mmSDMA1_PERFCOUNTER1_RESULT[0]), 0, 0 },
	{ "mmSDMA1_PERFCOUNTER_TAG_DELAY_RANGE", REG_MMIO, 0x005a, 0, &mmSDMA1_PERFCOUNTER_TAG_DELAY_RANGE[0], sizeof(mmSDMA1_PERFCOUNTER_TAG_DELAY_RANGE)/sizeof(mmSDMA1_PERFCOUNTER_TAG_DELAY_RANGE[0]), 0, 0 },
	{ "mmSDMA1_CRD_CNTL", REG_MMIO, 0x005b, 0, &mmSDMA1_CRD_CNTL[0], sizeof(mmSDMA1_CRD_CNTL)/sizeof(mmSDMA1_CRD_CNTL[0]), 0, 0 },
	{ "mmSDMA1_GPU_IOV_VIOLATION_LOG", REG_MMIO, 0x005d, 0, &mmSDMA1_GPU_IOV_VIOLATION_LOG[0], sizeof(mmSDMA1_GPU_IOV_VIOLATION_LOG)/sizeof(mmSDMA1_GPU_IOV_VIOLATION_LOG[0]), 0, 0 },
	{ "mmSDMA1_ULV_CNTL", REG_MMIO, 0x005e, 0, &mmSDMA1_ULV_CNTL[0], sizeof(mmSDMA1_ULV_CNTL)/sizeof(mmSDMA1_ULV_CNTL[0]), 0, 0 },
	{ "mmSDMA1_EA_DBIT_ADDR_DATA", REG_MMIO, 0x0060, 0, &mmSDMA1_EA_DBIT_ADDR_DATA[0], sizeof(mmSDMA1_EA_DBIT_ADDR_DATA)/sizeof(mmSDMA1_EA_DBIT_ADDR_DATA[0]), 0, 0 },
	{ "mmSDMA1_EA_DBIT_ADDR_INDEX", REG_MMIO, 0x0061, 0, &mmSDMA1_EA_DBIT_ADDR_INDEX[0], sizeof(mmSDMA1_EA_DBIT_ADDR_INDEX)/sizeof(mmSDMA1_EA_DBIT_ADDR_INDEX[0]), 0, 0 },
	{ "mmSDMA1_GPU_IOV_VIOLATION_LOG2", REG_MMIO, 0x0062, 0, &mmSDMA1_GPU_IOV_VIOLATION_LOG2[0], sizeof(mmSDMA1_GPU_IOV_VIOLATION_LOG2)/sizeof(mmSDMA1_GPU_IOV_VIOLATION_LOG2[0]), 0, 0 },
	{ "mmSDMA1_GFX_RB_CNTL", REG_MMIO, 0x0080, 0, &mmSDMA1_GFX_RB_CNTL[0], sizeof(mmSDMA1_GFX_RB_CNTL)/sizeof(mmSDMA1_GFX_RB_CNTL[0]), 0, 0 },
	{ "mmSDMA1_GFX_RB_BASE", REG_MMIO, 0x0081, 0, &mmSDMA1_GFX_RB_BASE[0], sizeof(mmSDMA1_GFX_RB_BASE)/sizeof(mmSDMA1_GFX_RB_BASE[0]), 0, 0 },
	{ "mmSDMA1_GFX_RB_BASE_HI", REG_MMIO, 0x0082, 0, &mmSDMA1_GFX_RB_BASE_HI[0], sizeof(mmSDMA1_GFX_RB_BASE_HI)/sizeof(mmSDMA1_GFX_RB_BASE_HI[0]), 0, 0 },
	{ "mmSDMA1_GFX_RB_RPTR", REG_MMIO, 0x0083, 0, &mmSDMA1_GFX_RB_RPTR[0], sizeof(mmSDMA1_GFX_RB_RPTR)/sizeof(mmSDMA1_GFX_RB_RPTR[0]), 0, 0 },
	{ "mmSDMA1_GFX_RB_RPTR_HI", REG_MMIO, 0x0084, 0, &mmSDMA1_GFX_RB_RPTR_HI[0], sizeof(mmSDMA1_GFX_RB_RPTR_HI)/sizeof(mmSDMA1_GFX_RB_RPTR_HI[0]), 0, 0 },
	{ "mmSDMA1_GFX_RB_WPTR", REG_MMIO, 0x0085, 0, &mmSDMA1_GFX_RB_WPTR[0], sizeof(mmSDMA1_GFX_RB_WPTR)/sizeof(mmSDMA1_GFX_RB_WPTR[0]), 0, 0 },
	{ "mmSDMA1_GFX_RB_WPTR_HI", REG_MMIO, 0x0086, 0, &mmSDMA1_GFX_RB_WPTR_HI[0], sizeof(mmSDMA1_GFX_RB_WPTR_HI)/sizeof(mmSDMA1_GFX_RB_WPTR_HI[0]), 0, 0 },
	{ "mmSDMA1_GFX_RB_WPTR_POLL_CNTL", REG_MMIO, 0x0087, 0, &mmSDMA1_GFX_RB_WPTR_POLL_CNTL[0], sizeof(mmSDMA1_GFX_RB_WPTR_POLL_CNTL)/sizeof(mmSDMA1_GFX_RB_WPTR_POLL_CNTL[0]), 0, 0 },
	{ "mmSDMA1_GFX_RB_RPTR_ADDR_HI", REG_MMIO, 0x0088, 0, &mmSDMA1_GFX_RB_RPTR_ADDR_HI[0], sizeof(mmSDMA1_GFX_RB_RPTR_ADDR_HI)/sizeof(mmSDMA1_GFX_RB_RPTR_ADDR_HI[0]), 0, 0 },
	{ "mmSDMA1_GFX_RB_RPTR_ADDR_LO", REG_MMIO, 0x0089, 0, &mmSDMA1_GFX_RB_RPTR_ADDR_LO[0], sizeof(mmSDMA1_GFX_RB_RPTR_ADDR_LO)/sizeof(mmSDMA1_GFX_RB_RPTR_ADDR_LO[0]), 0, 0 },
	{ "mmSDMA1_GFX_IB_CNTL", REG_MMIO, 0x008a, 0, &mmSDMA1_GFX_IB_CNTL[0], sizeof(mmSDMA1_GFX_IB_CNTL)/sizeof(mmSDMA1_GFX_IB_CNTL[0]), 0, 0 },
	{ "mmSDMA1_GFX_IB_RPTR", REG_MMIO, 0x008b, 0, &mmSDMA1_GFX_IB_RPTR[0], sizeof(mmSDMA1_GFX_IB_RPTR)/sizeof(mmSDMA1_GFX_IB_RPTR[0]), 0, 0 },
	{ "mmSDMA1_GFX_IB_OFFSET", REG_MMIO, 0x008c, 0, &mmSDMA1_GFX_IB_OFFSET[0], sizeof(mmSDMA1_GFX_IB_OFFSET)/sizeof(mmSDMA1_GFX_IB_OFFSET[0]), 0, 0 },
	{ "mmSDMA1_GFX_IB_BASE_LO", REG_MMIO, 0x008d, 0, &mmSDMA1_GFX_IB_BASE_LO[0], sizeof(mmSDMA1_GFX_IB_BASE_LO)/sizeof(mmSDMA1_GFX_IB_BASE_LO[0]), 0, 0 },
	{ "mmSDMA1_GFX_IB_BASE_HI", REG_MMIO, 0x008e, 0, &mmSDMA1_GFX_IB_BASE_HI[0], sizeof(mmSDMA1_GFX_IB_BASE_HI)/sizeof(mmSDMA1_GFX_IB_BASE_HI[0]), 0, 0 },
	{ "mmSDMA1_GFX_IB_SIZE", REG_MMIO, 0x008f, 0, &mmSDMA1_GFX_IB_SIZE[0], sizeof(mmSDMA1_GFX_IB_SIZE)/sizeof(mmSDMA1_GFX_IB_SIZE[0]), 0, 0 },
	{ "mmSDMA1_GFX_SKIP_CNTL", REG_MMIO, 0x0090, 0, &mmSDMA1_GFX_SKIP_CNTL[0], sizeof(mmSDMA1_GFX_SKIP_CNTL)/sizeof(mmSDMA1_GFX_SKIP_CNTL[0]), 0, 0 },
	{ "mmSDMA1_GFX_CONTEXT_STATUS", REG_MMIO, 0x0091, 0, &mmSDMA1_GFX_CONTEXT_STATUS[0], sizeof(mmSDMA1_GFX_CONTEXT_STATUS)/sizeof(mmSDMA1_GFX_CONTEXT_STATUS[0]), 0, 0 },
	{ "mmSDMA1_GFX_DOORBELL", REG_MMIO, 0x0092, 0, &mmSDMA1_GFX_DOORBELL[0], sizeof(mmSDMA1_GFX_DOORBELL)/sizeof(mmSDMA1_GFX_DOORBELL[0]), 0, 0 },
	{ "mmSDMA1_GFX_CONTEXT_CNTL", REG_MMIO, 0x0093, 0, &mmSDMA1_GFX_CONTEXT_CNTL[0], sizeof(mmSDMA1_GFX_CONTEXT_CNTL)/sizeof(mmSDMA1_GFX_CONTEXT_CNTL[0]), 0, 0 },
	{ "mmSDMA1_GFX_STATUS", REG_MMIO, 0x00a8, 0, &mmSDMA1_GFX_STATUS[0], sizeof(mmSDMA1_GFX_STATUS)/sizeof(mmSDMA1_GFX_STATUS[0]), 0, 0 },
	{ "mmSDMA1_GFX_DOORBELL_LOG", REG_MMIO, 0x00a9, 0, &mmSDMA1_GFX_DOORBELL_LOG[0], sizeof(mmSDMA1_GFX_DOORBELL_LOG)/sizeof(mmSDMA1_GFX_DOORBELL_LOG[0]), 0, 0 },
	{ "mmSDMA1_GFX_WATERMARK", REG_MMIO, 0x00aa, 0, &mmSDMA1_GFX_WATERMARK[0], sizeof(mmSDMA1_GFX_WATERMARK)/sizeof(mmSDMA1_GFX_WATERMARK[0]), 0, 0 },
	{ "mmSDMA1_GFX_DOORBELL_OFFSET", REG_MMIO, 0x00ab, 0, &mmSDMA1_GFX_DOORBELL_OFFSET[0], sizeof(mmSDMA1_GFX_DOORBELL_OFFSET)/sizeof(mmSDMA1_GFX_DOORBELL_OFFSET[0]), 0, 0 },
	{ "mmSDMA1_GFX_CSA_ADDR_LO", REG_MMIO, 0x00ac, 0, &mmSDMA1_GFX_CSA_ADDR_LO[0], sizeof(mmSDMA1_GFX_CSA_ADDR_LO)/sizeof(mmSDMA1_GFX_CSA_ADDR_LO[0]), 0, 0 },
	{ "mmSDMA1_GFX_CSA_ADDR_HI", REG_MMIO, 0x00ad, 0, &mmSDMA1_GFX_CSA_ADDR_HI[0], sizeof(mmSDMA1_GFX_CSA_ADDR_HI)/sizeof(mmSDMA1_GFX_CSA_ADDR_HI[0]), 0, 0 },
	{ "mmSDMA1_GFX_IB_SUB_REMAIN", REG_MMIO, 0x00af, 0, &mmSDMA1_GFX_IB_SUB_REMAIN[0], sizeof(mmSDMA1_GFX_IB_SUB_REMAIN)/sizeof(mmSDMA1_GFX_IB_SUB_REMAIN[0]), 0, 0 },
	{ "mmSDMA1_GFX_PREEMPT", REG_MMIO, 0x00b0, 0, &mmSDMA1_GFX_PREEMPT[0], sizeof(mmSDMA1_GFX_PREEMPT)/sizeof(mmSDMA1_GFX_PREEMPT[0]), 0, 0 },
	{ "mmSDMA1_GFX_DUMMY_REG", REG_MMIO, 0x00b1, 0, &mmSDMA1_GFX_DUMMY_REG[0], sizeof(mmSDMA1_GFX_DUMMY_REG)/sizeof(mmSDMA1_GFX_DUMMY_REG[0]), 0, 0 },
	{ "mmSDMA1_GFX_RB_WPTR_POLL_ADDR_HI", REG_MMIO, 0x00b2, 0, &mmSDMA1_GFX_RB_WPTR_POLL_ADDR_HI[0], sizeof(mmSDMA1_GFX_RB_WPTR_POLL_ADDR_HI)/sizeof(mmSDMA1_GFX_RB_WPTR_POLL_ADDR_HI[0]), 0, 0 },
	{ "mmSDMA1_GFX_RB_WPTR_POLL_ADDR_LO", REG_MMIO, 0x00b3, 0, &mmSDMA1_GFX_RB_WPTR_POLL_ADDR_LO[0], sizeof(mmSDMA1_GFX_RB_WPTR_POLL_ADDR_LO)/sizeof(mmSDMA1_GFX_RB_WPTR_POLL_ADDR_LO[0]), 0, 0 },
	{ "mmSDMA1_GFX_RB_AQL_CNTL", REG_MMIO, 0x00b4, 0, &mmSDMA1_GFX_RB_AQL_CNTL[0], sizeof(mmSDMA1_GFX_RB_AQL_CNTL)/sizeof(mmSDMA1_GFX_RB_AQL_CNTL[0]), 0, 0 },
	{ "mmSDMA1_GFX_MINOR_PTR_UPDATE", REG_MMIO, 0x00b5, 0, &mmSDMA1_GFX_MINOR_PTR_UPDATE[0], sizeof(mmSDMA1_GFX_MINOR_PTR_UPDATE)/sizeof(mmSDMA1_GFX_MINOR_PTR_UPDATE[0]), 0, 0 },
	{ "mmSDMA1_GFX_MIDCMD_DATA0", REG_MMIO, 0x00c0, 0, &mmSDMA1_GFX_MIDCMD_DATA0[0], sizeof(mmSDMA1_GFX_MIDCMD_DATA0)/sizeof(mmSDMA1_GFX_MIDCMD_DATA0[0]), 0, 0 },
	{ "mmSDMA1_GFX_MIDCMD_DATA1", REG_MMIO, 0x00c1, 0, &mmSDMA1_GFX_MIDCMD_DATA1[0], sizeof(mmSDMA1_GFX_MIDCMD_DATA1)/sizeof(mmSDMA1_GFX_MIDCMD_DATA1[0]), 0, 0 },
	{ "mmSDMA1_GFX_MIDCMD_DATA2", REG_MMIO, 0x00c2, 0, &mmSDMA1_GFX_MIDCMD_DATA2[0], sizeof(mmSDMA1_GFX_MIDCMD_DATA2)/sizeof(mmSDMA1_GFX_MIDCMD_DATA2[0]), 0, 0 },
	{ "mmSDMA1_GFX_MIDCMD_DATA3", REG_MMIO, 0x00c3, 0, &mmSDMA1_GFX_MIDCMD_DATA3[0], sizeof(mmSDMA1_GFX_MIDCMD_DATA3)/sizeof(mmSDMA1_GFX_MIDCMD_DATA3[0]), 0, 0 },
	{ "mmSDMA1_GFX_MIDCMD_DATA4", REG_MMIO, 0x00c4, 0, &mmSDMA1_GFX_MIDCMD_DATA4[0], sizeof(mmSDMA1_GFX_MIDCMD_DATA4)/sizeof(mmSDMA1_GFX_MIDCMD_DATA4[0]), 0, 0 },
	{ "mmSDMA1_GFX_MIDCMD_DATA5", REG_MMIO, 0x00c5, 0, &mmSDMA1_GFX_MIDCMD_DATA5[0], sizeof(mmSDMA1_GFX_MIDCMD_DATA5)/sizeof(mmSDMA1_GFX_MIDCMD_DATA5[0]), 0, 0 },
	{ "mmSDMA1_GFX_MIDCMD_DATA6", REG_MMIO, 0x00c6, 0, &mmSDMA1_GFX_MIDCMD_DATA6[0], sizeof(mmSDMA1_GFX_MIDCMD_DATA6)/sizeof(mmSDMA1_GFX_MIDCMD_DATA6[0]), 0, 0 },
	{ "mmSDMA1_GFX_MIDCMD_DATA7", REG_MMIO, 0x00c7, 0, &mmSDMA1_GFX_MIDCMD_DATA7[0], sizeof(mmSDMA1_GFX_MIDCMD_DATA7)/sizeof(mmSDMA1_GFX_MIDCMD_DATA7[0]), 0, 0 },
	{ "mmSDMA1_GFX_MIDCMD_DATA8", REG_MMIO, 0x00c8, 0, &mmSDMA1_GFX_MIDCMD_DATA8[0], sizeof(mmSDMA1_GFX_MIDCMD_DATA8)/sizeof(mmSDMA1_GFX_MIDCMD_DATA8[0]), 0, 0 },
	{ "mmSDMA1_GFX_MIDCMD_CNTL", REG_MMIO, 0x00c9, 0, &mmSDMA1_GFX_MIDCMD_CNTL[0], sizeof(mmSDMA1_GFX_MIDCMD_CNTL)/sizeof(mmSDMA1_GFX_MIDCMD_CNTL[0]), 0, 0 },
	{ "mmSDMA1_PAGE_RB_CNTL", REG_MMIO, 0x00d8, 0, &mmSDMA1_PAGE_RB_CNTL[0], sizeof(mmSDMA1_PAGE_RB_CNTL)/sizeof(mmSDMA1_PAGE_RB_CNTL[0]), 0, 0 },
	{ "mmSDMA1_PAGE_RB_BASE", REG_MMIO, 0x00d9, 0, &mmSDMA1_PAGE_RB_BASE[0], sizeof(mmSDMA1_PAGE_RB_BASE)/sizeof(mmSDMA1_PAGE_RB_BASE[0]), 0, 0 },
	{ "mmSDMA1_PAGE_RB_BASE_HI", REG_MMIO, 0x00da, 0, &mmSDMA1_PAGE_RB_BASE_HI[0], sizeof(mmSDMA1_PAGE_RB_BASE_HI)/sizeof(mmSDMA1_PAGE_RB_BASE_HI[0]), 0, 0 },
	{ "mmSDMA1_PAGE_RB_RPTR", REG_MMIO, 0x00db, 0, &mmSDMA1_PAGE_RB_RPTR[0], sizeof(mmSDMA1_PAGE_RB_RPTR)/sizeof(mmSDMA1_PAGE_RB_RPTR[0]), 0, 0 },
	{ "mmSDMA1_PAGE_RB_RPTR_HI", REG_MMIO, 0x00dc, 0, &mmSDMA1_PAGE_RB_RPTR_HI[0], sizeof(mmSDMA1_PAGE_RB_RPTR_HI)/sizeof(mmSDMA1_PAGE_RB_RPTR_HI[0]), 0, 0 },
	{ "mmSDMA1_PAGE_RB_WPTR", REG_MMIO, 0x00dd, 0, &mmSDMA1_PAGE_RB_WPTR[0], sizeof(mmSDMA1_PAGE_RB_WPTR)/sizeof(mmSDMA1_PAGE_RB_WPTR[0]), 0, 0 },
	{ "mmSDMA1_PAGE_RB_WPTR_HI", REG_MMIO, 0x00de, 0, &mmSDMA1_PAGE_RB_WPTR_HI[0], sizeof(mmSDMA1_PAGE_RB_WPTR_HI)/sizeof(mmSDMA1_PAGE_RB_WPTR_HI[0]), 0, 0 },
	{ "mmSDMA1_PAGE_RB_WPTR_POLL_CNTL", REG_MMIO, 0x00df, 0, &mmSDMA1_PAGE_RB_WPTR_POLL_CNTL[0], sizeof(mmSDMA1_PAGE_RB_WPTR_POLL_CNTL)/sizeof(mmSDMA1_PAGE_RB_WPTR_POLL_CNTL[0]), 0, 0 },
	{ "mmSDMA1_PAGE_RB_RPTR_ADDR_HI", REG_MMIO, 0x00e0, 0, &mmSDMA1_PAGE_RB_RPTR_ADDR_HI[0], sizeof(mmSDMA1_PAGE_RB_RPTR_ADDR_HI)/sizeof(mmSDMA1_PAGE_RB_RPTR_ADDR_HI[0]), 0, 0 },
	{ "mmSDMA1_PAGE_RB_RPTR_ADDR_LO", REG_MMIO, 0x00e1, 0, &mmSDMA1_PAGE_RB_RPTR_ADDR_LO[0], sizeof(mmSDMA1_PAGE_RB_RPTR_ADDR_LO)/sizeof(mmSDMA1_PAGE_RB_RPTR_ADDR_LO[0]), 0, 0 },
	{ "mmSDMA1_PAGE_IB_CNTL", REG_MMIO, 0x00e2, 0, &mmSDMA1_PAGE_IB_CNTL[0], sizeof(mmSDMA1_PAGE_IB_CNTL)/sizeof(mmSDMA1_PAGE_IB_CNTL[0]), 0, 0 },
	{ "mmSDMA1_PAGE_IB_RPTR", REG_MMIO, 0x00e3, 0, &mmSDMA1_PAGE_IB_RPTR[0], sizeof(mmSDMA1_PAGE_IB_RPTR)/sizeof(mmSDMA1_PAGE_IB_RPTR[0]), 0, 0 },
	{ "mmSDMA1_PAGE_IB_OFFSET", REG_MMIO, 0x00e4, 0, &mmSDMA1_PAGE_IB_OFFSET[0], sizeof(mmSDMA1_PAGE_IB_OFFSET)/sizeof(mmSDMA1_PAGE_IB_OFFSET[0]), 0, 0 },
	{ "mmSDMA1_PAGE_IB_BASE_LO", REG_MMIO, 0x00e5, 0, &mmSDMA1_PAGE_IB_BASE_LO[0], sizeof(mmSDMA1_PAGE_IB_BASE_LO)/sizeof(mmSDMA1_PAGE_IB_BASE_LO[0]), 0, 0 },
	{ "mmSDMA1_PAGE_IB_BASE_HI", REG_MMIO, 0x00e6, 0, &mmSDMA1_PAGE_IB_BASE_HI[0], sizeof(mmSDMA1_PAGE_IB_BASE_HI)/sizeof(mmSDMA1_PAGE_IB_BASE_HI[0]), 0, 0 },
	{ "mmSDMA1_PAGE_IB_SIZE", REG_MMIO, 0x00e7, 0, &mmSDMA1_PAGE_IB_SIZE[0], sizeof(mmSDMA1_PAGE_IB_SIZE)/sizeof(mmSDMA1_PAGE_IB_SIZE[0]), 0, 0 },
	{ "mmSDMA1_PAGE_SKIP_CNTL", REG_MMIO, 0x00e8, 0, &mmSDMA1_PAGE_SKIP_CNTL[0], sizeof(mmSDMA1_PAGE_SKIP_CNTL)/sizeof(mmSDMA1_PAGE_SKIP_CNTL[0]), 0, 0 },
	{ "mmSDMA1_PAGE_CONTEXT_STATUS", REG_MMIO, 0x00e9, 0, &mmSDMA1_PAGE_CONTEXT_STATUS[0], sizeof(mmSDMA1_PAGE_CONTEXT_STATUS)/sizeof(mmSDMA1_PAGE_CONTEXT_STATUS[0]), 0, 0 },
	{ "mmSDMA1_PAGE_DOORBELL", REG_MMIO, 0x00ea, 0, &mmSDMA1_PAGE_DOORBELL[0], sizeof(mmSDMA1_PAGE_DOORBELL)/sizeof(mmSDMA1_PAGE_DOORBELL[0]), 0, 0 },
	{ "mmSDMA1_PAGE_STATUS", REG_MMIO, 0x0100, 0, &mmSDMA1_PAGE_STATUS[0], sizeof(mmSDMA1_PAGE_STATUS)/sizeof(mmSDMA1_PAGE_STATUS[0]), 0, 0 },
	{ "mmSDMA1_PAGE_DOORBELL_LOG", REG_MMIO, 0x0101, 0, &mmSDMA1_PAGE_DOORBELL_LOG[0], sizeof(mmSDMA1_PAGE_DOORBELL_LOG)/sizeof(mmSDMA1_PAGE_DOORBELL_LOG[0]), 0, 0 },
	{ "mmSDMA1_PAGE_WATERMARK", REG_MMIO, 0x0102, 0, &mmSDMA1_PAGE_WATERMARK[0], sizeof(mmSDMA1_PAGE_WATERMARK)/sizeof(mmSDMA1_PAGE_WATERMARK[0]), 0, 0 },
	{ "mmSDMA1_PAGE_DOORBELL_OFFSET", REG_MMIO, 0x0103, 0, &mmSDMA1_PAGE_DOORBELL_OFFSET[0], sizeof(mmSDMA1_PAGE_DOORBELL_OFFSET)/sizeof(mmSDMA1_PAGE_DOORBELL_OFFSET[0]), 0, 0 },
	{ "mmSDMA1_PAGE_CSA_ADDR_LO", REG_MMIO, 0x0104, 0, &mmSDMA1_PAGE_CSA_ADDR_LO[0], sizeof(mmSDMA1_PAGE_CSA_ADDR_LO)/sizeof(mmSDMA1_PAGE_CSA_ADDR_LO[0]), 0, 0 },
	{ "mmSDMA1_PAGE_CSA_ADDR_HI", REG_MMIO, 0x0105, 0, &mmSDMA1_PAGE_CSA_ADDR_HI[0], sizeof(mmSDMA1_PAGE_CSA_ADDR_HI)/sizeof(mmSDMA1_PAGE_CSA_ADDR_HI[0]), 0, 0 },
	{ "mmSDMA1_PAGE_IB_SUB_REMAIN", REG_MMIO, 0x0107, 0, &mmSDMA1_PAGE_IB_SUB_REMAIN[0], sizeof(mmSDMA1_PAGE_IB_SUB_REMAIN)/sizeof(mmSDMA1_PAGE_IB_SUB_REMAIN[0]), 0, 0 },
	{ "mmSDMA1_PAGE_PREEMPT", REG_MMIO, 0x0108, 0, &mmSDMA1_PAGE_PREEMPT[0], sizeof(mmSDMA1_PAGE_PREEMPT)/sizeof(mmSDMA1_PAGE_PREEMPT[0]), 0, 0 },
	{ "mmSDMA1_PAGE_DUMMY_REG", REG_MMIO, 0x0109, 0, &mmSDMA1_PAGE_DUMMY_REG[0], sizeof(mmSDMA1_PAGE_DUMMY_REG)/sizeof(mmSDMA1_PAGE_DUMMY_REG[0]), 0, 0 },
	{ "mmSDMA1_PAGE_RB_WPTR_POLL_ADDR_HI", REG_MMIO, 0x010a, 0, &mmSDMA1_PAGE_RB_WPTR_POLL_ADDR_HI[0], sizeof(mmSDMA1_PAGE_RB_WPTR_POLL_ADDR_HI)/sizeof(mmSDMA1_PAGE_RB_WPTR_POLL_ADDR_HI[0]), 0, 0 },
	{ "mmSDMA1_PAGE_RB_WPTR_POLL_ADDR_LO", REG_MMIO, 0x010b, 0, &mmSDMA1_PAGE_RB_WPTR_POLL_ADDR_LO[0], sizeof(mmSDMA1_PAGE_RB_WPTR_POLL_ADDR_LO)/sizeof(mmSDMA1_PAGE_RB_WPTR_POLL_ADDR_LO[0]), 0, 0 },
	{ "mmSDMA1_PAGE_RB_AQL_CNTL", REG_MMIO, 0x010c, 0, &mmSDMA1_PAGE_RB_AQL_CNTL[0], sizeof(mmSDMA1_PAGE_RB_AQL_CNTL)/sizeof(mmSDMA1_PAGE_RB_AQL_CNTL[0]), 0, 0 },
	{ "mmSDMA1_PAGE_MINOR_PTR_UPDATE", REG_MMIO, 0x010d, 0, &mmSDMA1_PAGE_MINOR_PTR_UPDATE[0], sizeof(mmSDMA1_PAGE_MINOR_PTR_UPDATE)/sizeof(mmSDMA1_PAGE_MINOR_PTR_UPDATE[0]), 0, 0 },
	{ "mmSDMA1_PAGE_MIDCMD_DATA0", REG_MMIO, 0x0118, 0, &mmSDMA1_PAGE_MIDCMD_DATA0[0], sizeof(mmSDMA1_PAGE_MIDCMD_DATA0)/sizeof(mmSDMA1_PAGE_MIDCMD_DATA0[0]), 0, 0 },
	{ "mmSDMA1_PAGE_MIDCMD_DATA1", REG_MMIO, 0x0119, 0, &mmSDMA1_PAGE_MIDCMD_DATA1[0], sizeof(mmSDMA1_PAGE_MIDCMD_DATA1)/sizeof(mmSDMA1_PAGE_MIDCMD_DATA1[0]), 0, 0 },
	{ "mmSDMA1_PAGE_MIDCMD_DATA2", REG_MMIO, 0x011a, 0, &mmSDMA1_PAGE_MIDCMD_DATA2[0], sizeof(mmSDMA1_PAGE_MIDCMD_DATA2)/sizeof(mmSDMA1_PAGE_MIDCMD_DATA2[0]), 0, 0 },
	{ "mmSDMA1_PAGE_MIDCMD_DATA3", REG_MMIO, 0x011b, 0, &mmSDMA1_PAGE_MIDCMD_DATA3[0], sizeof(mmSDMA1_PAGE_MIDCMD_DATA3)/sizeof(mmSDMA1_PAGE_MIDCMD_DATA3[0]), 0, 0 },
	{ "mmSDMA1_PAGE_MIDCMD_DATA4", REG_MMIO, 0x011c, 0, &mmSDMA1_PAGE_MIDCMD_DATA4[0], sizeof(mmSDMA1_PAGE_MIDCMD_DATA4)/sizeof(mmSDMA1_PAGE_MIDCMD_DATA4[0]), 0, 0 },
	{ "mmSDMA1_PAGE_MIDCMD_DATA5", REG_MMIO, 0x011d, 0, &mmSDMA1_PAGE_MIDCMD_DATA5[0], sizeof(mmSDMA1_PAGE_MIDCMD_DATA5)/sizeof(mmSDMA1_PAGE_MIDCMD_DATA5[0]), 0, 0 },
	{ "mmSDMA1_PAGE_MIDCMD_DATA6", REG_MMIO, 0x011e, 0, &mmSDMA1_PAGE_MIDCMD_DATA6[0], sizeof(mmSDMA1_PAGE_MIDCMD_DATA6)/sizeof(mmSDMA1_PAGE_MIDCMD_DATA6[0]), 0, 0 },
	{ "mmSDMA1_PAGE_MIDCMD_DATA7", REG_MMIO, 0x011f, 0, &mmSDMA1_PAGE_MIDCMD_DATA7[0], sizeof(mmSDMA1_PAGE_MIDCMD_DATA7)/sizeof(mmSDMA1_PAGE_MIDCMD_DATA7[0]), 0, 0 },
	{ "mmSDMA1_PAGE_MIDCMD_DATA8", REG_MMIO, 0x0120, 0, &mmSDMA1_PAGE_MIDCMD_DATA8[0], sizeof(mmSDMA1_PAGE_MIDCMD_DATA8)/sizeof(mmSDMA1_PAGE_MIDCMD_DATA8[0]), 0, 0 },
	{ "mmSDMA1_PAGE_MIDCMD_CNTL", REG_MMIO, 0x0121, 0, &mmSDMA1_PAGE_MIDCMD_CNTL[0], sizeof(mmSDMA1_PAGE_MIDCMD_CNTL)/sizeof(mmSDMA1_PAGE_MIDCMD_CNTL[0]), 0, 0 },
	{ "mmSDMA1_RLC0_RB_CNTL", REG_MMIO, 0x0130, 0, &mmSDMA1_RLC0_RB_CNTL[0], sizeof(mmSDMA1_RLC0_RB_CNTL)/sizeof(mmSDMA1_RLC0_RB_CNTL[0]), 0, 0 },
	{ "mmSDMA1_RLC0_RB_BASE", REG_MMIO, 0x0131, 0, &mmSDMA1_RLC0_RB_BASE[0], sizeof(mmSDMA1_RLC0_RB_BASE)/sizeof(mmSDMA1_RLC0_RB_BASE[0]), 0, 0 },
	{ "mmSDMA1_RLC0_RB_BASE_HI", REG_MMIO, 0x0132, 0, &mmSDMA1_RLC0_RB_BASE_HI[0], sizeof(mmSDMA1_RLC0_RB_BASE_HI)/sizeof(mmSDMA1_RLC0_RB_BASE_HI[0]), 0, 0 },
	{ "mmSDMA1_RLC0_RB_RPTR", REG_MMIO, 0x0133, 0, &mmSDMA1_RLC0_RB_RPTR[0], sizeof(mmSDMA1_RLC0_RB_RPTR)/sizeof(mmSDMA1_RLC0_RB_RPTR[0]), 0, 0 },
	{ "mmSDMA1_RLC0_RB_RPTR_HI", REG_MMIO, 0x0134, 0, &mmSDMA1_RLC0_RB_RPTR_HI[0], sizeof(mmSDMA1_RLC0_RB_RPTR_HI)/sizeof(mmSDMA1_RLC0_RB_RPTR_HI[0]), 0, 0 },
	{ "mmSDMA1_RLC0_RB_WPTR", REG_MMIO, 0x0135, 0, &mmSDMA1_RLC0_RB_WPTR[0], sizeof(mmSDMA1_RLC0_RB_WPTR)/sizeof(mmSDMA1_RLC0_RB_WPTR[0]), 0, 0 },
	{ "mmSDMA1_RLC0_RB_WPTR_HI", REG_MMIO, 0x0136, 0, &mmSDMA1_RLC0_RB_WPTR_HI[0], sizeof(mmSDMA1_RLC0_RB_WPTR_HI)/sizeof(mmSDMA1_RLC0_RB_WPTR_HI[0]), 0, 0 },
	{ "mmSDMA1_RLC0_RB_WPTR_POLL_CNTL", REG_MMIO, 0x0137, 0, &mmSDMA1_RLC0_RB_WPTR_POLL_CNTL[0], sizeof(mmSDMA1_RLC0_RB_WPTR_POLL_CNTL)/sizeof(mmSDMA1_RLC0_RB_WPTR_POLL_CNTL[0]), 0, 0 },
	{ "mmSDMA1_RLC0_RB_RPTR_ADDR_HI", REG_MMIO, 0x0138, 0, &mmSDMA1_RLC0_RB_RPTR_ADDR_HI[0], sizeof(mmSDMA1_RLC0_RB_RPTR_ADDR_HI)/sizeof(mmSDMA1_RLC0_RB_RPTR_ADDR_HI[0]), 0, 0 },
	{ "mmSDMA1_RLC0_RB_RPTR_ADDR_LO", REG_MMIO, 0x0139, 0, &mmSDMA1_RLC0_RB_RPTR_ADDR_LO[0], sizeof(mmSDMA1_RLC0_RB_RPTR_ADDR_LO)/sizeof(mmSDMA1_RLC0_RB_RPTR_ADDR_LO[0]), 0, 0 },
	{ "mmSDMA1_RLC0_IB_CNTL", REG_MMIO, 0x013a, 0, &mmSDMA1_RLC0_IB_CNTL[0], sizeof(mmSDMA1_RLC0_IB_CNTL)/sizeof(mmSDMA1_RLC0_IB_CNTL[0]), 0, 0 },
	{ "mmSDMA1_RLC0_IB_RPTR", REG_MMIO, 0x013b, 0, &mmSDMA1_RLC0_IB_RPTR[0], sizeof(mmSDMA1_RLC0_IB_RPTR)/sizeof(mmSDMA1_RLC0_IB_RPTR[0]), 0, 0 },
	{ "mmSDMA1_RLC0_IB_OFFSET", REG_MMIO, 0x013c, 0, &mmSDMA1_RLC0_IB_OFFSET[0], sizeof(mmSDMA1_RLC0_IB_OFFSET)/sizeof(mmSDMA1_RLC0_IB_OFFSET[0]), 0, 0 },
	{ "mmSDMA1_RLC0_IB_BASE_LO", REG_MMIO, 0x013d, 0, &mmSDMA1_RLC0_IB_BASE_LO[0], sizeof(mmSDMA1_RLC0_IB_BASE_LO)/sizeof(mmSDMA1_RLC0_IB_BASE_LO[0]), 0, 0 },
	{ "mmSDMA1_RLC0_IB_BASE_HI", REG_MMIO, 0x013e, 0, &mmSDMA1_RLC0_IB_BASE_HI[0], sizeof(mmSDMA1_RLC0_IB_BASE_HI)/sizeof(mmSDMA1_RLC0_IB_BASE_HI[0]), 0, 0 },
	{ "mmSDMA1_RLC0_IB_SIZE", REG_MMIO, 0x013f, 0, &mmSDMA1_RLC0_IB_SIZE[0], sizeof(mmSDMA1_RLC0_IB_SIZE)/sizeof(mmSDMA1_RLC0_IB_SIZE[0]), 0, 0 },
	{ "mmSDMA1_RLC0_SKIP_CNTL", REG_MMIO, 0x0140, 0, &mmSDMA1_RLC0_SKIP_CNTL[0], sizeof(mmSDMA1_RLC0_SKIP_CNTL)/sizeof(mmSDMA1_RLC0_SKIP_CNTL[0]), 0, 0 },
	{ "mmSDMA1_RLC0_CONTEXT_STATUS", REG_MMIO, 0x0141, 0, &mmSDMA1_RLC0_CONTEXT_STATUS[0], sizeof(mmSDMA1_RLC0_CONTEXT_STATUS)/sizeof(mmSDMA1_RLC0_CONTEXT_STATUS[0]), 0, 0 },
	{ "mmSDMA1_RLC0_DOORBELL", REG_MMIO, 0x0142, 0, &mmSDMA1_RLC0_DOORBELL[0], sizeof(mmSDMA1_RLC0_DOORBELL)/sizeof(mmSDMA1_RLC0_DOORBELL[0]), 0, 0 },
	{ "mmSDMA1_RLC0_STATUS", REG_MMIO, 0x0158, 0, &mmSDMA1_RLC0_STATUS[0], sizeof(mmSDMA1_RLC0_STATUS)/sizeof(mmSDMA1_RLC0_STATUS[0]), 0, 0 },
	{ "mmSDMA1_RLC0_DOORBELL_LOG", REG_MMIO, 0x0159, 0, &mmSDMA1_RLC0_DOORBELL_LOG[0], sizeof(mmSDMA1_RLC0_DOORBELL_LOG)/sizeof(mmSDMA1_RLC0_DOORBELL_LOG[0]), 0, 0 },
	{ "mmSDMA1_RLC0_WATERMARK", REG_MMIO, 0x015a, 0, &mmSDMA1_RLC0_WATERMARK[0], sizeof(mmSDMA1_RLC0_WATERMARK)/sizeof(mmSDMA1_RLC0_WATERMARK[0]), 0, 0 },
	{ "mmSDMA1_RLC0_DOORBELL_OFFSET", REG_MMIO, 0x015b, 0, &mmSDMA1_RLC0_DOORBELL_OFFSET[0], sizeof(mmSDMA1_RLC0_DOORBELL_OFFSET)/sizeof(mmSDMA1_RLC0_DOORBELL_OFFSET[0]), 0, 0 },
	{ "mmSDMA1_RLC0_CSA_ADDR_LO", REG_MMIO, 0x015c, 0, &mmSDMA1_RLC0_CSA_ADDR_LO[0], sizeof(mmSDMA1_RLC0_CSA_ADDR_LO)/sizeof(mmSDMA1_RLC0_CSA_ADDR_LO[0]), 0, 0 },
	{ "mmSDMA1_RLC0_CSA_ADDR_HI", REG_MMIO, 0x015d, 0, &mmSDMA1_RLC0_CSA_ADDR_HI[0], sizeof(mmSDMA1_RLC0_CSA_ADDR_HI)/sizeof(mmSDMA1_RLC0_CSA_ADDR_HI[0]), 0, 0 },
	{ "mmSDMA1_RLC0_IB_SUB_REMAIN", REG_MMIO, 0x015f, 0, &mmSDMA1_RLC0_IB_SUB_REMAIN[0], sizeof(mmSDMA1_RLC0_IB_SUB_REMAIN)/sizeof(mmSDMA1_RLC0_IB_SUB_REMAIN[0]), 0, 0 },
	{ "mmSDMA1_RLC0_PREEMPT", REG_MMIO, 0x0160, 0, &mmSDMA1_RLC0_PREEMPT[0], sizeof(mmSDMA1_RLC0_PREEMPT)/sizeof(mmSDMA1_RLC0_PREEMPT[0]), 0, 0 },
	{ "mmSDMA1_RLC0_DUMMY_REG", REG_MMIO, 0x0161, 0, &mmSDMA1_RLC0_DUMMY_REG[0], sizeof(mmSDMA1_RLC0_DUMMY_REG)/sizeof(mmSDMA1_RLC0_DUMMY_REG[0]), 0, 0 },
	{ "mmSDMA1_RLC0_RB_WPTR_POLL_ADDR_HI", REG_MMIO, 0x0162, 0, &mmSDMA1_RLC0_RB_WPTR_POLL_ADDR_HI[0], sizeof(mmSDMA1_RLC0_RB_WPTR_POLL_ADDR_HI)/sizeof(mmSDMA1_RLC0_RB_WPTR_POLL_ADDR_HI[0]), 0, 0 },
	{ "mmSDMA1_RLC0_RB_WPTR_POLL_ADDR_LO", REG_MMIO, 0x0163, 0, &mmSDMA1_RLC0_RB_WPTR_POLL_ADDR_LO[0], sizeof(mmSDMA1_RLC0_RB_WPTR_POLL_ADDR_LO)/sizeof(mmSDMA1_RLC0_RB_WPTR_POLL_ADDR_LO[0]), 0, 0 },
	{ "mmSDMA1_RLC0_RB_AQL_CNTL", REG_MMIO, 0x0164, 0, &mmSDMA1_RLC0_RB_AQL_CNTL[0], sizeof(mmSDMA1_RLC0_RB_AQL_CNTL)/sizeof(mmSDMA1_RLC0_RB_AQL_CNTL[0]), 0, 0 },
	{ "mmSDMA1_RLC0_MINOR_PTR_UPDATE", REG_MMIO, 0x0165, 0, &mmSDMA1_RLC0_MINOR_PTR_UPDATE[0], sizeof(mmSDMA1_RLC0_MINOR_PTR_UPDATE)/sizeof(mmSDMA1_RLC0_MINOR_PTR_UPDATE[0]), 0, 0 },
	{ "mmSDMA1_RLC0_MIDCMD_DATA0", REG_MMIO, 0x0170, 0, &mmSDMA1_RLC0_MIDCMD_DATA0[0], sizeof(mmSDMA1_RLC0_MIDCMD_DATA0)/sizeof(mmSDMA1_RLC0_MIDCMD_DATA0[0]), 0, 0 },
	{ "mmSDMA1_RLC0_MIDCMD_DATA1", REG_MMIO, 0x0171, 0, &mmSDMA1_RLC0_MIDCMD_DATA1[0], sizeof(mmSDMA1_RLC0_MIDCMD_DATA1)/sizeof(mmSDMA1_RLC0_MIDCMD_DATA1[0]), 0, 0 },
	{ "mmSDMA1_RLC0_MIDCMD_DATA2", REG_MMIO, 0x0172, 0, &mmSDMA1_RLC0_MIDCMD_DATA2[0], sizeof(mmSDMA1_RLC0_MIDCMD_DATA2)/sizeof(mmSDMA1_RLC0_MIDCMD_DATA2[0]), 0, 0 },
	{ "mmSDMA1_RLC0_MIDCMD_DATA3", REG_MMIO, 0x0173, 0, &mmSDMA1_RLC0_MIDCMD_DATA3[0], sizeof(mmSDMA1_RLC0_MIDCMD_DATA3)/sizeof(mmSDMA1_RLC0_MIDCMD_DATA3[0]), 0, 0 },
	{ "mmSDMA1_RLC0_MIDCMD_DATA4", REG_MMIO, 0x0174, 0, &mmSDMA1_RLC0_MIDCMD_DATA4[0], sizeof(mmSDMA1_RLC0_MIDCMD_DATA4)/sizeof(mmSDMA1_RLC0_MIDCMD_DATA4[0]), 0, 0 },
	{ "mmSDMA1_RLC0_MIDCMD_DATA5", REG_MMIO, 0x0175, 0, &mmSDMA1_RLC0_MIDCMD_DATA5[0], sizeof(mmSDMA1_RLC0_MIDCMD_DATA5)/sizeof(mmSDMA1_RLC0_MIDCMD_DATA5[0]), 0, 0 },
	{ "mmSDMA1_RLC0_MIDCMD_DATA6", REG_MMIO, 0x0176, 0, &mmSDMA1_RLC0_MIDCMD_DATA6[0], sizeof(mmSDMA1_RLC0_MIDCMD_DATA6)/sizeof(mmSDMA1_RLC0_MIDCMD_DATA6[0]), 0, 0 },
	{ "mmSDMA1_RLC0_MIDCMD_DATA7", REG_MMIO, 0x0177, 0, &mmSDMA1_RLC0_MIDCMD_DATA7[0], sizeof(mmSDMA1_RLC0_MIDCMD_DATA7)/sizeof(mmSDMA1_RLC0_MIDCMD_DATA7[0]), 0, 0 },
	{ "mmSDMA1_RLC0_MIDCMD_DATA8", REG_MMIO, 0x0178, 0, &mmSDMA1_RLC0_MIDCMD_DATA8[0], sizeof(mmSDMA1_RLC0_MIDCMD_DATA8)/sizeof(mmSDMA1_RLC0_MIDCMD_DATA8[0]), 0, 0 },
	{ "mmSDMA1_RLC0_MIDCMD_CNTL", REG_MMIO, 0x0179, 0, &mmSDMA1_RLC0_MIDCMD_CNTL[0], sizeof(mmSDMA1_RLC0_MIDCMD_CNTL)/sizeof(mmSDMA1_RLC0_MIDCMD_CNTL[0]), 0, 0 },
	{ "mmSDMA1_RLC1_RB_CNTL", REG_MMIO, 0x0188, 0, &mmSDMA1_RLC1_RB_CNTL[0], sizeof(mmSDMA1_RLC1_RB_CNTL)/sizeof(mmSDMA1_RLC1_RB_CNTL[0]), 0, 0 },
	{ "mmSDMA1_RLC1_RB_BASE", REG_MMIO, 0x0189, 0, &mmSDMA1_RLC1_RB_BASE[0], sizeof(mmSDMA1_RLC1_RB_BASE)/sizeof(mmSDMA1_RLC1_RB_BASE[0]), 0, 0 },
	{ "mmSDMA1_RLC1_RB_BASE_HI", REG_MMIO, 0x018a, 0, &mmSDMA1_RLC1_RB_BASE_HI[0], sizeof(mmSDMA1_RLC1_RB_BASE_HI)/sizeof(mmSDMA1_RLC1_RB_BASE_HI[0]), 0, 0 },
	{ "mmSDMA1_RLC1_RB_RPTR", REG_MMIO, 0x018b, 0, &mmSDMA1_RLC1_RB_RPTR[0], sizeof(mmSDMA1_RLC1_RB_RPTR)/sizeof(mmSDMA1_RLC1_RB_RPTR[0]), 0, 0 },
	{ "mmSDMA1_RLC1_RB_RPTR_HI", REG_MMIO, 0x018c, 0, &mmSDMA1_RLC1_RB_RPTR_HI[0], sizeof(mmSDMA1_RLC1_RB_RPTR_HI)/sizeof(mmSDMA1_RLC1_RB_RPTR_HI[0]), 0, 0 },
	{ "mmSDMA1_RLC1_RB_WPTR", REG_MMIO, 0x018d, 0, &mmSDMA1_RLC1_RB_WPTR[0], sizeof(mmSDMA1_RLC1_RB_WPTR)/sizeof(mmSDMA1_RLC1_RB_WPTR[0]), 0, 0 },
	{ "mmSDMA1_RLC1_RB_WPTR_HI", REG_MMIO, 0x018e, 0, &mmSDMA1_RLC1_RB_WPTR_HI[0], sizeof(mmSDMA1_RLC1_RB_WPTR_HI)/sizeof(mmSDMA1_RLC1_RB_WPTR_HI[0]), 0, 0 },
	{ "mmSDMA1_RLC1_RB_WPTR_POLL_CNTL", REG_MMIO, 0x018f, 0, &mmSDMA1_RLC1_RB_WPTR_POLL_CNTL[0], sizeof(mmSDMA1_RLC1_RB_WPTR_POLL_CNTL)/sizeof(mmSDMA1_RLC1_RB_WPTR_POLL_CNTL[0]), 0, 0 },
	{ "mmSDMA1_RLC1_RB_RPTR_ADDR_HI", REG_MMIO, 0x0190, 0, &mmSDMA1_RLC1_RB_RPTR_ADDR_HI[0], sizeof(mmSDMA1_RLC1_RB_RPTR_ADDR_HI)/sizeof(mmSDMA1_RLC1_RB_RPTR_ADDR_HI[0]), 0, 0 },
	{ "mmSDMA1_RLC1_RB_RPTR_ADDR_LO", REG_MMIO, 0x0191, 0, &mmSDMA1_RLC1_RB_RPTR_ADDR_LO[0], sizeof(mmSDMA1_RLC1_RB_RPTR_ADDR_LO)/sizeof(mmSDMA1_RLC1_RB_RPTR_ADDR_LO[0]), 0, 0 },
	{ "mmSDMA1_RLC1_IB_CNTL", REG_MMIO, 0x0192, 0, &mmSDMA1_RLC1_IB_CNTL[0], sizeof(mmSDMA1_RLC1_IB_CNTL)/sizeof(mmSDMA1_RLC1_IB_CNTL[0]), 0, 0 },
	{ "mmSDMA1_RLC1_IB_RPTR", REG_MMIO, 0x0193, 0, &mmSDMA1_RLC1_IB_RPTR[0], sizeof(mmSDMA1_RLC1_IB_RPTR)/sizeof(mmSDMA1_RLC1_IB_RPTR[0]), 0, 0 },
	{ "mmSDMA1_RLC1_IB_OFFSET", REG_MMIO, 0x0194, 0, &mmSDMA1_RLC1_IB_OFFSET[0], sizeof(mmSDMA1_RLC1_IB_OFFSET)/sizeof(mmSDMA1_RLC1_IB_OFFSET[0]), 0, 0 },
	{ "mmSDMA1_RLC1_IB_BASE_LO", REG_MMIO, 0x0195, 0, &mmSDMA1_RLC1_IB_BASE_LO[0], sizeof(mmSDMA1_RLC1_IB_BASE_LO)/sizeof(mmSDMA1_RLC1_IB_BASE_LO[0]), 0, 0 },
	{ "mmSDMA1_RLC1_IB_BASE_HI", REG_MMIO, 0x0196, 0, &mmSDMA1_RLC1_IB_BASE_HI[0], sizeof(mmSDMA1_RLC1_IB_BASE_HI)/sizeof(mmSDMA1_RLC1_IB_BASE_HI[0]), 0, 0 },
	{ "mmSDMA1_RLC1_IB_SIZE", REG_MMIO, 0x0197, 0, &mmSDMA1_RLC1_IB_SIZE[0], sizeof(mmSDMA1_RLC1_IB_SIZE)/sizeof(mmSDMA1_RLC1_IB_SIZE[0]), 0, 0 },
	{ "mmSDMA1_RLC1_SKIP_CNTL", REG_MMIO, 0x0198, 0, &mmSDMA1_RLC1_SKIP_CNTL[0], sizeof(mmSDMA1_RLC1_SKIP_CNTL)/sizeof(mmSDMA1_RLC1_SKIP_CNTL[0]), 0, 0 },
	{ "mmSDMA1_RLC1_CONTEXT_STATUS", REG_MMIO, 0x0199, 0, &mmSDMA1_RLC1_CONTEXT_STATUS[0], sizeof(mmSDMA1_RLC1_CONTEXT_STATUS)/sizeof(mmSDMA1_RLC1_CONTEXT_STATUS[0]), 0, 0 },
	{ "mmSDMA1_RLC1_DOORBELL", REG_MMIO, 0x019a, 0, &mmSDMA1_RLC1_DOORBELL[0], sizeof(mmSDMA1_RLC1_DOORBELL)/sizeof(mmSDMA1_RLC1_DOORBELL[0]), 0, 0 },
	{ "mmSDMA1_RLC1_STATUS", REG_MMIO, 0x01b0, 0, &mmSDMA1_RLC1_STATUS[0], sizeof(mmSDMA1_RLC1_STATUS)/sizeof(mmSDMA1_RLC1_STATUS[0]), 0, 0 },
	{ "mmSDMA1_RLC1_DOORBELL_LOG", REG_MMIO, 0x01b1, 0, &mmSDMA1_RLC1_DOORBELL_LOG[0], sizeof(mmSDMA1_RLC1_DOORBELL_LOG)/sizeof(mmSDMA1_RLC1_DOORBELL_LOG[0]), 0, 0 },
	{ "mmSDMA1_RLC1_WATERMARK", REG_MMIO, 0x01b2, 0, &mmSDMA1_RLC1_WATERMARK[0], sizeof(mmSDMA1_RLC1_WATERMARK)/sizeof(mmSDMA1_RLC1_WATERMARK[0]), 0, 0 },
	{ "mmSDMA1_RLC1_DOORBELL_OFFSET", REG_MMIO, 0x01b3, 0, &mmSDMA1_RLC1_DOORBELL_OFFSET[0], sizeof(mmSDMA1_RLC1_DOORBELL_OFFSET)/sizeof(mmSDMA1_RLC1_DOORBELL_OFFSET[0]), 0, 0 },
	{ "mmSDMA1_RLC1_CSA_ADDR_LO", REG_MMIO, 0x01b4, 0, &mmSDMA1_RLC1_CSA_ADDR_LO[0], sizeof(mmSDMA1_RLC1_CSA_ADDR_LO)/sizeof(mmSDMA1_RLC1_CSA_ADDR_LO[0]), 0, 0 },
	{ "mmSDMA1_RLC1_CSA_ADDR_HI", REG_MMIO, 0x01b5, 0, &mmSDMA1_RLC1_CSA_ADDR_HI[0], sizeof(mmSDMA1_RLC1_CSA_ADDR_HI)/sizeof(mmSDMA1_RLC1_CSA_ADDR_HI[0]), 0, 0 },
	{ "mmSDMA1_RLC1_IB_SUB_REMAIN", REG_MMIO, 0x01b7, 0, &mmSDMA1_RLC1_IB_SUB_REMAIN[0], sizeof(mmSDMA1_RLC1_IB_SUB_REMAIN)/sizeof(mmSDMA1_RLC1_IB_SUB_REMAIN[0]), 0, 0 },
	{ "mmSDMA1_RLC1_PREEMPT", REG_MMIO, 0x01b8, 0, &mmSDMA1_RLC1_PREEMPT[0], sizeof(mmSDMA1_RLC1_PREEMPT)/sizeof(mmSDMA1_RLC1_PREEMPT[0]), 0, 0 },
	{ "mmSDMA1_RLC1_DUMMY_REG", REG_MMIO, 0x01b9, 0, &mmSDMA1_RLC1_DUMMY_REG[0], sizeof(mmSDMA1_RLC1_DUMMY_REG)/sizeof(mmSDMA1_RLC1_DUMMY_REG[0]), 0, 0 },
	{ "mmSDMA1_RLC1_RB_WPTR_POLL_ADDR_HI", REG_MMIO, 0x01ba, 0, &mmSDMA1_RLC1_RB_WPTR_POLL_ADDR_HI[0], sizeof(mmSDMA1_RLC1_RB_WPTR_POLL_ADDR_HI)/sizeof(mmSDMA1_RLC1_RB_WPTR_POLL_ADDR_HI[0]), 0, 0 },
	{ "mmSDMA1_RLC1_RB_WPTR_POLL_ADDR_LO", REG_MMIO, 0x01bb, 0, &mmSDMA1_RLC1_RB_WPTR_POLL_ADDR_LO[0], sizeof(mmSDMA1_RLC1_RB_WPTR_POLL_ADDR_LO)/sizeof(mmSDMA1_RLC1_RB_WPTR_POLL_ADDR_LO[0]), 0, 0 },
	{ "mmSDMA1_RLC1_RB_AQL_CNTL", REG_MMIO, 0x01bc, 0, &mmSDMA1_RLC1_RB_AQL_CNTL[0], sizeof(mmSDMA1_RLC1_RB_AQL_CNTL)/sizeof(mmSDMA1_RLC1_RB_AQL_CNTL[0]), 0, 0 },
	{ "mmSDMA1_RLC1_MINOR_PTR_UPDATE", REG_MMIO, 0x01bd, 0, &mmSDMA1_RLC1_MINOR_PTR_UPDATE[0], sizeof(mmSDMA1_RLC1_MINOR_PTR_UPDATE)/sizeof(mmSDMA1_RLC1_MINOR_PTR_UPDATE[0]), 0, 0 },
	{ "mmSDMA1_RLC1_MIDCMD_DATA0", REG_MMIO, 0x01c8, 0, &mmSDMA1_RLC1_MIDCMD_DATA0[0], sizeof(mmSDMA1_RLC1_MIDCMD_DATA0)/sizeof(mmSDMA1_RLC1_MIDCMD_DATA0[0]), 0, 0 },
	{ "mmSDMA1_RLC1_MIDCMD_DATA1", REG_MMIO, 0x01c9, 0, &mmSDMA1_RLC1_MIDCMD_DATA1[0], sizeof(mmSDMA1_RLC1_MIDCMD_DATA1)/sizeof(mmSDMA1_RLC1_MIDCMD_DATA1[0]), 0, 0 },
	{ "mmSDMA1_RLC1_MIDCMD_DATA2", REG_MMIO, 0x01ca, 0, &mmSDMA1_RLC1_MIDCMD_DATA2[0], sizeof(mmSDMA1_RLC1_MIDCMD_DATA2)/sizeof(mmSDMA1_RLC1_MIDCMD_DATA2[0]), 0, 0 },
	{ "mmSDMA1_RLC1_MIDCMD_DATA3", REG_MMIO, 0x01cb, 0, &mmSDMA1_RLC1_MIDCMD_DATA3[0], sizeof(mmSDMA1_RLC1_MIDCMD_DATA3)/sizeof(mmSDMA1_RLC1_MIDCMD_DATA3[0]), 0, 0 },
	{ "mmSDMA1_RLC1_MIDCMD_DATA4", REG_MMIO, 0x01cc, 0, &mmSDMA1_RLC1_MIDCMD_DATA4[0], sizeof(mmSDMA1_RLC1_MIDCMD_DATA4)/sizeof(mmSDMA1_RLC1_MIDCMD_DATA4[0]), 0, 0 },
	{ "mmSDMA1_RLC1_MIDCMD_DATA5", REG_MMIO, 0x01cd, 0, &mmSDMA1_RLC1_MIDCMD_DATA5[0], sizeof(mmSDMA1_RLC1_MIDCMD_DATA5)/sizeof(mmSDMA1_RLC1_MIDCMD_DATA5[0]), 0, 0 },
	{ "mmSDMA1_RLC1_MIDCMD_DATA6", REG_MMIO, 0x01ce, 0, &mmSDMA1_RLC1_MIDCMD_DATA6[0], sizeof(mmSDMA1_RLC1_MIDCMD_DATA6)/sizeof(mmSDMA1_RLC1_MIDCMD_DATA6[0]), 0, 0 },
	{ "mmSDMA1_RLC1_MIDCMD_DATA7", REG_MMIO, 0x01cf, 0, &mmSDMA1_RLC1_MIDCMD_DATA7[0], sizeof(mmSDMA1_RLC1_MIDCMD_DATA7)/sizeof(mmSDMA1_RLC1_MIDCMD_DATA7[0]), 0, 0 },
	{ "mmSDMA1_RLC1_MIDCMD_DATA8", REG_MMIO, 0x01d0, 0, &mmSDMA1_RLC1_MIDCMD_DATA8[0], sizeof(mmSDMA1_RLC1_MIDCMD_DATA8)/sizeof(mmSDMA1_RLC1_MIDCMD_DATA8[0]), 0, 0 },
	{ "mmSDMA1_RLC1_MIDCMD_CNTL", REG_MMIO, 0x01d1, 0, &mmSDMA1_RLC1_MIDCMD_CNTL[0], sizeof(mmSDMA1_RLC1_MIDCMD_CNTL)/sizeof(mmSDMA1_RLC1_MIDCMD_CNTL[0]), 0, 0 },
	{ "mmSDMA1_RLC2_RB_CNTL", REG_MMIO, 0x01e0, 0, &mmSDMA1_RLC2_RB_CNTL[0], sizeof(mmSDMA1_RLC2_RB_CNTL)/sizeof(mmSDMA1_RLC2_RB_CNTL[0]), 0, 0 },
	{ "mmSDMA1_RLC2_RB_BASE", REG_MMIO, 0x01e1, 0, &mmSDMA1_RLC2_RB_BASE[0], sizeof(mmSDMA1_RLC2_RB_BASE)/sizeof(mmSDMA1_RLC2_RB_BASE[0]), 0, 0 },
	{ "mmSDMA1_RLC2_RB_BASE_HI", REG_MMIO, 0x01e2, 0, &mmSDMA1_RLC2_RB_BASE_HI[0], sizeof(mmSDMA1_RLC2_RB_BASE_HI)/sizeof(mmSDMA1_RLC2_RB_BASE_HI[0]), 0, 0 },
	{ "mmSDMA1_RLC2_RB_RPTR", REG_MMIO, 0x01e3, 0, &mmSDMA1_RLC2_RB_RPTR[0], sizeof(mmSDMA1_RLC2_RB_RPTR)/sizeof(mmSDMA1_RLC2_RB_RPTR[0]), 0, 0 },
	{ "mmSDMA1_RLC2_RB_RPTR_HI", REG_MMIO, 0x01e4, 0, &mmSDMA1_RLC2_RB_RPTR_HI[0], sizeof(mmSDMA1_RLC2_RB_RPTR_HI)/sizeof(mmSDMA1_RLC2_RB_RPTR_HI[0]), 0, 0 },
	{ "mmSDMA1_RLC2_RB_WPTR", REG_MMIO, 0x01e5, 0, &mmSDMA1_RLC2_RB_WPTR[0], sizeof(mmSDMA1_RLC2_RB_WPTR)/sizeof(mmSDMA1_RLC2_RB_WPTR[0]), 0, 0 },
	{ "mmSDMA1_RLC2_RB_WPTR_HI", REG_MMIO, 0x01e6, 0, &mmSDMA1_RLC2_RB_WPTR_HI[0], sizeof(mmSDMA1_RLC2_RB_WPTR_HI)/sizeof(mmSDMA1_RLC2_RB_WPTR_HI[0]), 0, 0 },
	{ "mmSDMA1_RLC2_RB_WPTR_POLL_CNTL", REG_MMIO, 0x01e7, 0, &mmSDMA1_RLC2_RB_WPTR_POLL_CNTL[0], sizeof(mmSDMA1_RLC2_RB_WPTR_POLL_CNTL)/sizeof(mmSDMA1_RLC2_RB_WPTR_POLL_CNTL[0]), 0, 0 },
	{ "mmSDMA1_RLC2_RB_RPTR_ADDR_HI", REG_MMIO, 0x01e8, 0, &mmSDMA1_RLC2_RB_RPTR_ADDR_HI[0], sizeof(mmSDMA1_RLC2_RB_RPTR_ADDR_HI)/sizeof(mmSDMA1_RLC2_RB_RPTR_ADDR_HI[0]), 0, 0 },
	{ "mmSDMA1_RLC2_RB_RPTR_ADDR_LO", REG_MMIO, 0x01e9, 0, &mmSDMA1_RLC2_RB_RPTR_ADDR_LO[0], sizeof(mmSDMA1_RLC2_RB_RPTR_ADDR_LO)/sizeof(mmSDMA1_RLC2_RB_RPTR_ADDR_LO[0]), 0, 0 },
	{ "mmSDMA1_RLC2_IB_CNTL", REG_MMIO, 0x01ea, 0, &mmSDMA1_RLC2_IB_CNTL[0], sizeof(mmSDMA1_RLC2_IB_CNTL)/sizeof(mmSDMA1_RLC2_IB_CNTL[0]), 0, 0 },
	{ "mmSDMA1_RLC2_IB_RPTR", REG_MMIO, 0x01eb, 0, &mmSDMA1_RLC2_IB_RPTR[0], sizeof(mmSDMA1_RLC2_IB_RPTR)/sizeof(mmSDMA1_RLC2_IB_RPTR[0]), 0, 0 },
	{ "mmSDMA1_RLC2_IB_OFFSET", REG_MMIO, 0x01ec, 0, &mmSDMA1_RLC2_IB_OFFSET[0], sizeof(mmSDMA1_RLC2_IB_OFFSET)/sizeof(mmSDMA1_RLC2_IB_OFFSET[0]), 0, 0 },
	{ "mmSDMA1_RLC2_IB_BASE_LO", REG_MMIO, 0x01ed, 0, &mmSDMA1_RLC2_IB_BASE_LO[0], sizeof(mmSDMA1_RLC2_IB_BASE_LO)/sizeof(mmSDMA1_RLC2_IB_BASE_LO[0]), 0, 0 },
	{ "mmSDMA1_RLC2_IB_BASE_HI", REG_MMIO, 0x01ee, 0, &mmSDMA1_RLC2_IB_BASE_HI[0], sizeof(mmSDMA1_RLC2_IB_BASE_HI)/sizeof(mmSDMA1_RLC2_IB_BASE_HI[0]), 0, 0 },
	{ "mmSDMA1_RLC2_IB_SIZE", REG_MMIO, 0x01ef, 0, &mmSDMA1_RLC2_IB_SIZE[0], sizeof(mmSDMA1_RLC2_IB_SIZE)/sizeof(mmSDMA1_RLC2_IB_SIZE[0]), 0, 0 },
	{ "mmSDMA1_RLC2_SKIP_CNTL", REG_MMIO, 0x01f0, 0, &mmSDMA1_RLC2_SKIP_CNTL[0], sizeof(mmSDMA1_RLC2_SKIP_CNTL)/sizeof(mmSDMA1_RLC2_SKIP_CNTL[0]), 0, 0 },
	{ "mmSDMA1_RLC2_CONTEXT_STATUS", REG_MMIO, 0x01f1, 0, &mmSDMA1_RLC2_CONTEXT_STATUS[0], sizeof(mmSDMA1_RLC2_CONTEXT_STATUS)/sizeof(mmSDMA1_RLC2_CONTEXT_STATUS[0]), 0, 0 },
	{ "mmSDMA1_RLC2_DOORBELL", REG_MMIO, 0x01f2, 0, &mmSDMA1_RLC2_DOORBELL[0], sizeof(mmSDMA1_RLC2_DOORBELL)/sizeof(mmSDMA1_RLC2_DOORBELL[0]), 0, 0 },
	{ "mmSDMA1_RLC2_STATUS", REG_MMIO, 0x0208, 0, &mmSDMA1_RLC2_STATUS[0], sizeof(mmSDMA1_RLC2_STATUS)/sizeof(mmSDMA1_RLC2_STATUS[0]), 0, 0 },
	{ "mmSDMA1_RLC2_DOORBELL_LOG", REG_MMIO, 0x0209, 0, &mmSDMA1_RLC2_DOORBELL_LOG[0], sizeof(mmSDMA1_RLC2_DOORBELL_LOG)/sizeof(mmSDMA1_RLC2_DOORBELL_LOG[0]), 0, 0 },
	{ "mmSDMA1_RLC2_WATERMARK", REG_MMIO, 0x020a, 0, &mmSDMA1_RLC2_WATERMARK[0], sizeof(mmSDMA1_RLC2_WATERMARK)/sizeof(mmSDMA1_RLC2_WATERMARK[0]), 0, 0 },
	{ "mmSDMA1_RLC2_DOORBELL_OFFSET", REG_MMIO, 0x020b, 0, &mmSDMA1_RLC2_DOORBELL_OFFSET[0], sizeof(mmSDMA1_RLC2_DOORBELL_OFFSET)/sizeof(mmSDMA1_RLC2_DOORBELL_OFFSET[0]), 0, 0 },
	{ "mmSDMA1_RLC2_CSA_ADDR_LO", REG_MMIO, 0x020c, 0, &mmSDMA1_RLC2_CSA_ADDR_LO[0], sizeof(mmSDMA1_RLC2_CSA_ADDR_LO)/sizeof(mmSDMA1_RLC2_CSA_ADDR_LO[0]), 0, 0 },
	{ "mmSDMA1_RLC2_CSA_ADDR_HI", REG_MMIO, 0x020d, 0, &mmSDMA1_RLC2_CSA_ADDR_HI[0], sizeof(mmSDMA1_RLC2_CSA_ADDR_HI)/sizeof(mmSDMA1_RLC2_CSA_ADDR_HI[0]), 0, 0 },
	{ "mmSDMA1_RLC2_IB_SUB_REMAIN", REG_MMIO, 0x020f, 0, &mmSDMA1_RLC2_IB_SUB_REMAIN[0], sizeof(mmSDMA1_RLC2_IB_SUB_REMAIN)/sizeof(mmSDMA1_RLC2_IB_SUB_REMAIN[0]), 0, 0 },
	{ "mmSDMA1_RLC2_PREEMPT", REG_MMIO, 0x0210, 0, &mmSDMA1_RLC2_PREEMPT[0], sizeof(mmSDMA1_RLC2_PREEMPT)/sizeof(mmSDMA1_RLC2_PREEMPT[0]), 0, 0 },
	{ "mmSDMA1_RLC2_DUMMY_REG", REG_MMIO, 0x0211, 0, &mmSDMA1_RLC2_DUMMY_REG[0], sizeof(mmSDMA1_RLC2_DUMMY_REG)/sizeof(mmSDMA1_RLC2_DUMMY_REG[0]), 0, 0 },
	{ "mmSDMA1_RLC2_RB_WPTR_POLL_ADDR_HI", REG_MMIO, 0x0212, 0, &mmSDMA1_RLC2_RB_WPTR_POLL_ADDR_HI[0], sizeof(mmSDMA1_RLC2_RB_WPTR_POLL_ADDR_HI)/sizeof(mmSDMA1_RLC2_RB_WPTR_POLL_ADDR_HI[0]), 0, 0 },
	{ "mmSDMA1_RLC2_RB_WPTR_POLL_ADDR_LO", REG_MMIO, 0x0213, 0, &mmSDMA1_RLC2_RB_WPTR_POLL_ADDR_LO[0], sizeof(mmSDMA1_RLC2_RB_WPTR_POLL_ADDR_LO)/sizeof(mmSDMA1_RLC2_RB_WPTR_POLL_ADDR_LO[0]), 0, 0 },
	{ "mmSDMA1_RLC2_RB_AQL_CNTL", REG_MMIO, 0x0214, 0, &mmSDMA1_RLC2_RB_AQL_CNTL[0], sizeof(mmSDMA1_RLC2_RB_AQL_CNTL)/sizeof(mmSDMA1_RLC2_RB_AQL_CNTL[0]), 0, 0 },
	{ "mmSDMA1_RLC2_MINOR_PTR_UPDATE", REG_MMIO, 0x0215, 0, &mmSDMA1_RLC2_MINOR_PTR_UPDATE[0], sizeof(mmSDMA1_RLC2_MINOR_PTR_UPDATE)/sizeof(mmSDMA1_RLC2_MINOR_PTR_UPDATE[0]), 0, 0 },
	{ "mmSDMA1_RLC2_MIDCMD_DATA0", REG_MMIO, 0x0220, 0, &mmSDMA1_RLC2_MIDCMD_DATA0[0], sizeof(mmSDMA1_RLC2_MIDCMD_DATA0)/sizeof(mmSDMA1_RLC2_MIDCMD_DATA0[0]), 0, 0 },
	{ "mmSDMA1_RLC2_MIDCMD_DATA1", REG_MMIO, 0x0221, 0, &mmSDMA1_RLC2_MIDCMD_DATA1[0], sizeof(mmSDMA1_RLC2_MIDCMD_DATA1)/sizeof(mmSDMA1_RLC2_MIDCMD_DATA1[0]), 0, 0 },
	{ "mmSDMA1_RLC2_MIDCMD_DATA2", REG_MMIO, 0x0222, 0, &mmSDMA1_RLC2_MIDCMD_DATA2[0], sizeof(mmSDMA1_RLC2_MIDCMD_DATA2)/sizeof(mmSDMA1_RLC2_MIDCMD_DATA2[0]), 0, 0 },
	{ "mmSDMA1_RLC2_MIDCMD_DATA3", REG_MMIO, 0x0223, 0, &mmSDMA1_RLC2_MIDCMD_DATA3[0], sizeof(mmSDMA1_RLC2_MIDCMD_DATA3)/sizeof(mmSDMA1_RLC2_MIDCMD_DATA3[0]), 0, 0 },
	{ "mmSDMA1_RLC2_MIDCMD_DATA4", REG_MMIO, 0x0224, 0, &mmSDMA1_RLC2_MIDCMD_DATA4[0], sizeof(mmSDMA1_RLC2_MIDCMD_DATA4)/sizeof(mmSDMA1_RLC2_MIDCMD_DATA4[0]), 0, 0 },
	{ "mmSDMA1_RLC2_MIDCMD_DATA5", REG_MMIO, 0x0225, 0, &mmSDMA1_RLC2_MIDCMD_DATA5[0], sizeof(mmSDMA1_RLC2_MIDCMD_DATA5)/sizeof(mmSDMA1_RLC2_MIDCMD_DATA5[0]), 0, 0 },
	{ "mmSDMA1_RLC2_MIDCMD_DATA6", REG_MMIO, 0x0226, 0, &mmSDMA1_RLC2_MIDCMD_DATA6[0], sizeof(mmSDMA1_RLC2_MIDCMD_DATA6)/sizeof(mmSDMA1_RLC2_MIDCMD_DATA6[0]), 0, 0 },
	{ "mmSDMA1_RLC2_MIDCMD_DATA7", REG_MMIO, 0x0227, 0, &mmSDMA1_RLC2_MIDCMD_DATA7[0], sizeof(mmSDMA1_RLC2_MIDCMD_DATA7)/sizeof(mmSDMA1_RLC2_MIDCMD_DATA7[0]), 0, 0 },
	{ "mmSDMA1_RLC2_MIDCMD_DATA8", REG_MMIO, 0x0228, 0, &mmSDMA1_RLC2_MIDCMD_DATA8[0], sizeof(mmSDMA1_RLC2_MIDCMD_DATA8)/sizeof(mmSDMA1_RLC2_MIDCMD_DATA8[0]), 0, 0 },
	{ "mmSDMA1_RLC2_MIDCMD_CNTL", REG_MMIO, 0x0229, 0, &mmSDMA1_RLC2_MIDCMD_CNTL[0], sizeof(mmSDMA1_RLC2_MIDCMD_CNTL)/sizeof(mmSDMA1_RLC2_MIDCMD_CNTL[0]), 0, 0 },
	{ "mmSDMA1_RLC3_RB_CNTL", REG_MMIO, 0x0238, 0, &mmSDMA1_RLC3_RB_CNTL[0], sizeof(mmSDMA1_RLC3_RB_CNTL)/sizeof(mmSDMA1_RLC3_RB_CNTL[0]), 0, 0 },
	{ "mmSDMA1_RLC3_RB_BASE", REG_MMIO, 0x0239, 0, &mmSDMA1_RLC3_RB_BASE[0], sizeof(mmSDMA1_RLC3_RB_BASE)/sizeof(mmSDMA1_RLC3_RB_BASE[0]), 0, 0 },
	{ "mmSDMA1_RLC3_RB_BASE_HI", REG_MMIO, 0x023a, 0, &mmSDMA1_RLC3_RB_BASE_HI[0], sizeof(mmSDMA1_RLC3_RB_BASE_HI)/sizeof(mmSDMA1_RLC3_RB_BASE_HI[0]), 0, 0 },
	{ "mmSDMA1_RLC3_RB_RPTR", REG_MMIO, 0x023b, 0, &mmSDMA1_RLC3_RB_RPTR[0], sizeof(mmSDMA1_RLC3_RB_RPTR)/sizeof(mmSDMA1_RLC3_RB_RPTR[0]), 0, 0 },
	{ "mmSDMA1_RLC3_RB_RPTR_HI", REG_MMIO, 0x023c, 0, &mmSDMA1_RLC3_RB_RPTR_HI[0], sizeof(mmSDMA1_RLC3_RB_RPTR_HI)/sizeof(mmSDMA1_RLC3_RB_RPTR_HI[0]), 0, 0 },
	{ "mmSDMA1_RLC3_RB_WPTR", REG_MMIO, 0x023d, 0, &mmSDMA1_RLC3_RB_WPTR[0], sizeof(mmSDMA1_RLC3_RB_WPTR)/sizeof(mmSDMA1_RLC3_RB_WPTR[0]), 0, 0 },
	{ "mmSDMA1_RLC3_RB_WPTR_HI", REG_MMIO, 0x023e, 0, &mmSDMA1_RLC3_RB_WPTR_HI[0], sizeof(mmSDMA1_RLC3_RB_WPTR_HI)/sizeof(mmSDMA1_RLC3_RB_WPTR_HI[0]), 0, 0 },
	{ "mmSDMA1_RLC3_RB_WPTR_POLL_CNTL", REG_MMIO, 0x023f, 0, &mmSDMA1_RLC3_RB_WPTR_POLL_CNTL[0], sizeof(mmSDMA1_RLC3_RB_WPTR_POLL_CNTL)/sizeof(mmSDMA1_RLC3_RB_WPTR_POLL_CNTL[0]), 0, 0 },
	{ "mmSDMA1_RLC3_RB_RPTR_ADDR_HI", REG_MMIO, 0x0240, 0, &mmSDMA1_RLC3_RB_RPTR_ADDR_HI[0], sizeof(mmSDMA1_RLC3_RB_RPTR_ADDR_HI)/sizeof(mmSDMA1_RLC3_RB_RPTR_ADDR_HI[0]), 0, 0 },
	{ "mmSDMA1_RLC3_RB_RPTR_ADDR_LO", REG_MMIO, 0x0241, 0, &mmSDMA1_RLC3_RB_RPTR_ADDR_LO[0], sizeof(mmSDMA1_RLC3_RB_RPTR_ADDR_LO)/sizeof(mmSDMA1_RLC3_RB_RPTR_ADDR_LO[0]), 0, 0 },
	{ "mmSDMA1_RLC3_IB_CNTL", REG_MMIO, 0x0242, 0, &mmSDMA1_RLC3_IB_CNTL[0], sizeof(mmSDMA1_RLC3_IB_CNTL)/sizeof(mmSDMA1_RLC3_IB_CNTL[0]), 0, 0 },
	{ "mmSDMA1_RLC3_IB_RPTR", REG_MMIO, 0x0243, 0, &mmSDMA1_RLC3_IB_RPTR[0], sizeof(mmSDMA1_RLC3_IB_RPTR)/sizeof(mmSDMA1_RLC3_IB_RPTR[0]), 0, 0 },
	{ "mmSDMA1_RLC3_IB_OFFSET", REG_MMIO, 0x0244, 0, &mmSDMA1_RLC3_IB_OFFSET[0], sizeof(mmSDMA1_RLC3_IB_OFFSET)/sizeof(mmSDMA1_RLC3_IB_OFFSET[0]), 0, 0 },
	{ "mmSDMA1_RLC3_IB_BASE_LO", REG_MMIO, 0x0245, 0, &mmSDMA1_RLC3_IB_BASE_LO[0], sizeof(mmSDMA1_RLC3_IB_BASE_LO)/sizeof(mmSDMA1_RLC3_IB_BASE_LO[0]), 0, 0 },
	{ "mmSDMA1_RLC3_IB_BASE_HI", REG_MMIO, 0x0246, 0, &mmSDMA1_RLC3_IB_BASE_HI[0], sizeof(mmSDMA1_RLC3_IB_BASE_HI)/sizeof(mmSDMA1_RLC3_IB_BASE_HI[0]), 0, 0 },
	{ "mmSDMA1_RLC3_IB_SIZE", REG_MMIO, 0x0247, 0, &mmSDMA1_RLC3_IB_SIZE[0], sizeof(mmSDMA1_RLC3_IB_SIZE)/sizeof(mmSDMA1_RLC3_IB_SIZE[0]), 0, 0 },
	{ "mmSDMA1_RLC3_SKIP_CNTL", REG_MMIO, 0x0248, 0, &mmSDMA1_RLC3_SKIP_CNTL[0], sizeof(mmSDMA1_RLC3_SKIP_CNTL)/sizeof(mmSDMA1_RLC3_SKIP_CNTL[0]), 0, 0 },
	{ "mmSDMA1_RLC3_CONTEXT_STATUS", REG_MMIO, 0x0249, 0, &mmSDMA1_RLC3_CONTEXT_STATUS[0], sizeof(mmSDMA1_RLC3_CONTEXT_STATUS)/sizeof(mmSDMA1_RLC3_CONTEXT_STATUS[0]), 0, 0 },
	{ "mmSDMA1_RLC3_DOORBELL", REG_MMIO, 0x024a, 0, &mmSDMA1_RLC3_DOORBELL[0], sizeof(mmSDMA1_RLC3_DOORBELL)/sizeof(mmSDMA1_RLC3_DOORBELL[0]), 0, 0 },
	{ "mmSDMA1_RLC3_STATUS", REG_MMIO, 0x0260, 0, &mmSDMA1_RLC3_STATUS[0], sizeof(mmSDMA1_RLC3_STATUS)/sizeof(mmSDMA1_RLC3_STATUS[0]), 0, 0 },
	{ "mmSDMA1_RLC3_DOORBELL_LOG", REG_MMIO, 0x0261, 0, &mmSDMA1_RLC3_DOORBELL_LOG[0], sizeof(mmSDMA1_RLC3_DOORBELL_LOG)/sizeof(mmSDMA1_RLC3_DOORBELL_LOG[0]), 0, 0 },
	{ "mmSDMA1_RLC3_WATERMARK", REG_MMIO, 0x0262, 0, &mmSDMA1_RLC3_WATERMARK[0], sizeof(mmSDMA1_RLC3_WATERMARK)/sizeof(mmSDMA1_RLC3_WATERMARK[0]), 0, 0 },
	{ "mmSDMA1_RLC3_DOORBELL_OFFSET", REG_MMIO, 0x0263, 0, &mmSDMA1_RLC3_DOORBELL_OFFSET[0], sizeof(mmSDMA1_RLC3_DOORBELL_OFFSET)/sizeof(mmSDMA1_RLC3_DOORBELL_OFFSET[0]), 0, 0 },
	{ "mmSDMA1_RLC3_CSA_ADDR_LO", REG_MMIO, 0x0264, 0, &mmSDMA1_RLC3_CSA_ADDR_LO[0], sizeof(mmSDMA1_RLC3_CSA_ADDR_LO)/sizeof(mmSDMA1_RLC3_CSA_ADDR_LO[0]), 0, 0 },
	{ "mmSDMA1_RLC3_CSA_ADDR_HI", REG_MMIO, 0x0265, 0, &mmSDMA1_RLC3_CSA_ADDR_HI[0], sizeof(mmSDMA1_RLC3_CSA_ADDR_HI)/sizeof(mmSDMA1_RLC3_CSA_ADDR_HI[0]), 0, 0 },
	{ "mmSDMA1_RLC3_IB_SUB_REMAIN", REG_MMIO, 0x0267, 0, &mmSDMA1_RLC3_IB_SUB_REMAIN[0], sizeof(mmSDMA1_RLC3_IB_SUB_REMAIN)/sizeof(mmSDMA1_RLC3_IB_SUB_REMAIN[0]), 0, 0 },
	{ "mmSDMA1_RLC3_PREEMPT", REG_MMIO, 0x0268, 0, &mmSDMA1_RLC3_PREEMPT[0], sizeof(mmSDMA1_RLC3_PREEMPT)/sizeof(mmSDMA1_RLC3_PREEMPT[0]), 0, 0 },
	{ "mmSDMA1_RLC3_DUMMY_REG", REG_MMIO, 0x0269, 0, &mmSDMA1_RLC3_DUMMY_REG[0], sizeof(mmSDMA1_RLC3_DUMMY_REG)/sizeof(mmSDMA1_RLC3_DUMMY_REG[0]), 0, 0 },
	{ "mmSDMA1_RLC3_RB_WPTR_POLL_ADDR_HI", REG_MMIO, 0x026a, 0, &mmSDMA1_RLC3_RB_WPTR_POLL_ADDR_HI[0], sizeof(mmSDMA1_RLC3_RB_WPTR_POLL_ADDR_HI)/sizeof(mmSDMA1_RLC3_RB_WPTR_POLL_ADDR_HI[0]), 0, 0 },
	{ "mmSDMA1_RLC3_RB_WPTR_POLL_ADDR_LO", REG_MMIO, 0x026b, 0, &mmSDMA1_RLC3_RB_WPTR_POLL_ADDR_LO[0], sizeof(mmSDMA1_RLC3_RB_WPTR_POLL_ADDR_LO)/sizeof(mmSDMA1_RLC3_RB_WPTR_POLL_ADDR_LO[0]), 0, 0 },
	{ "mmSDMA1_RLC3_RB_AQL_CNTL", REG_MMIO, 0x026c, 0, &mmSDMA1_RLC3_RB_AQL_CNTL[0], sizeof(mmSDMA1_RLC3_RB_AQL_CNTL)/sizeof(mmSDMA1_RLC3_RB_AQL_CNTL[0]), 0, 0 },
	{ "mmSDMA1_RLC3_MINOR_PTR_UPDATE", REG_MMIO, 0x026d, 0, &mmSDMA1_RLC3_MINOR_PTR_UPDATE[0], sizeof(mmSDMA1_RLC3_MINOR_PTR_UPDATE)/sizeof(mmSDMA1_RLC3_MINOR_PTR_UPDATE[0]), 0, 0 },
	{ "mmSDMA1_RLC3_MIDCMD_DATA0", REG_MMIO, 0x0278, 0, &mmSDMA1_RLC3_MIDCMD_DATA0[0], sizeof(mmSDMA1_RLC3_MIDCMD_DATA0)/sizeof(mmSDMA1_RLC3_MIDCMD_DATA0[0]), 0, 0 },
	{ "mmSDMA1_RLC3_MIDCMD_DATA1", REG_MMIO, 0x0279, 0, &mmSDMA1_RLC3_MIDCMD_DATA1[0], sizeof(mmSDMA1_RLC3_MIDCMD_DATA1)/sizeof(mmSDMA1_RLC3_MIDCMD_DATA1[0]), 0, 0 },
	{ "mmSDMA1_RLC3_MIDCMD_DATA2", REG_MMIO, 0x027a, 0, &mmSDMA1_RLC3_MIDCMD_DATA2[0], sizeof(mmSDMA1_RLC3_MIDCMD_DATA2)/sizeof(mmSDMA1_RLC3_MIDCMD_DATA2[0]), 0, 0 },
	{ "mmSDMA1_RLC3_MIDCMD_DATA3", REG_MMIO, 0x027b, 0, &mmSDMA1_RLC3_MIDCMD_DATA3[0], sizeof(mmSDMA1_RLC3_MIDCMD_DATA3)/sizeof(mmSDMA1_RLC3_MIDCMD_DATA3[0]), 0, 0 },
	{ "mmSDMA1_RLC3_MIDCMD_DATA4", REG_MMIO, 0x027c, 0, &mmSDMA1_RLC3_MIDCMD_DATA4[0], sizeof(mmSDMA1_RLC3_MIDCMD_DATA4)/sizeof(mmSDMA1_RLC3_MIDCMD_DATA4[0]), 0, 0 },
	{ "mmSDMA1_RLC3_MIDCMD_DATA5", REG_MMIO, 0x027d, 0, &mmSDMA1_RLC3_MIDCMD_DATA5[0], sizeof(mmSDMA1_RLC3_MIDCMD_DATA5)/sizeof(mmSDMA1_RLC3_MIDCMD_DATA5[0]), 0, 0 },
	{ "mmSDMA1_RLC3_MIDCMD_DATA6", REG_MMIO, 0x027e, 0, &mmSDMA1_RLC3_MIDCMD_DATA6[0], sizeof(mmSDMA1_RLC3_MIDCMD_DATA6)/sizeof(mmSDMA1_RLC3_MIDCMD_DATA6[0]), 0, 0 },
	{ "mmSDMA1_RLC3_MIDCMD_DATA7", REG_MMIO, 0x027f, 0, &mmSDMA1_RLC3_MIDCMD_DATA7[0], sizeof(mmSDMA1_RLC3_MIDCMD_DATA7)/sizeof(mmSDMA1_RLC3_MIDCMD_DATA7[0]), 0, 0 },
	{ "mmSDMA1_RLC3_MIDCMD_DATA8", REG_MMIO, 0x0280, 0, &mmSDMA1_RLC3_MIDCMD_DATA8[0], sizeof(mmSDMA1_RLC3_MIDCMD_DATA8)/sizeof(mmSDMA1_RLC3_MIDCMD_DATA8[0]), 0, 0 },
	{ "mmSDMA1_RLC3_MIDCMD_CNTL", REG_MMIO, 0x0281, 0, &mmSDMA1_RLC3_MIDCMD_CNTL[0], sizeof(mmSDMA1_RLC3_MIDCMD_CNTL)/sizeof(mmSDMA1_RLC3_MIDCMD_CNTL[0]), 0, 0 },
	{ "mmSDMA1_RLC4_RB_CNTL", REG_MMIO, 0x0290, 0, &mmSDMA1_RLC4_RB_CNTL[0], sizeof(mmSDMA1_RLC4_RB_CNTL)/sizeof(mmSDMA1_RLC4_RB_CNTL[0]), 0, 0 },
	{ "mmSDMA1_RLC4_RB_BASE", REG_MMIO, 0x0291, 0, &mmSDMA1_RLC4_RB_BASE[0], sizeof(mmSDMA1_RLC4_RB_BASE)/sizeof(mmSDMA1_RLC4_RB_BASE[0]), 0, 0 },
	{ "mmSDMA1_RLC4_RB_BASE_HI", REG_MMIO, 0x0292, 0, &mmSDMA1_RLC4_RB_BASE_HI[0], sizeof(mmSDMA1_RLC4_RB_BASE_HI)/sizeof(mmSDMA1_RLC4_RB_BASE_HI[0]), 0, 0 },
	{ "mmSDMA1_RLC4_RB_RPTR", REG_MMIO, 0x0293, 0, &mmSDMA1_RLC4_RB_RPTR[0], sizeof(mmSDMA1_RLC4_RB_RPTR)/sizeof(mmSDMA1_RLC4_RB_RPTR[0]), 0, 0 },
	{ "mmSDMA1_RLC4_RB_RPTR_HI", REG_MMIO, 0x0294, 0, &mmSDMA1_RLC4_RB_RPTR_HI[0], sizeof(mmSDMA1_RLC4_RB_RPTR_HI)/sizeof(mmSDMA1_RLC4_RB_RPTR_HI[0]), 0, 0 },
	{ "mmSDMA1_RLC4_RB_WPTR", REG_MMIO, 0x0295, 0, &mmSDMA1_RLC4_RB_WPTR[0], sizeof(mmSDMA1_RLC4_RB_WPTR)/sizeof(mmSDMA1_RLC4_RB_WPTR[0]), 0, 0 },
	{ "mmSDMA1_RLC4_RB_WPTR_HI", REG_MMIO, 0x0296, 0, &mmSDMA1_RLC4_RB_WPTR_HI[0], sizeof(mmSDMA1_RLC4_RB_WPTR_HI)/sizeof(mmSDMA1_RLC4_RB_WPTR_HI[0]), 0, 0 },
	{ "mmSDMA1_RLC4_RB_WPTR_POLL_CNTL", REG_MMIO, 0x0297, 0, &mmSDMA1_RLC4_RB_WPTR_POLL_CNTL[0], sizeof(mmSDMA1_RLC4_RB_WPTR_POLL_CNTL)/sizeof(mmSDMA1_RLC4_RB_WPTR_POLL_CNTL[0]), 0, 0 },
	{ "mmSDMA1_RLC4_RB_RPTR_ADDR_HI", REG_MMIO, 0x0298, 0, &mmSDMA1_RLC4_RB_RPTR_ADDR_HI[0], sizeof(mmSDMA1_RLC4_RB_RPTR_ADDR_HI)/sizeof(mmSDMA1_RLC4_RB_RPTR_ADDR_HI[0]), 0, 0 },
	{ "mmSDMA1_RLC4_RB_RPTR_ADDR_LO", REG_MMIO, 0x0299, 0, &mmSDMA1_RLC4_RB_RPTR_ADDR_LO[0], sizeof(mmSDMA1_RLC4_RB_RPTR_ADDR_LO)/sizeof(mmSDMA1_RLC4_RB_RPTR_ADDR_LO[0]), 0, 0 },
	{ "mmSDMA1_RLC4_IB_CNTL", REG_MMIO, 0x029a, 0, &mmSDMA1_RLC4_IB_CNTL[0], sizeof(mmSDMA1_RLC4_IB_CNTL)/sizeof(mmSDMA1_RLC4_IB_CNTL[0]), 0, 0 },
	{ "mmSDMA1_RLC4_IB_RPTR", REG_MMIO, 0x029b, 0, &mmSDMA1_RLC4_IB_RPTR[0], sizeof(mmSDMA1_RLC4_IB_RPTR)/sizeof(mmSDMA1_RLC4_IB_RPTR[0]), 0, 0 },
	{ "mmSDMA1_RLC4_IB_OFFSET", REG_MMIO, 0x029c, 0, &mmSDMA1_RLC4_IB_OFFSET[0], sizeof(mmSDMA1_RLC4_IB_OFFSET)/sizeof(mmSDMA1_RLC4_IB_OFFSET[0]), 0, 0 },
	{ "mmSDMA1_RLC4_IB_BASE_LO", REG_MMIO, 0x029d, 0, &mmSDMA1_RLC4_IB_BASE_LO[0], sizeof(mmSDMA1_RLC4_IB_BASE_LO)/sizeof(mmSDMA1_RLC4_IB_BASE_LO[0]), 0, 0 },
	{ "mmSDMA1_RLC4_IB_BASE_HI", REG_MMIO, 0x029e, 0, &mmSDMA1_RLC4_IB_BASE_HI[0], sizeof(mmSDMA1_RLC4_IB_BASE_HI)/sizeof(mmSDMA1_RLC4_IB_BASE_HI[0]), 0, 0 },
	{ "mmSDMA1_RLC4_IB_SIZE", REG_MMIO, 0x029f, 0, &mmSDMA1_RLC4_IB_SIZE[0], sizeof(mmSDMA1_RLC4_IB_SIZE)/sizeof(mmSDMA1_RLC4_IB_SIZE[0]), 0, 0 },
	{ "mmSDMA1_RLC4_SKIP_CNTL", REG_MMIO, 0x02a0, 0, &mmSDMA1_RLC4_SKIP_CNTL[0], sizeof(mmSDMA1_RLC4_SKIP_CNTL)/sizeof(mmSDMA1_RLC4_SKIP_CNTL[0]), 0, 0 },
	{ "mmSDMA1_RLC4_CONTEXT_STATUS", REG_MMIO, 0x02a1, 0, &mmSDMA1_RLC4_CONTEXT_STATUS[0], sizeof(mmSDMA1_RLC4_CONTEXT_STATUS)/sizeof(mmSDMA1_RLC4_CONTEXT_STATUS[0]), 0, 0 },
	{ "mmSDMA1_RLC4_DOORBELL", REG_MMIO, 0x02a2, 0, &mmSDMA1_RLC4_DOORBELL[0], sizeof(mmSDMA1_RLC4_DOORBELL)/sizeof(mmSDMA1_RLC4_DOORBELL[0]), 0, 0 },
	{ "mmSDMA1_RLC4_STATUS", REG_MMIO, 0x02b8, 0, &mmSDMA1_RLC4_STATUS[0], sizeof(mmSDMA1_RLC4_STATUS)/sizeof(mmSDMA1_RLC4_STATUS[0]), 0, 0 },
	{ "mmSDMA1_RLC4_DOORBELL_LOG", REG_MMIO, 0x02b9, 0, &mmSDMA1_RLC4_DOORBELL_LOG[0], sizeof(mmSDMA1_RLC4_DOORBELL_LOG)/sizeof(mmSDMA1_RLC4_DOORBELL_LOG[0]), 0, 0 },
	{ "mmSDMA1_RLC4_WATERMARK", REG_MMIO, 0x02ba, 0, &mmSDMA1_RLC4_WATERMARK[0], sizeof(mmSDMA1_RLC4_WATERMARK)/sizeof(mmSDMA1_RLC4_WATERMARK[0]), 0, 0 },
	{ "mmSDMA1_RLC4_DOORBELL_OFFSET", REG_MMIO, 0x02bb, 0, &mmSDMA1_RLC4_DOORBELL_OFFSET[0], sizeof(mmSDMA1_RLC4_DOORBELL_OFFSET)/sizeof(mmSDMA1_RLC4_DOORBELL_OFFSET[0]), 0, 0 },
	{ "mmSDMA1_RLC4_CSA_ADDR_LO", REG_MMIO, 0x02bc, 0, &mmSDMA1_RLC4_CSA_ADDR_LO[0], sizeof(mmSDMA1_RLC4_CSA_ADDR_LO)/sizeof(mmSDMA1_RLC4_CSA_ADDR_LO[0]), 0, 0 },
	{ "mmSDMA1_RLC4_CSA_ADDR_HI", REG_MMIO, 0x02bd, 0, &mmSDMA1_RLC4_CSA_ADDR_HI[0], sizeof(mmSDMA1_RLC4_CSA_ADDR_HI)/sizeof(mmSDMA1_RLC4_CSA_ADDR_HI[0]), 0, 0 },
	{ "mmSDMA1_RLC4_IB_SUB_REMAIN", REG_MMIO, 0x02bf, 0, &mmSDMA1_RLC4_IB_SUB_REMAIN[0], sizeof(mmSDMA1_RLC4_IB_SUB_REMAIN)/sizeof(mmSDMA1_RLC4_IB_SUB_REMAIN[0]), 0, 0 },
	{ "mmSDMA1_RLC4_PREEMPT", REG_MMIO, 0x02c0, 0, &mmSDMA1_RLC4_PREEMPT[0], sizeof(mmSDMA1_RLC4_PREEMPT)/sizeof(mmSDMA1_RLC4_PREEMPT[0]), 0, 0 },
	{ "mmSDMA1_RLC4_DUMMY_REG", REG_MMIO, 0x02c1, 0, &mmSDMA1_RLC4_DUMMY_REG[0], sizeof(mmSDMA1_RLC4_DUMMY_REG)/sizeof(mmSDMA1_RLC4_DUMMY_REG[0]), 0, 0 },
	{ "mmSDMA1_RLC4_RB_WPTR_POLL_ADDR_HI", REG_MMIO, 0x02c2, 0, &mmSDMA1_RLC4_RB_WPTR_POLL_ADDR_HI[0], sizeof(mmSDMA1_RLC4_RB_WPTR_POLL_ADDR_HI)/sizeof(mmSDMA1_RLC4_RB_WPTR_POLL_ADDR_HI[0]), 0, 0 },
	{ "mmSDMA1_RLC4_RB_WPTR_POLL_ADDR_LO", REG_MMIO, 0x02c3, 0, &mmSDMA1_RLC4_RB_WPTR_POLL_ADDR_LO[0], sizeof(mmSDMA1_RLC4_RB_WPTR_POLL_ADDR_LO)/sizeof(mmSDMA1_RLC4_RB_WPTR_POLL_ADDR_LO[0]), 0, 0 },
	{ "mmSDMA1_RLC4_RB_AQL_CNTL", REG_MMIO, 0x02c4, 0, &mmSDMA1_RLC4_RB_AQL_CNTL[0], sizeof(mmSDMA1_RLC4_RB_AQL_CNTL)/sizeof(mmSDMA1_RLC4_RB_AQL_CNTL[0]), 0, 0 },
	{ "mmSDMA1_RLC4_MINOR_PTR_UPDATE", REG_MMIO, 0x02c5, 0, &mmSDMA1_RLC4_MINOR_PTR_UPDATE[0], sizeof(mmSDMA1_RLC4_MINOR_PTR_UPDATE)/sizeof(mmSDMA1_RLC4_MINOR_PTR_UPDATE[0]), 0, 0 },
	{ "mmSDMA1_RLC4_MIDCMD_DATA0", REG_MMIO, 0x02d0, 0, &mmSDMA1_RLC4_MIDCMD_DATA0[0], sizeof(mmSDMA1_RLC4_MIDCMD_DATA0)/sizeof(mmSDMA1_RLC4_MIDCMD_DATA0[0]), 0, 0 },
	{ "mmSDMA1_RLC4_MIDCMD_DATA1", REG_MMIO, 0x02d1, 0, &mmSDMA1_RLC4_MIDCMD_DATA1[0], sizeof(mmSDMA1_RLC4_MIDCMD_DATA1)/sizeof(mmSDMA1_RLC4_MIDCMD_DATA1[0]), 0, 0 },
	{ "mmSDMA1_RLC4_MIDCMD_DATA2", REG_MMIO, 0x02d2, 0, &mmSDMA1_RLC4_MIDCMD_DATA2[0], sizeof(mmSDMA1_RLC4_MIDCMD_DATA2)/sizeof(mmSDMA1_RLC4_MIDCMD_DATA2[0]), 0, 0 },
	{ "mmSDMA1_RLC4_MIDCMD_DATA3", REG_MMIO, 0x02d3, 0, &mmSDMA1_RLC4_MIDCMD_DATA3[0], sizeof(mmSDMA1_RLC4_MIDCMD_DATA3)/sizeof(mmSDMA1_RLC4_MIDCMD_DATA3[0]), 0, 0 },
	{ "mmSDMA1_RLC4_MIDCMD_DATA4", REG_MMIO, 0x02d4, 0, &mmSDMA1_RLC4_MIDCMD_DATA4[0], sizeof(mmSDMA1_RLC4_MIDCMD_DATA4)/sizeof(mmSDMA1_RLC4_MIDCMD_DATA4[0]), 0, 0 },
	{ "mmSDMA1_RLC4_MIDCMD_DATA5", REG_MMIO, 0x02d5, 0, &mmSDMA1_RLC4_MIDCMD_DATA5[0], sizeof(mmSDMA1_RLC4_MIDCMD_DATA5)/sizeof(mmSDMA1_RLC4_MIDCMD_DATA5[0]), 0, 0 },
	{ "mmSDMA1_RLC4_MIDCMD_DATA6", REG_MMIO, 0x02d6, 0, &mmSDMA1_RLC4_MIDCMD_DATA6[0], sizeof(mmSDMA1_RLC4_MIDCMD_DATA6)/sizeof(mmSDMA1_RLC4_MIDCMD_DATA6[0]), 0, 0 },
	{ "mmSDMA1_RLC4_MIDCMD_DATA7", REG_MMIO, 0x02d7, 0, &mmSDMA1_RLC4_MIDCMD_DATA7[0], sizeof(mmSDMA1_RLC4_MIDCMD_DATA7)/sizeof(mmSDMA1_RLC4_MIDCMD_DATA7[0]), 0, 0 },
	{ "mmSDMA1_RLC4_MIDCMD_DATA8", REG_MMIO, 0x02d8, 0, &mmSDMA1_RLC4_MIDCMD_DATA8[0], sizeof(mmSDMA1_RLC4_MIDCMD_DATA8)/sizeof(mmSDMA1_RLC4_MIDCMD_DATA8[0]), 0, 0 },
	{ "mmSDMA1_RLC4_MIDCMD_CNTL", REG_MMIO, 0x02d9, 0, &mmSDMA1_RLC4_MIDCMD_CNTL[0], sizeof(mmSDMA1_RLC4_MIDCMD_CNTL)/sizeof(mmSDMA1_RLC4_MIDCMD_CNTL[0]), 0, 0 },
	{ "mmSDMA1_RLC5_RB_CNTL", REG_MMIO, 0x02e8, 0, &mmSDMA1_RLC5_RB_CNTL[0], sizeof(mmSDMA1_RLC5_RB_CNTL)/sizeof(mmSDMA1_RLC5_RB_CNTL[0]), 0, 0 },
	{ "mmSDMA1_RLC5_RB_BASE", REG_MMIO, 0x02e9, 0, &mmSDMA1_RLC5_RB_BASE[0], sizeof(mmSDMA1_RLC5_RB_BASE)/sizeof(mmSDMA1_RLC5_RB_BASE[0]), 0, 0 },
	{ "mmSDMA1_RLC5_RB_BASE_HI", REG_MMIO, 0x02ea, 0, &mmSDMA1_RLC5_RB_BASE_HI[0], sizeof(mmSDMA1_RLC5_RB_BASE_HI)/sizeof(mmSDMA1_RLC5_RB_BASE_HI[0]), 0, 0 },
	{ "mmSDMA1_RLC5_RB_RPTR", REG_MMIO, 0x02eb, 0, &mmSDMA1_RLC5_RB_RPTR[0], sizeof(mmSDMA1_RLC5_RB_RPTR)/sizeof(mmSDMA1_RLC5_RB_RPTR[0]), 0, 0 },
	{ "mmSDMA1_RLC5_RB_RPTR_HI", REG_MMIO, 0x02ec, 0, &mmSDMA1_RLC5_RB_RPTR_HI[0], sizeof(mmSDMA1_RLC5_RB_RPTR_HI)/sizeof(mmSDMA1_RLC5_RB_RPTR_HI[0]), 0, 0 },
	{ "mmSDMA1_RLC5_RB_WPTR", REG_MMIO, 0x02ed, 0, &mmSDMA1_RLC5_RB_WPTR[0], sizeof(mmSDMA1_RLC5_RB_WPTR)/sizeof(mmSDMA1_RLC5_RB_WPTR[0]), 0, 0 },
	{ "mmSDMA1_RLC5_RB_WPTR_HI", REG_MMIO, 0x02ee, 0, &mmSDMA1_RLC5_RB_WPTR_HI[0], sizeof(mmSDMA1_RLC5_RB_WPTR_HI)/sizeof(mmSDMA1_RLC5_RB_WPTR_HI[0]), 0, 0 },
	{ "mmSDMA1_RLC5_RB_WPTR_POLL_CNTL", REG_MMIO, 0x02ef, 0, &mmSDMA1_RLC5_RB_WPTR_POLL_CNTL[0], sizeof(mmSDMA1_RLC5_RB_WPTR_POLL_CNTL)/sizeof(mmSDMA1_RLC5_RB_WPTR_POLL_CNTL[0]), 0, 0 },
	{ "mmSDMA1_RLC5_RB_RPTR_ADDR_HI", REG_MMIO, 0x02f0, 0, &mmSDMA1_RLC5_RB_RPTR_ADDR_HI[0], sizeof(mmSDMA1_RLC5_RB_RPTR_ADDR_HI)/sizeof(mmSDMA1_RLC5_RB_RPTR_ADDR_HI[0]), 0, 0 },
	{ "mmSDMA1_RLC5_RB_RPTR_ADDR_LO", REG_MMIO, 0x02f1, 0, &mmSDMA1_RLC5_RB_RPTR_ADDR_LO[0], sizeof(mmSDMA1_RLC5_RB_RPTR_ADDR_LO)/sizeof(mmSDMA1_RLC5_RB_RPTR_ADDR_LO[0]), 0, 0 },
	{ "mmSDMA1_RLC5_IB_CNTL", REG_MMIO, 0x02f2, 0, &mmSDMA1_RLC5_IB_CNTL[0], sizeof(mmSDMA1_RLC5_IB_CNTL)/sizeof(mmSDMA1_RLC5_IB_CNTL[0]), 0, 0 },
	{ "mmSDMA1_RLC5_IB_RPTR", REG_MMIO, 0x02f3, 0, &mmSDMA1_RLC5_IB_RPTR[0], sizeof(mmSDMA1_RLC5_IB_RPTR)/sizeof(mmSDMA1_RLC5_IB_RPTR[0]), 0, 0 },
	{ "mmSDMA1_RLC5_IB_OFFSET", REG_MMIO, 0x02f4, 0, &mmSDMA1_RLC5_IB_OFFSET[0], sizeof(mmSDMA1_RLC5_IB_OFFSET)/sizeof(mmSDMA1_RLC5_IB_OFFSET[0]), 0, 0 },
	{ "mmSDMA1_RLC5_IB_BASE_LO", REG_MMIO, 0x02f5, 0, &mmSDMA1_RLC5_IB_BASE_LO[0], sizeof(mmSDMA1_RLC5_IB_BASE_LO)/sizeof(mmSDMA1_RLC5_IB_BASE_LO[0]), 0, 0 },
	{ "mmSDMA1_RLC5_IB_BASE_HI", REG_MMIO, 0x02f6, 0, &mmSDMA1_RLC5_IB_BASE_HI[0], sizeof(mmSDMA1_RLC5_IB_BASE_HI)/sizeof(mmSDMA1_RLC5_IB_BASE_HI[0]), 0, 0 },
	{ "mmSDMA1_RLC5_IB_SIZE", REG_MMIO, 0x02f7, 0, &mmSDMA1_RLC5_IB_SIZE[0], sizeof(mmSDMA1_RLC5_IB_SIZE)/sizeof(mmSDMA1_RLC5_IB_SIZE[0]), 0, 0 },
	{ "mmSDMA1_RLC5_SKIP_CNTL", REG_MMIO, 0x02f8, 0, &mmSDMA1_RLC5_SKIP_CNTL[0], sizeof(mmSDMA1_RLC5_SKIP_CNTL)/sizeof(mmSDMA1_RLC5_SKIP_CNTL[0]), 0, 0 },
	{ "mmSDMA1_RLC5_CONTEXT_STATUS", REG_MMIO, 0x02f9, 0, &mmSDMA1_RLC5_CONTEXT_STATUS[0], sizeof(mmSDMA1_RLC5_CONTEXT_STATUS)/sizeof(mmSDMA1_RLC5_CONTEXT_STATUS[0]), 0, 0 },
	{ "mmSDMA1_RLC5_DOORBELL", REG_MMIO, 0x02fa, 0, &mmSDMA1_RLC5_DOORBELL[0], sizeof(mmSDMA1_RLC5_DOORBELL)/sizeof(mmSDMA1_RLC5_DOORBELL[0]), 0, 0 },
	{ "mmSDMA1_RLC5_STATUS", REG_MMIO, 0x0310, 0, &mmSDMA1_RLC5_STATUS[0], sizeof(mmSDMA1_RLC5_STATUS)/sizeof(mmSDMA1_RLC5_STATUS[0]), 0, 0 },
	{ "mmSDMA1_RLC5_DOORBELL_LOG", REG_MMIO, 0x0311, 0, &mmSDMA1_RLC5_DOORBELL_LOG[0], sizeof(mmSDMA1_RLC5_DOORBELL_LOG)/sizeof(mmSDMA1_RLC5_DOORBELL_LOG[0]), 0, 0 },
	{ "mmSDMA1_RLC5_WATERMARK", REG_MMIO, 0x0312, 0, &mmSDMA1_RLC5_WATERMARK[0], sizeof(mmSDMA1_RLC5_WATERMARK)/sizeof(mmSDMA1_RLC5_WATERMARK[0]), 0, 0 },
	{ "mmSDMA1_RLC5_DOORBELL_OFFSET", REG_MMIO, 0x0313, 0, &mmSDMA1_RLC5_DOORBELL_OFFSET[0], sizeof(mmSDMA1_RLC5_DOORBELL_OFFSET)/sizeof(mmSDMA1_RLC5_DOORBELL_OFFSET[0]), 0, 0 },
	{ "mmSDMA1_RLC5_CSA_ADDR_LO", REG_MMIO, 0x0314, 0, &mmSDMA1_RLC5_CSA_ADDR_LO[0], sizeof(mmSDMA1_RLC5_CSA_ADDR_LO)/sizeof(mmSDMA1_RLC5_CSA_ADDR_LO[0]), 0, 0 },
	{ "mmSDMA1_RLC5_CSA_ADDR_HI", REG_MMIO, 0x0315, 0, &mmSDMA1_RLC5_CSA_ADDR_HI[0], sizeof(mmSDMA1_RLC5_CSA_ADDR_HI)/sizeof(mmSDMA1_RLC5_CSA_ADDR_HI[0]), 0, 0 },
	{ "mmSDMA1_RLC5_IB_SUB_REMAIN", REG_MMIO, 0x0317, 0, &mmSDMA1_RLC5_IB_SUB_REMAIN[0], sizeof(mmSDMA1_RLC5_IB_SUB_REMAIN)/sizeof(mmSDMA1_RLC5_IB_SUB_REMAIN[0]), 0, 0 },
	{ "mmSDMA1_RLC5_PREEMPT", REG_MMIO, 0x0318, 0, &mmSDMA1_RLC5_PREEMPT[0], sizeof(mmSDMA1_RLC5_PREEMPT)/sizeof(mmSDMA1_RLC5_PREEMPT[0]), 0, 0 },
	{ "mmSDMA1_RLC5_DUMMY_REG", REG_MMIO, 0x0319, 0, &mmSDMA1_RLC5_DUMMY_REG[0], sizeof(mmSDMA1_RLC5_DUMMY_REG)/sizeof(mmSDMA1_RLC5_DUMMY_REG[0]), 0, 0 },
	{ "mmSDMA1_RLC5_RB_WPTR_POLL_ADDR_HI", REG_MMIO, 0x031a, 0, &mmSDMA1_RLC5_RB_WPTR_POLL_ADDR_HI[0], sizeof(mmSDMA1_RLC5_RB_WPTR_POLL_ADDR_HI)/sizeof(mmSDMA1_RLC5_RB_WPTR_POLL_ADDR_HI[0]), 0, 0 },
	{ "mmSDMA1_RLC5_RB_WPTR_POLL_ADDR_LO", REG_MMIO, 0x031b, 0, &mmSDMA1_RLC5_RB_WPTR_POLL_ADDR_LO[0], sizeof(mmSDMA1_RLC5_RB_WPTR_POLL_ADDR_LO)/sizeof(mmSDMA1_RLC5_RB_WPTR_POLL_ADDR_LO[0]), 0, 0 },
	{ "mmSDMA1_RLC5_RB_AQL_CNTL", REG_MMIO, 0x031c, 0, &mmSDMA1_RLC5_RB_AQL_CNTL[0], sizeof(mmSDMA1_RLC5_RB_AQL_CNTL)/sizeof(mmSDMA1_RLC5_RB_AQL_CNTL[0]), 0, 0 },
	{ "mmSDMA1_RLC5_MINOR_PTR_UPDATE", REG_MMIO, 0x031d, 0, &mmSDMA1_RLC5_MINOR_PTR_UPDATE[0], sizeof(mmSDMA1_RLC5_MINOR_PTR_UPDATE)/sizeof(mmSDMA1_RLC5_MINOR_PTR_UPDATE[0]), 0, 0 },
	{ "mmSDMA1_RLC5_MIDCMD_DATA0", REG_MMIO, 0x0328, 0, &mmSDMA1_RLC5_MIDCMD_DATA0[0], sizeof(mmSDMA1_RLC5_MIDCMD_DATA0)/sizeof(mmSDMA1_RLC5_MIDCMD_DATA0[0]), 0, 0 },
	{ "mmSDMA1_RLC5_MIDCMD_DATA1", REG_MMIO, 0x0329, 0, &mmSDMA1_RLC5_MIDCMD_DATA1[0], sizeof(mmSDMA1_RLC5_MIDCMD_DATA1)/sizeof(mmSDMA1_RLC5_MIDCMD_DATA1[0]), 0, 0 },
	{ "mmSDMA1_RLC5_MIDCMD_DATA2", REG_MMIO, 0x032a, 0, &mmSDMA1_RLC5_MIDCMD_DATA2[0], sizeof(mmSDMA1_RLC5_MIDCMD_DATA2)/sizeof(mmSDMA1_RLC5_MIDCMD_DATA2[0]), 0, 0 },
	{ "mmSDMA1_RLC5_MIDCMD_DATA3", REG_MMIO, 0x032b, 0, &mmSDMA1_RLC5_MIDCMD_DATA3[0], sizeof(mmSDMA1_RLC5_MIDCMD_DATA3)/sizeof(mmSDMA1_RLC5_MIDCMD_DATA3[0]), 0, 0 },
	{ "mmSDMA1_RLC5_MIDCMD_DATA4", REG_MMIO, 0x032c, 0, &mmSDMA1_RLC5_MIDCMD_DATA4[0], sizeof(mmSDMA1_RLC5_MIDCMD_DATA4)/sizeof(mmSDMA1_RLC5_MIDCMD_DATA4[0]), 0, 0 },
	{ "mmSDMA1_RLC5_MIDCMD_DATA5", REG_MMIO, 0x032d, 0, &mmSDMA1_RLC5_MIDCMD_DATA5[0], sizeof(mmSDMA1_RLC5_MIDCMD_DATA5)/sizeof(mmSDMA1_RLC5_MIDCMD_DATA5[0]), 0, 0 },
	{ "mmSDMA1_RLC5_MIDCMD_DATA6", REG_MMIO, 0x032e, 0, &mmSDMA1_RLC5_MIDCMD_DATA6[0], sizeof(mmSDMA1_RLC5_MIDCMD_DATA6)/sizeof(mmSDMA1_RLC5_MIDCMD_DATA6[0]), 0, 0 },
	{ "mmSDMA1_RLC5_MIDCMD_DATA7", REG_MMIO, 0x032f, 0, &mmSDMA1_RLC5_MIDCMD_DATA7[0], sizeof(mmSDMA1_RLC5_MIDCMD_DATA7)/sizeof(mmSDMA1_RLC5_MIDCMD_DATA7[0]), 0, 0 },
	{ "mmSDMA1_RLC5_MIDCMD_DATA8", REG_MMIO, 0x0330, 0, &mmSDMA1_RLC5_MIDCMD_DATA8[0], sizeof(mmSDMA1_RLC5_MIDCMD_DATA8)/sizeof(mmSDMA1_RLC5_MIDCMD_DATA8[0]), 0, 0 },
	{ "mmSDMA1_RLC5_MIDCMD_CNTL", REG_MMIO, 0x0331, 0, &mmSDMA1_RLC5_MIDCMD_CNTL[0], sizeof(mmSDMA1_RLC5_MIDCMD_CNTL)/sizeof(mmSDMA1_RLC5_MIDCMD_CNTL[0]), 0, 0 },
	{ "mmSDMA1_RLC6_RB_CNTL", REG_MMIO, 0x0340, 0, &mmSDMA1_RLC6_RB_CNTL[0], sizeof(mmSDMA1_RLC6_RB_CNTL)/sizeof(mmSDMA1_RLC6_RB_CNTL[0]), 0, 0 },
	{ "mmSDMA1_RLC6_RB_BASE", REG_MMIO, 0x0341, 0, &mmSDMA1_RLC6_RB_BASE[0], sizeof(mmSDMA1_RLC6_RB_BASE)/sizeof(mmSDMA1_RLC6_RB_BASE[0]), 0, 0 },
	{ "mmSDMA1_RLC6_RB_BASE_HI", REG_MMIO, 0x0342, 0, &mmSDMA1_RLC6_RB_BASE_HI[0], sizeof(mmSDMA1_RLC6_RB_BASE_HI)/sizeof(mmSDMA1_RLC6_RB_BASE_HI[0]), 0, 0 },
	{ "mmSDMA1_RLC6_RB_RPTR", REG_MMIO, 0x0343, 0, &mmSDMA1_RLC6_RB_RPTR[0], sizeof(mmSDMA1_RLC6_RB_RPTR)/sizeof(mmSDMA1_RLC6_RB_RPTR[0]), 0, 0 },
	{ "mmSDMA1_RLC6_RB_RPTR_HI", REG_MMIO, 0x0344, 0, &mmSDMA1_RLC6_RB_RPTR_HI[0], sizeof(mmSDMA1_RLC6_RB_RPTR_HI)/sizeof(mmSDMA1_RLC6_RB_RPTR_HI[0]), 0, 0 },
	{ "mmSDMA1_RLC6_RB_WPTR", REG_MMIO, 0x0345, 0, &mmSDMA1_RLC6_RB_WPTR[0], sizeof(mmSDMA1_RLC6_RB_WPTR)/sizeof(mmSDMA1_RLC6_RB_WPTR[0]), 0, 0 },
	{ "mmSDMA1_RLC6_RB_WPTR_HI", REG_MMIO, 0x0346, 0, &mmSDMA1_RLC6_RB_WPTR_HI[0], sizeof(mmSDMA1_RLC6_RB_WPTR_HI)/sizeof(mmSDMA1_RLC6_RB_WPTR_HI[0]), 0, 0 },
	{ "mmSDMA1_RLC6_RB_WPTR_POLL_CNTL", REG_MMIO, 0x0347, 0, &mmSDMA1_RLC6_RB_WPTR_POLL_CNTL[0], sizeof(mmSDMA1_RLC6_RB_WPTR_POLL_CNTL)/sizeof(mmSDMA1_RLC6_RB_WPTR_POLL_CNTL[0]), 0, 0 },
	{ "mmSDMA1_RLC6_RB_RPTR_ADDR_HI", REG_MMIO, 0x0348, 0, &mmSDMA1_RLC6_RB_RPTR_ADDR_HI[0], sizeof(mmSDMA1_RLC6_RB_RPTR_ADDR_HI)/sizeof(mmSDMA1_RLC6_RB_RPTR_ADDR_HI[0]), 0, 0 },
	{ "mmSDMA1_RLC6_RB_RPTR_ADDR_LO", REG_MMIO, 0x0349, 0, &mmSDMA1_RLC6_RB_RPTR_ADDR_LO[0], sizeof(mmSDMA1_RLC6_RB_RPTR_ADDR_LO)/sizeof(mmSDMA1_RLC6_RB_RPTR_ADDR_LO[0]), 0, 0 },
	{ "mmSDMA1_RLC6_IB_CNTL", REG_MMIO, 0x034a, 0, &mmSDMA1_RLC6_IB_CNTL[0], sizeof(mmSDMA1_RLC6_IB_CNTL)/sizeof(mmSDMA1_RLC6_IB_CNTL[0]), 0, 0 },
	{ "mmSDMA1_RLC6_IB_RPTR", REG_MMIO, 0x034b, 0, &mmSDMA1_RLC6_IB_RPTR[0], sizeof(mmSDMA1_RLC6_IB_RPTR)/sizeof(mmSDMA1_RLC6_IB_RPTR[0]), 0, 0 },
	{ "mmSDMA1_RLC6_IB_OFFSET", REG_MMIO, 0x034c, 0, &mmSDMA1_RLC6_IB_OFFSET[0], sizeof(mmSDMA1_RLC6_IB_OFFSET)/sizeof(mmSDMA1_RLC6_IB_OFFSET[0]), 0, 0 },
	{ "mmSDMA1_RLC6_IB_BASE_LO", REG_MMIO, 0x034d, 0, &mmSDMA1_RLC6_IB_BASE_LO[0], sizeof(mmSDMA1_RLC6_IB_BASE_LO)/sizeof(mmSDMA1_RLC6_IB_BASE_LO[0]), 0, 0 },
	{ "mmSDMA1_RLC6_IB_BASE_HI", REG_MMIO, 0x034e, 0, &mmSDMA1_RLC6_IB_BASE_HI[0], sizeof(mmSDMA1_RLC6_IB_BASE_HI)/sizeof(mmSDMA1_RLC6_IB_BASE_HI[0]), 0, 0 },
	{ "mmSDMA1_RLC6_IB_SIZE", REG_MMIO, 0x034f, 0, &mmSDMA1_RLC6_IB_SIZE[0], sizeof(mmSDMA1_RLC6_IB_SIZE)/sizeof(mmSDMA1_RLC6_IB_SIZE[0]), 0, 0 },
	{ "mmSDMA1_RLC6_SKIP_CNTL", REG_MMIO, 0x0350, 0, &mmSDMA1_RLC6_SKIP_CNTL[0], sizeof(mmSDMA1_RLC6_SKIP_CNTL)/sizeof(mmSDMA1_RLC6_SKIP_CNTL[0]), 0, 0 },
	{ "mmSDMA1_RLC6_CONTEXT_STATUS", REG_MMIO, 0x0351, 0, &mmSDMA1_RLC6_CONTEXT_STATUS[0], sizeof(mmSDMA1_RLC6_CONTEXT_STATUS)/sizeof(mmSDMA1_RLC6_CONTEXT_STATUS[0]), 0, 0 },
	{ "mmSDMA1_RLC6_DOORBELL", REG_MMIO, 0x0352, 0, &mmSDMA1_RLC6_DOORBELL[0], sizeof(mmSDMA1_RLC6_DOORBELL)/sizeof(mmSDMA1_RLC6_DOORBELL[0]), 0, 0 },
	{ "mmSDMA1_RLC6_STATUS", REG_MMIO, 0x0368, 0, &mmSDMA1_RLC6_STATUS[0], sizeof(mmSDMA1_RLC6_STATUS)/sizeof(mmSDMA1_RLC6_STATUS[0]), 0, 0 },
	{ "mmSDMA1_RLC6_DOORBELL_LOG", REG_MMIO, 0x0369, 0, &mmSDMA1_RLC6_DOORBELL_LOG[0], sizeof(mmSDMA1_RLC6_DOORBELL_LOG)/sizeof(mmSDMA1_RLC6_DOORBELL_LOG[0]), 0, 0 },
	{ "mmSDMA1_RLC6_WATERMARK", REG_MMIO, 0x036a, 0, &mmSDMA1_RLC6_WATERMARK[0], sizeof(mmSDMA1_RLC6_WATERMARK)/sizeof(mmSDMA1_RLC6_WATERMARK[0]), 0, 0 },
	{ "mmSDMA1_RLC6_DOORBELL_OFFSET", REG_MMIO, 0x036b, 0, &mmSDMA1_RLC6_DOORBELL_OFFSET[0], sizeof(mmSDMA1_RLC6_DOORBELL_OFFSET)/sizeof(mmSDMA1_RLC6_DOORBELL_OFFSET[0]), 0, 0 },
	{ "mmSDMA1_RLC6_CSA_ADDR_LO", REG_MMIO, 0x036c, 0, &mmSDMA1_RLC6_CSA_ADDR_LO[0], sizeof(mmSDMA1_RLC6_CSA_ADDR_LO)/sizeof(mmSDMA1_RLC6_CSA_ADDR_LO[0]), 0, 0 },
	{ "mmSDMA1_RLC6_CSA_ADDR_HI", REG_MMIO, 0x036d, 0, &mmSDMA1_RLC6_CSA_ADDR_HI[0], sizeof(mmSDMA1_RLC6_CSA_ADDR_HI)/sizeof(mmSDMA1_RLC6_CSA_ADDR_HI[0]), 0, 0 },
	{ "mmSDMA1_RLC6_IB_SUB_REMAIN", REG_MMIO, 0x036f, 0, &mmSDMA1_RLC6_IB_SUB_REMAIN[0], sizeof(mmSDMA1_RLC6_IB_SUB_REMAIN)/sizeof(mmSDMA1_RLC6_IB_SUB_REMAIN[0]), 0, 0 },
	{ "mmSDMA1_RLC6_PREEMPT", REG_MMIO, 0x0370, 0, &mmSDMA1_RLC6_PREEMPT[0], sizeof(mmSDMA1_RLC6_PREEMPT)/sizeof(mmSDMA1_RLC6_PREEMPT[0]), 0, 0 },
	{ "mmSDMA1_RLC6_DUMMY_REG", REG_MMIO, 0x0371, 0, &mmSDMA1_RLC6_DUMMY_REG[0], sizeof(mmSDMA1_RLC6_DUMMY_REG)/sizeof(mmSDMA1_RLC6_DUMMY_REG[0]), 0, 0 },
	{ "mmSDMA1_RLC6_RB_WPTR_POLL_ADDR_HI", REG_MMIO, 0x0372, 0, &mmSDMA1_RLC6_RB_WPTR_POLL_ADDR_HI[0], sizeof(mmSDMA1_RLC6_RB_WPTR_POLL_ADDR_HI)/sizeof(mmSDMA1_RLC6_RB_WPTR_POLL_ADDR_HI[0]), 0, 0 },
	{ "mmSDMA1_RLC6_RB_WPTR_POLL_ADDR_LO", REG_MMIO, 0x0373, 0, &mmSDMA1_RLC6_RB_WPTR_POLL_ADDR_LO[0], sizeof(mmSDMA1_RLC6_RB_WPTR_POLL_ADDR_LO)/sizeof(mmSDMA1_RLC6_RB_WPTR_POLL_ADDR_LO[0]), 0, 0 },
	{ "mmSDMA1_RLC6_RB_AQL_CNTL", REG_MMIO, 0x0374, 0, &mmSDMA1_RLC6_RB_AQL_CNTL[0], sizeof(mmSDMA1_RLC6_RB_AQL_CNTL)/sizeof(mmSDMA1_RLC6_RB_AQL_CNTL[0]), 0, 0 },
	{ "mmSDMA1_RLC6_MINOR_PTR_UPDATE", REG_MMIO, 0x0375, 0, &mmSDMA1_RLC6_MINOR_PTR_UPDATE[0], sizeof(mmSDMA1_RLC6_MINOR_PTR_UPDATE)/sizeof(mmSDMA1_RLC6_MINOR_PTR_UPDATE[0]), 0, 0 },
	{ "mmSDMA1_RLC6_MIDCMD_DATA0", REG_MMIO, 0x0380, 0, &mmSDMA1_RLC6_MIDCMD_DATA0[0], sizeof(mmSDMA1_RLC6_MIDCMD_DATA0)/sizeof(mmSDMA1_RLC6_MIDCMD_DATA0[0]), 0, 0 },
	{ "mmSDMA1_RLC6_MIDCMD_DATA1", REG_MMIO, 0x0381, 0, &mmSDMA1_RLC6_MIDCMD_DATA1[0], sizeof(mmSDMA1_RLC6_MIDCMD_DATA1)/sizeof(mmSDMA1_RLC6_MIDCMD_DATA1[0]), 0, 0 },
	{ "mmSDMA1_RLC6_MIDCMD_DATA2", REG_MMIO, 0x0382, 0, &mmSDMA1_RLC6_MIDCMD_DATA2[0], sizeof(mmSDMA1_RLC6_MIDCMD_DATA2)/sizeof(mmSDMA1_RLC6_MIDCMD_DATA2[0]), 0, 0 },
	{ "mmSDMA1_RLC6_MIDCMD_DATA3", REG_MMIO, 0x0383, 0, &mmSDMA1_RLC6_MIDCMD_DATA3[0], sizeof(mmSDMA1_RLC6_MIDCMD_DATA3)/sizeof(mmSDMA1_RLC6_MIDCMD_DATA3[0]), 0, 0 },
	{ "mmSDMA1_RLC6_MIDCMD_DATA4", REG_MMIO, 0x0384, 0, &mmSDMA1_RLC6_MIDCMD_DATA4[0], sizeof(mmSDMA1_RLC6_MIDCMD_DATA4)/sizeof(mmSDMA1_RLC6_MIDCMD_DATA4[0]), 0, 0 },
	{ "mmSDMA1_RLC6_MIDCMD_DATA5", REG_MMIO, 0x0385, 0, &mmSDMA1_RLC6_MIDCMD_DATA5[0], sizeof(mmSDMA1_RLC6_MIDCMD_DATA5)/sizeof(mmSDMA1_RLC6_MIDCMD_DATA5[0]), 0, 0 },
	{ "mmSDMA1_RLC6_MIDCMD_DATA6", REG_MMIO, 0x0386, 0, &mmSDMA1_RLC6_MIDCMD_DATA6[0], sizeof(mmSDMA1_RLC6_MIDCMD_DATA6)/sizeof(mmSDMA1_RLC6_MIDCMD_DATA6[0]), 0, 0 },
	{ "mmSDMA1_RLC6_MIDCMD_DATA7", REG_MMIO, 0x0387, 0, &mmSDMA1_RLC6_MIDCMD_DATA7[0], sizeof(mmSDMA1_RLC6_MIDCMD_DATA7)/sizeof(mmSDMA1_RLC6_MIDCMD_DATA7[0]), 0, 0 },
	{ "mmSDMA1_RLC6_MIDCMD_DATA8", REG_MMIO, 0x0388, 0, &mmSDMA1_RLC6_MIDCMD_DATA8[0], sizeof(mmSDMA1_RLC6_MIDCMD_DATA8)/sizeof(mmSDMA1_RLC6_MIDCMD_DATA8[0]), 0, 0 },
	{ "mmSDMA1_RLC6_MIDCMD_CNTL", REG_MMIO, 0x0389, 0, &mmSDMA1_RLC6_MIDCMD_CNTL[0], sizeof(mmSDMA1_RLC6_MIDCMD_CNTL)/sizeof(mmSDMA1_RLC6_MIDCMD_CNTL[0]), 0, 0 },
	{ "mmSDMA1_RLC7_RB_CNTL", REG_MMIO, 0x0398, 0, &mmSDMA1_RLC7_RB_CNTL[0], sizeof(mmSDMA1_RLC7_RB_CNTL)/sizeof(mmSDMA1_RLC7_RB_CNTL[0]), 0, 0 },
	{ "mmSDMA1_RLC7_RB_BASE", REG_MMIO, 0x0399, 0, &mmSDMA1_RLC7_RB_BASE[0], sizeof(mmSDMA1_RLC7_RB_BASE)/sizeof(mmSDMA1_RLC7_RB_BASE[0]), 0, 0 },
	{ "mmSDMA1_RLC7_RB_BASE_HI", REG_MMIO, 0x039a, 0, &mmSDMA1_RLC7_RB_BASE_HI[0], sizeof(mmSDMA1_RLC7_RB_BASE_HI)/sizeof(mmSDMA1_RLC7_RB_BASE_HI[0]), 0, 0 },
	{ "mmSDMA1_RLC7_RB_RPTR", REG_MMIO, 0x039b, 0, &mmSDMA1_RLC7_RB_RPTR[0], sizeof(mmSDMA1_RLC7_RB_RPTR)/sizeof(mmSDMA1_RLC7_RB_RPTR[0]), 0, 0 },
	{ "mmSDMA1_RLC7_RB_RPTR_HI", REG_MMIO, 0x039c, 0, &mmSDMA1_RLC7_RB_RPTR_HI[0], sizeof(mmSDMA1_RLC7_RB_RPTR_HI)/sizeof(mmSDMA1_RLC7_RB_RPTR_HI[0]), 0, 0 },
	{ "mmSDMA1_RLC7_RB_WPTR", REG_MMIO, 0x039d, 0, &mmSDMA1_RLC7_RB_WPTR[0], sizeof(mmSDMA1_RLC7_RB_WPTR)/sizeof(mmSDMA1_RLC7_RB_WPTR[0]), 0, 0 },
	{ "mmSDMA1_RLC7_RB_WPTR_HI", REG_MMIO, 0x039e, 0, &mmSDMA1_RLC7_RB_WPTR_HI[0], sizeof(mmSDMA1_RLC7_RB_WPTR_HI)/sizeof(mmSDMA1_RLC7_RB_WPTR_HI[0]), 0, 0 },
	{ "mmSDMA1_RLC7_RB_WPTR_POLL_CNTL", REG_MMIO, 0x039f, 0, &mmSDMA1_RLC7_RB_WPTR_POLL_CNTL[0], sizeof(mmSDMA1_RLC7_RB_WPTR_POLL_CNTL)/sizeof(mmSDMA1_RLC7_RB_WPTR_POLL_CNTL[0]), 0, 0 },
	{ "mmSDMA1_RLC7_RB_RPTR_ADDR_HI", REG_MMIO, 0x03a0, 0, &mmSDMA1_RLC7_RB_RPTR_ADDR_HI[0], sizeof(mmSDMA1_RLC7_RB_RPTR_ADDR_HI)/sizeof(mmSDMA1_RLC7_RB_RPTR_ADDR_HI[0]), 0, 0 },
	{ "mmSDMA1_RLC7_RB_RPTR_ADDR_LO", REG_MMIO, 0x03a1, 0, &mmSDMA1_RLC7_RB_RPTR_ADDR_LO[0], sizeof(mmSDMA1_RLC7_RB_RPTR_ADDR_LO)/sizeof(mmSDMA1_RLC7_RB_RPTR_ADDR_LO[0]), 0, 0 },
	{ "mmSDMA1_RLC7_IB_CNTL", REG_MMIO, 0x03a2, 0, &mmSDMA1_RLC7_IB_CNTL[0], sizeof(mmSDMA1_RLC7_IB_CNTL)/sizeof(mmSDMA1_RLC7_IB_CNTL[0]), 0, 0 },
	{ "mmSDMA1_RLC7_IB_RPTR", REG_MMIO, 0x03a3, 0, &mmSDMA1_RLC7_IB_RPTR[0], sizeof(mmSDMA1_RLC7_IB_RPTR)/sizeof(mmSDMA1_RLC7_IB_RPTR[0]), 0, 0 },
	{ "mmSDMA1_RLC7_IB_OFFSET", REG_MMIO, 0x03a4, 0, &mmSDMA1_RLC7_IB_OFFSET[0], sizeof(mmSDMA1_RLC7_IB_OFFSET)/sizeof(mmSDMA1_RLC7_IB_OFFSET[0]), 0, 0 },
	{ "mmSDMA1_RLC7_IB_BASE_LO", REG_MMIO, 0x03a5, 0, &mmSDMA1_RLC7_IB_BASE_LO[0], sizeof(mmSDMA1_RLC7_IB_BASE_LO)/sizeof(mmSDMA1_RLC7_IB_BASE_LO[0]), 0, 0 },
	{ "mmSDMA1_RLC7_IB_BASE_HI", REG_MMIO, 0x03a6, 0, &mmSDMA1_RLC7_IB_BASE_HI[0], sizeof(mmSDMA1_RLC7_IB_BASE_HI)/sizeof(mmSDMA1_RLC7_IB_BASE_HI[0]), 0, 0 },
	{ "mmSDMA1_RLC7_IB_SIZE", REG_MMIO, 0x03a7, 0, &mmSDMA1_RLC7_IB_SIZE[0], sizeof(mmSDMA1_RLC7_IB_SIZE)/sizeof(mmSDMA1_RLC7_IB_SIZE[0]), 0, 0 },
	{ "mmSDMA1_RLC7_SKIP_CNTL", REG_MMIO, 0x03a8, 0, &mmSDMA1_RLC7_SKIP_CNTL[0], sizeof(mmSDMA1_RLC7_SKIP_CNTL)/sizeof(mmSDMA1_RLC7_SKIP_CNTL[0]), 0, 0 },
	{ "mmSDMA1_RLC7_CONTEXT_STATUS", REG_MMIO, 0x03a9, 0, &mmSDMA1_RLC7_CONTEXT_STATUS[0], sizeof(mmSDMA1_RLC7_CONTEXT_STATUS)/sizeof(mmSDMA1_RLC7_CONTEXT_STATUS[0]), 0, 0 },
	{ "mmSDMA1_RLC7_DOORBELL", REG_MMIO, 0x03aa, 0, &mmSDMA1_RLC7_DOORBELL[0], sizeof(mmSDMA1_RLC7_DOORBELL)/sizeof(mmSDMA1_RLC7_DOORBELL[0]), 0, 0 },
	{ "mmSDMA1_RLC7_STATUS", REG_MMIO, 0x03c0, 0, &mmSDMA1_RLC7_STATUS[0], sizeof(mmSDMA1_RLC7_STATUS)/sizeof(mmSDMA1_RLC7_STATUS[0]), 0, 0 },
	{ "mmSDMA1_RLC7_DOORBELL_LOG", REG_MMIO, 0x03c1, 0, &mmSDMA1_RLC7_DOORBELL_LOG[0], sizeof(mmSDMA1_RLC7_DOORBELL_LOG)/sizeof(mmSDMA1_RLC7_DOORBELL_LOG[0]), 0, 0 },
	{ "mmSDMA1_RLC7_WATERMARK", REG_MMIO, 0x03c2, 0, &mmSDMA1_RLC7_WATERMARK[0], sizeof(mmSDMA1_RLC7_WATERMARK)/sizeof(mmSDMA1_RLC7_WATERMARK[0]), 0, 0 },
	{ "mmSDMA1_RLC7_DOORBELL_OFFSET", REG_MMIO, 0x03c3, 0, &mmSDMA1_RLC7_DOORBELL_OFFSET[0], sizeof(mmSDMA1_RLC7_DOORBELL_OFFSET)/sizeof(mmSDMA1_RLC7_DOORBELL_OFFSET[0]), 0, 0 },
	{ "mmSDMA1_RLC7_CSA_ADDR_LO", REG_MMIO, 0x03c4, 0, &mmSDMA1_RLC7_CSA_ADDR_LO[0], sizeof(mmSDMA1_RLC7_CSA_ADDR_LO)/sizeof(mmSDMA1_RLC7_CSA_ADDR_LO[0]), 0, 0 },
	{ "mmSDMA1_RLC7_CSA_ADDR_HI", REG_MMIO, 0x03c5, 0, &mmSDMA1_RLC7_CSA_ADDR_HI[0], sizeof(mmSDMA1_RLC7_CSA_ADDR_HI)/sizeof(mmSDMA1_RLC7_CSA_ADDR_HI[0]), 0, 0 },
	{ "mmSDMA1_RLC7_IB_SUB_REMAIN", REG_MMIO, 0x03c7, 0, &mmSDMA1_RLC7_IB_SUB_REMAIN[0], sizeof(mmSDMA1_RLC7_IB_SUB_REMAIN)/sizeof(mmSDMA1_RLC7_IB_SUB_REMAIN[0]), 0, 0 },
	{ "mmSDMA1_RLC7_PREEMPT", REG_MMIO, 0x03c8, 0, &mmSDMA1_RLC7_PREEMPT[0], sizeof(mmSDMA1_RLC7_PREEMPT)/sizeof(mmSDMA1_RLC7_PREEMPT[0]), 0, 0 },
	{ "mmSDMA1_RLC7_DUMMY_REG", REG_MMIO, 0x03c9, 0, &mmSDMA1_RLC7_DUMMY_REG[0], sizeof(mmSDMA1_RLC7_DUMMY_REG)/sizeof(mmSDMA1_RLC7_DUMMY_REG[0]), 0, 0 },
	{ "mmSDMA1_RLC7_RB_WPTR_POLL_ADDR_HI", REG_MMIO, 0x03ca, 0, &mmSDMA1_RLC7_RB_WPTR_POLL_ADDR_HI[0], sizeof(mmSDMA1_RLC7_RB_WPTR_POLL_ADDR_HI)/sizeof(mmSDMA1_RLC7_RB_WPTR_POLL_ADDR_HI[0]), 0, 0 },
	{ "mmSDMA1_RLC7_RB_WPTR_POLL_ADDR_LO", REG_MMIO, 0x03cb, 0, &mmSDMA1_RLC7_RB_WPTR_POLL_ADDR_LO[0], sizeof(mmSDMA1_RLC7_RB_WPTR_POLL_ADDR_LO)/sizeof(mmSDMA1_RLC7_RB_WPTR_POLL_ADDR_LO[0]), 0, 0 },
	{ "mmSDMA1_RLC7_RB_AQL_CNTL", REG_MMIO, 0x03cc, 0, &mmSDMA1_RLC7_RB_AQL_CNTL[0], sizeof(mmSDMA1_RLC7_RB_AQL_CNTL)/sizeof(mmSDMA1_RLC7_RB_AQL_CNTL[0]), 0, 0 },
	{ "mmSDMA1_RLC7_MINOR_PTR_UPDATE", REG_MMIO, 0x03cd, 0, &mmSDMA1_RLC7_MINOR_PTR_UPDATE[0], sizeof(mmSDMA1_RLC7_MINOR_PTR_UPDATE)/sizeof(mmSDMA1_RLC7_MINOR_PTR_UPDATE[0]), 0, 0 },
	{ "mmSDMA1_RLC7_MIDCMD_DATA0", REG_MMIO, 0x03d8, 0, &mmSDMA1_RLC7_MIDCMD_DATA0[0], sizeof(mmSDMA1_RLC7_MIDCMD_DATA0)/sizeof(mmSDMA1_RLC7_MIDCMD_DATA0[0]), 0, 0 },
	{ "mmSDMA1_RLC7_MIDCMD_DATA1", REG_MMIO, 0x03d9, 0, &mmSDMA1_RLC7_MIDCMD_DATA1[0], sizeof(mmSDMA1_RLC7_MIDCMD_DATA1)/sizeof(mmSDMA1_RLC7_MIDCMD_DATA1[0]), 0, 0 },
	{ "mmSDMA1_RLC7_MIDCMD_DATA2", REG_MMIO, 0x03da, 0, &mmSDMA1_RLC7_MIDCMD_DATA2[0], sizeof(mmSDMA1_RLC7_MIDCMD_DATA2)/sizeof(mmSDMA1_RLC7_MIDCMD_DATA2[0]), 0, 0 },
	{ "mmSDMA1_RLC7_MIDCMD_DATA3", REG_MMIO, 0x03db, 0, &mmSDMA1_RLC7_MIDCMD_DATA3[0], sizeof(mmSDMA1_RLC7_MIDCMD_DATA3)/sizeof(mmSDMA1_RLC7_MIDCMD_DATA3[0]), 0, 0 },
	{ "mmSDMA1_RLC7_MIDCMD_DATA4", REG_MMIO, 0x03dc, 0, &mmSDMA1_RLC7_MIDCMD_DATA4[0], sizeof(mmSDMA1_RLC7_MIDCMD_DATA4)/sizeof(mmSDMA1_RLC7_MIDCMD_DATA4[0]), 0, 0 },
	{ "mmSDMA1_RLC7_MIDCMD_DATA5", REG_MMIO, 0x03dd, 0, &mmSDMA1_RLC7_MIDCMD_DATA5[0], sizeof(mmSDMA1_RLC7_MIDCMD_DATA5)/sizeof(mmSDMA1_RLC7_MIDCMD_DATA5[0]), 0, 0 },
	{ "mmSDMA1_RLC7_MIDCMD_DATA6", REG_MMIO, 0x03de, 0, &mmSDMA1_RLC7_MIDCMD_DATA6[0], sizeof(mmSDMA1_RLC7_MIDCMD_DATA6)/sizeof(mmSDMA1_RLC7_MIDCMD_DATA6[0]), 0, 0 },
	{ "mmSDMA1_RLC7_MIDCMD_DATA7", REG_MMIO, 0x03df, 0, &mmSDMA1_RLC7_MIDCMD_DATA7[0], sizeof(mmSDMA1_RLC7_MIDCMD_DATA7)/sizeof(mmSDMA1_RLC7_MIDCMD_DATA7[0]), 0, 0 },
	{ "mmSDMA1_RLC7_MIDCMD_DATA8", REG_MMIO, 0x03e0, 0, &mmSDMA1_RLC7_MIDCMD_DATA8[0], sizeof(mmSDMA1_RLC7_MIDCMD_DATA8)/sizeof(mmSDMA1_RLC7_MIDCMD_DATA8[0]), 0, 0 },
	{ "mmSDMA1_RLC7_MIDCMD_CNTL", REG_MMIO, 0x03e1, 0, &mmSDMA1_RLC7_MIDCMD_CNTL[0], sizeof(mmSDMA1_RLC7_MIDCMD_CNTL)/sizeof(mmSDMA1_RLC7_MIDCMD_CNTL[0]), 0, 0 },
