	{ "mmUMCCH0_0_GeccErrCntSel", REG_MMIO, 0x0328, 0, &mmUMCCH0_0_GeccErrCntSel[0], sizeof(mmUMCCH0_0_GeccErrCntSel)/sizeof(mmUMCCH0_0_GeccErrCntSel[0]), 0, 0 },
	{ "mmUMCCH0_0_GeccErrCnt", REG_MMIO, 0x0329, 0, &mmUMCCH0_0_GeccErrCnt[0], sizeof(mmUMCCH0_0_GeccErrCnt)/sizeof(mmUMCCH0_0_GeccErrCnt[0]), 0, 0 },
	{ "mmMCA_UMC_UMC0_MCUMC_STATUST0", REG_MMIO, 0x03c2, 0, &mmMCA_UMC_UMC0_MCUMC_STATUST0[0], sizeof(mmMCA_UMC_UMC0_MCUMC_STATUST0)/sizeof(mmMCA_UMC_UMC0_MCUMC_STATUST0[0]), 1, 0 },
	{ "mmMCA_UMC_UMC0_MCUMC_ADDRT0", REG_MMIO, 0x03c4, 0, &mmMCA_UMC_UMC0_MCUMC_ADDRT0[0], sizeof(mmMCA_UMC_UMC0_MCUMC_ADDRT0)/sizeof(mmMCA_UMC_UMC0_MCUMC_ADDRT0[0]), 1, 0 },
