	{ "mmUVD_JPEG_CNTL", REG_MMIO, 0x0080, 0, &mmUVD_JPEG_CNTL[0], sizeof(mmUVD_JPEG_CNTL)/sizeof(mmUVD_JPEG_CNTL[0]), 0, 0 },
	{ "mmUVD_JPEG_RB_BASE", REG_MMIO, 0x0081, 0, &mmUVD_JPEG_RB_BASE[0], sizeof(mmUVD_JPEG_RB_BASE)/sizeof(mmUVD_JPEG_RB_BASE[0]), 0, 0 },
	{ "mmUVD_JPEG_RB_WPTR", REG_MMIO, 0x0082, 0, &mmUVD_JPEG_RB_WPTR[0], sizeof(mmUVD_JPEG_RB_WPTR)/sizeof(mmUVD_JPEG_RB_WPTR[0]), 0, 0 },
	{ "mmUVD_JPEG_RB_RPTR", REG_MMIO, 0x0083, 0, &mmUVD_JPEG_RB_RPTR[0], sizeof(mmUVD_JPEG_RB_RPTR)/sizeof(mmUVD_JPEG_RB_RPTR[0]), 0, 0 },
	{ "mmUVD_JPEG_RB_SIZE", REG_MMIO, 0x0084, 0, &mmUVD_JPEG_RB_SIZE[0], sizeof(mmUVD_JPEG_RB_SIZE)/sizeof(mmUVD_JPEG_RB_SIZE[0]), 0, 0 },
	{ "mmUVD_JPEG_DEC_SCRATCH0", REG_MMIO, 0x0089, 0, &mmUVD_JPEG_DEC_SCRATCH0[0], sizeof(mmUVD_JPEG_DEC_SCRATCH0)/sizeof(mmUVD_JPEG_DEC_SCRATCH0[0]), 0, 0 },
	{ "mmUVD_JPEG_INT_EN", REG_MMIO, 0x008a, 0, &mmUVD_JPEG_INT_EN[0], sizeof(mmUVD_JPEG_INT_EN)/sizeof(mmUVD_JPEG_INT_EN[0]), 0, 0 },
	{ "mmUVD_JPEG_INT_STAT", REG_MMIO, 0x008b, 0, &mmUVD_JPEG_INT_STAT[0], sizeof(mmUVD_JPEG_INT_STAT)/sizeof(mmUVD_JPEG_INT_STAT[0]), 0, 0 },
	{ "mmUVD_JPEG_PITCH", REG_MMIO, 0x009f, 0, &mmUVD_JPEG_PITCH[0], sizeof(mmUVD_JPEG_PITCH)/sizeof(mmUVD_JPEG_PITCH[0]), 0, 0 },
	{ "mmUVD_JPEG_UV_PITCH", REG_MMIO, 0x00a0, 0, &mmUVD_JPEG_UV_PITCH[0], sizeof(mmUVD_JPEG_UV_PITCH)/sizeof(mmUVD_JPEG_UV_PITCH[0]), 0, 0 },
	{ "mmJPEG_DEC_Y_GFX8_TILING_SURFACE", REG_MMIO, 0x00a1, 0, &mmJPEG_DEC_Y_GFX8_TILING_SURFACE[0], sizeof(mmJPEG_DEC_Y_GFX8_TILING_SURFACE)/sizeof(mmJPEG_DEC_Y_GFX8_TILING_SURFACE[0]), 0, 0 },
	{ "mmJPEG_DEC_UV_GFX8_TILING_SURFACE", REG_MMIO, 0x00a2, 0, &mmJPEG_DEC_UV_GFX8_TILING_SURFACE[0], sizeof(mmJPEG_DEC_UV_GFX8_TILING_SURFACE)/sizeof(mmJPEG_DEC_UV_GFX8_TILING_SURFACE[0]), 0, 0 },
	{ "mmJPEG_DEC_GFX8_ADDR_CONFIG", REG_MMIO, 0x00a3, 0, &mmJPEG_DEC_GFX8_ADDR_CONFIG[0], sizeof(mmJPEG_DEC_GFX8_ADDR_CONFIG)/sizeof(mmJPEG_DEC_GFX8_ADDR_CONFIG[0]), 0, 0 },
	{ "mmJPEG_DEC_Y_GFX10_TILING_SURFACE", REG_MMIO, 0x00a4, 0, &mmJPEG_DEC_Y_GFX10_TILING_SURFACE[0], sizeof(mmJPEG_DEC_Y_GFX10_TILING_SURFACE)/sizeof(mmJPEG_DEC_Y_GFX10_TILING_SURFACE[0]), 0, 0 },
	{ "mmJPEG_DEC_UV_GFX10_TILING_SURFACE", REG_MMIO, 0x00a5, 0, &mmJPEG_DEC_UV_GFX10_TILING_SURFACE[0], sizeof(mmJPEG_DEC_UV_GFX10_TILING_SURFACE)/sizeof(mmJPEG_DEC_UV_GFX10_TILING_SURFACE[0]), 0, 0 },
	{ "mmJPEG_DEC_GFX10_ADDR_CONFIG", REG_MMIO, 0x00a6, 0, &mmJPEG_DEC_GFX10_ADDR_CONFIG[0], sizeof(mmJPEG_DEC_GFX10_ADDR_CONFIG)/sizeof(mmJPEG_DEC_GFX10_ADDR_CONFIG[0]), 0, 0 },
	{ "mmJPEG_DEC_ADDR_MODE", REG_MMIO, 0x00a7, 0, &mmJPEG_DEC_ADDR_MODE[0], sizeof(mmJPEG_DEC_ADDR_MODE)/sizeof(mmJPEG_DEC_ADDR_MODE[0]), 0, 0 },
	{ "mmUVD_JPEG_GPCOM_CMD", REG_MMIO, 0x00a9, 0, &mmUVD_JPEG_GPCOM_CMD[0], sizeof(mmUVD_JPEG_GPCOM_CMD)/sizeof(mmUVD_JPEG_GPCOM_CMD[0]), 0, 0 },
	{ "mmUVD_JPEG_GPCOM_DATA0", REG_MMIO, 0x00aa, 0, &mmUVD_JPEG_GPCOM_DATA0[0], sizeof(mmUVD_JPEG_GPCOM_DATA0)/sizeof(mmUVD_JPEG_GPCOM_DATA0[0]), 0, 0 },
	{ "mmUVD_JPEG_GPCOM_DATA1", REG_MMIO, 0x00ab, 0, &mmUVD_JPEG_GPCOM_DATA1[0], sizeof(mmUVD_JPEG_GPCOM_DATA1)/sizeof(mmUVD_JPEG_GPCOM_DATA1[0]), 0, 0 },
	{ "mmUVD_JPEG_SCRATCH1", REG_MMIO, 0x00ae, 0, &mmUVD_JPEG_SCRATCH1[0], sizeof(mmUVD_JPEG_SCRATCH1)/sizeof(mmUVD_JPEG_SCRATCH1[0]), 0, 0 },
	{ "mmUVD_JPEG_DEC_SOFT_RST", REG_MMIO, 0x00af, 0, &mmUVD_JPEG_DEC_SOFT_RST[0], sizeof(mmUVD_JPEG_DEC_SOFT_RST)/sizeof(mmUVD_JPEG_DEC_SOFT_RST[0]), 0, 0 },
	{ "mmUVD_JPEG_ENC_INT_EN", REG_MMIO, 0x00c1, 0, &mmUVD_JPEG_ENC_INT_EN[0], sizeof(mmUVD_JPEG_ENC_INT_EN)/sizeof(mmUVD_JPEG_ENC_INT_EN[0]), 0, 0 },
	{ "mmUVD_JPEG_ENC_INT_STATUS", REG_MMIO, 0x00c2, 0, &mmUVD_JPEG_ENC_INT_STATUS[0], sizeof(mmUVD_JPEG_ENC_INT_STATUS)/sizeof(mmUVD_JPEG_ENC_INT_STATUS[0]), 0, 0 },
	{ "mmUVD_JPEG_ENC_ENGINE_CNTL", REG_MMIO, 0x00c5, 0, &mmUVD_JPEG_ENC_ENGINE_CNTL[0], sizeof(mmUVD_JPEG_ENC_ENGINE_CNTL)/sizeof(mmUVD_JPEG_ENC_ENGINE_CNTL[0]), 0, 0 },
	{ "mmUVD_JPEG_ENC_SCRATCH1", REG_MMIO, 0x00ce, 0, &mmUVD_JPEG_ENC_SCRATCH1[0], sizeof(mmUVD_JPEG_ENC_SCRATCH1)/sizeof(mmUVD_JPEG_ENC_SCRATCH1[0]), 0, 0 },
	{ "mmUVD_JPEG_ENC_STATUS", REG_MMIO, 0x00e5, 0, &mmUVD_JPEG_ENC_STATUS[0], sizeof(mmUVD_JPEG_ENC_STATUS)/sizeof(mmUVD_JPEG_ENC_STATUS[0]), 0, 0 },
	{ "mmUVD_JPEG_ENC_PITCH", REG_MMIO, 0x00e6, 0, &mmUVD_JPEG_ENC_PITCH[0], sizeof(mmUVD_JPEG_ENC_PITCH)/sizeof(mmUVD_JPEG_ENC_PITCH[0]), 0, 0 },
	{ "mmUVD_JPEG_ENC_LUMA_BASE", REG_MMIO, 0x00e7, 0, &mmUVD_JPEG_ENC_LUMA_BASE[0], sizeof(mmUVD_JPEG_ENC_LUMA_BASE)/sizeof(mmUVD_JPEG_ENC_LUMA_BASE[0]), 0, 0 },
	{ "mmUVD_JPEG_ENC_CHROMAU_BASE", REG_MMIO, 0x00e8, 0, &mmUVD_JPEG_ENC_CHROMAU_BASE[0], sizeof(mmUVD_JPEG_ENC_CHROMAU_BASE)/sizeof(mmUVD_JPEG_ENC_CHROMAU_BASE[0]), 0, 0 },
	{ "mmUVD_JPEG_ENC_CHROMAV_BASE", REG_MMIO, 0x00e9, 0, &mmUVD_JPEG_ENC_CHROMAV_BASE[0], sizeof(mmUVD_JPEG_ENC_CHROMAV_BASE)/sizeof(mmUVD_JPEG_ENC_CHROMAV_BASE[0]), 0, 0 },
	{ "mmJPEG_ENC_Y_GFX10_TILING_SURFACE", REG_MMIO, 0x00ea, 0, &mmJPEG_ENC_Y_GFX10_TILING_SURFACE[0], sizeof(mmJPEG_ENC_Y_GFX10_TILING_SURFACE)/sizeof(mmJPEG_ENC_Y_GFX10_TILING_SURFACE[0]), 0, 0 },
	{ "mmJPEG_ENC_UV_GFX10_TILING_SURFACE", REG_MMIO, 0x00eb, 0, &mmJPEG_ENC_UV_GFX10_TILING_SURFACE[0], sizeof(mmJPEG_ENC_UV_GFX10_TILING_SURFACE)/sizeof(mmJPEG_ENC_UV_GFX10_TILING_SURFACE[0]), 0, 0 },
	{ "mmJPEG_ENC_GFX10_ADDR_CONFIG", REG_MMIO, 0x00ec, 0, &mmJPEG_ENC_GFX10_ADDR_CONFIG[0], sizeof(mmJPEG_ENC_GFX10_ADDR_CONFIG)/sizeof(mmJPEG_ENC_GFX10_ADDR_CONFIG[0]), 0, 0 },
	{ "mmJPEG_ENC_ADDR_MODE", REG_MMIO, 0x00ed, 0, &mmJPEG_ENC_ADDR_MODE[0], sizeof(mmJPEG_ENC_ADDR_MODE)/sizeof(mmJPEG_ENC_ADDR_MODE[0]), 0, 0 },
	{ "mmUVD_JPEG_ENC_GPCOM_CMD", REG_MMIO, 0x00ee, 0, &mmUVD_JPEG_ENC_GPCOM_CMD[0], sizeof(mmUVD_JPEG_ENC_GPCOM_CMD)/sizeof(mmUVD_JPEG_ENC_GPCOM_CMD[0]), 0, 0 },
	{ "mmUVD_JPEG_ENC_GPCOM_DATA0", REG_MMIO, 0x00ef, 0, &mmUVD_JPEG_ENC_GPCOM_DATA0[0], sizeof(mmUVD_JPEG_ENC_GPCOM_DATA0)/sizeof(mmUVD_JPEG_ENC_GPCOM_DATA0[0]), 0, 0 },
	{ "mmUVD_JPEG_ENC_GPCOM_DATA1", REG_MMIO, 0x00f0, 0, &mmUVD_JPEG_ENC_GPCOM_DATA1[0], sizeof(mmUVD_JPEG_ENC_GPCOM_DATA1)/sizeof(mmUVD_JPEG_ENC_GPCOM_DATA1[0]), 0, 0 },
	{ "mmUVD_JPEG_ENC_CGC_CNTL", REG_MMIO, 0x00f5, 0, &mmUVD_JPEG_ENC_CGC_CNTL[0], sizeof(mmUVD_JPEG_ENC_CGC_CNTL)/sizeof(mmUVD_JPEG_ENC_CGC_CNTL[0]), 0, 0 },
	{ "mmUVD_JPEG_ENC_SCRATCH0", REG_MMIO, 0x00f6, 0, &mmUVD_JPEG_ENC_SCRATCH0[0], sizeof(mmUVD_JPEG_ENC_SCRATCH0)/sizeof(mmUVD_JPEG_ENC_SCRATCH0[0]), 0, 0 },
	{ "mmUVD_JPEG_ENC_SOFT_RST", REG_MMIO, 0x00f7, 0, &mmUVD_JPEG_ENC_SOFT_RST[0], sizeof(mmUVD_JPEG_ENC_SOFT_RST)/sizeof(mmUVD_JPEG_ENC_SOFT_RST[0]), 0, 0 },
	{ "mmUVD_JRBC_RB_WPTR", REG_MMIO, 0x0100, 0, &mmUVD_JRBC_RB_WPTR[0], sizeof(mmUVD_JRBC_RB_WPTR)/sizeof(mmUVD_JRBC_RB_WPTR[0]), 0, 0 },
	{ "mmUVD_JRBC_RB_CNTL", REG_MMIO, 0x0101, 0, &mmUVD_JRBC_RB_CNTL[0], sizeof(mmUVD_JRBC_RB_CNTL)/sizeof(mmUVD_JRBC_RB_CNTL[0]), 0, 0 },
	{ "mmUVD_JRBC_IB_SIZE", REG_MMIO, 0x0102, 0, &mmUVD_JRBC_IB_SIZE[0], sizeof(mmUVD_JRBC_IB_SIZE)/sizeof(mmUVD_JRBC_IB_SIZE[0]), 0, 0 },
	{ "mmUVD_JRBC_URGENT_CNTL", REG_MMIO, 0x0103, 0, &mmUVD_JRBC_URGENT_CNTL[0], sizeof(mmUVD_JRBC_URGENT_CNTL)/sizeof(mmUVD_JRBC_URGENT_CNTL[0]), 0, 0 },
	{ "mmUVD_JRBC_RB_REF_DATA", REG_MMIO, 0x0104, 0, &mmUVD_JRBC_RB_REF_DATA[0], sizeof(mmUVD_JRBC_RB_REF_DATA)/sizeof(mmUVD_JRBC_RB_REF_DATA[0]), 0, 0 },
	{ "mmUVD_JRBC_RB_COND_RD_TIMER", REG_MMIO, 0x0105, 0, &mmUVD_JRBC_RB_COND_RD_TIMER[0], sizeof(mmUVD_JRBC_RB_COND_RD_TIMER)/sizeof(mmUVD_JRBC_RB_COND_RD_TIMER[0]), 0, 0 },
	{ "mmUVD_JRBC_SOFT_RESET", REG_MMIO, 0x0108, 0, &mmUVD_JRBC_SOFT_RESET[0], sizeof(mmUVD_JRBC_SOFT_RESET)/sizeof(mmUVD_JRBC_SOFT_RESET[0]), 0, 0 },
	{ "mmUVD_JRBC_STATUS", REG_MMIO, 0x0109, 0, &mmUVD_JRBC_STATUS[0], sizeof(mmUVD_JRBC_STATUS)/sizeof(mmUVD_JRBC_STATUS[0]), 0, 0 },
	{ "mmUVD_JRBC_RB_RPTR", REG_MMIO, 0x010a, 0, &mmUVD_JRBC_RB_RPTR[0], sizeof(mmUVD_JRBC_RB_RPTR)/sizeof(mmUVD_JRBC_RB_RPTR[0]), 0, 0 },
	{ "mmUVD_JRBC_RB_BUF_STATUS", REG_MMIO, 0x010b, 0, &mmUVD_JRBC_RB_BUF_STATUS[0], sizeof(mmUVD_JRBC_RB_BUF_STATUS)/sizeof(mmUVD_JRBC_RB_BUF_STATUS[0]), 0, 0 },
	{ "mmUVD_JRBC_IB_BUF_STATUS", REG_MMIO, 0x010c, 0, &mmUVD_JRBC_IB_BUF_STATUS[0], sizeof(mmUVD_JRBC_IB_BUF_STATUS)/sizeof(mmUVD_JRBC_IB_BUF_STATUS[0]), 0, 0 },
	{ "mmUVD_JRBC_IB_SIZE_UPDATE", REG_MMIO, 0x010d, 0, &mmUVD_JRBC_IB_SIZE_UPDATE[0], sizeof(mmUVD_JRBC_IB_SIZE_UPDATE)/sizeof(mmUVD_JRBC_IB_SIZE_UPDATE[0]), 0, 0 },
	{ "mmUVD_JRBC_IB_COND_RD_TIMER", REG_MMIO, 0x010e, 0, &mmUVD_JRBC_IB_COND_RD_TIMER[0], sizeof(mmUVD_JRBC_IB_COND_RD_TIMER)/sizeof(mmUVD_JRBC_IB_COND_RD_TIMER[0]), 0, 0 },
	{ "mmUVD_JRBC_IB_REF_DATA", REG_MMIO, 0x010f, 0, &mmUVD_JRBC_IB_REF_DATA[0], sizeof(mmUVD_JRBC_IB_REF_DATA)/sizeof(mmUVD_JRBC_IB_REF_DATA[0]), 0, 0 },
	{ "mmUVD_JPEG_PREEMPT_CMD", REG_MMIO, 0x0110, 0, &mmUVD_JPEG_PREEMPT_CMD[0], sizeof(mmUVD_JPEG_PREEMPT_CMD)/sizeof(mmUVD_JPEG_PREEMPT_CMD[0]), 0, 0 },
	{ "mmUVD_JPEG_PREEMPT_FENCE_DATA0", REG_MMIO, 0x0111, 0, &mmUVD_JPEG_PREEMPT_FENCE_DATA0[0], sizeof(mmUVD_JPEG_PREEMPT_FENCE_DATA0)/sizeof(mmUVD_JPEG_PREEMPT_FENCE_DATA0[0]), 0, 0 },
	{ "mmUVD_JPEG_PREEMPT_FENCE_DATA1", REG_MMIO, 0x0112, 0, &mmUVD_JPEG_PREEMPT_FENCE_DATA1[0], sizeof(mmUVD_JPEG_PREEMPT_FENCE_DATA1)/sizeof(mmUVD_JPEG_PREEMPT_FENCE_DATA1[0]), 0, 0 },
	{ "mmUVD_JRBC_RB_SIZE", REG_MMIO, 0x0113, 0, &mmUVD_JRBC_RB_SIZE[0], sizeof(mmUVD_JRBC_RB_SIZE)/sizeof(mmUVD_JRBC_RB_SIZE[0]), 0, 0 },
	{ "mmUVD_JRBC_SCRATCH0", REG_MMIO, 0x0114, 0, &mmUVD_JRBC_SCRATCH0[0], sizeof(mmUVD_JRBC_SCRATCH0)/sizeof(mmUVD_JRBC_SCRATCH0[0]), 0, 0 },
	{ "mmUVD_JRBC_ENC_RB_WPTR", REG_MMIO, 0x0120, 0, &mmUVD_JRBC_ENC_RB_WPTR[0], sizeof(mmUVD_JRBC_ENC_RB_WPTR)/sizeof(mmUVD_JRBC_ENC_RB_WPTR[0]), 0, 0 },
	{ "mmUVD_JRBC_ENC_RB_CNTL", REG_MMIO, 0x0121, 0, &mmUVD_JRBC_ENC_RB_CNTL[0], sizeof(mmUVD_JRBC_ENC_RB_CNTL)/sizeof(mmUVD_JRBC_ENC_RB_CNTL[0]), 0, 0 },
	{ "mmUVD_JRBC_ENC_IB_SIZE", REG_MMIO, 0x0122, 0, &mmUVD_JRBC_ENC_IB_SIZE[0], sizeof(mmUVD_JRBC_ENC_IB_SIZE)/sizeof(mmUVD_JRBC_ENC_IB_SIZE[0]), 0, 0 },
	{ "mmUVD_JRBC_ENC_URGENT_CNTL", REG_MMIO, 0x0123, 0, &mmUVD_JRBC_ENC_URGENT_CNTL[0], sizeof(mmUVD_JRBC_ENC_URGENT_CNTL)/sizeof(mmUVD_JRBC_ENC_URGENT_CNTL[0]), 0, 0 },
	{ "mmUVD_JRBC_ENC_RB_REF_DATA", REG_MMIO, 0x0124, 0, &mmUVD_JRBC_ENC_RB_REF_DATA[0], sizeof(mmUVD_JRBC_ENC_RB_REF_DATA)/sizeof(mmUVD_JRBC_ENC_RB_REF_DATA[0]), 0, 0 },
	{ "mmUVD_JRBC_ENC_RB_COND_RD_TIMER", REG_MMIO, 0x0125, 0, &mmUVD_JRBC_ENC_RB_COND_RD_TIMER[0], sizeof(mmUVD_JRBC_ENC_RB_COND_RD_TIMER)/sizeof(mmUVD_JRBC_ENC_RB_COND_RD_TIMER[0]), 0, 0 },
	{ "mmUVD_JRBC_ENC_SOFT_RESET", REG_MMIO, 0x0128, 0, &mmUVD_JRBC_ENC_SOFT_RESET[0], sizeof(mmUVD_JRBC_ENC_SOFT_RESET)/sizeof(mmUVD_JRBC_ENC_SOFT_RESET[0]), 0, 0 },
	{ "mmUVD_JRBC_ENC_STATUS", REG_MMIO, 0x0129, 0, &mmUVD_JRBC_ENC_STATUS[0], sizeof(mmUVD_JRBC_ENC_STATUS)/sizeof(mmUVD_JRBC_ENC_STATUS[0]), 0, 0 },
	{ "mmUVD_JRBC_ENC_RB_RPTR", REG_MMIO, 0x012a, 0, &mmUVD_JRBC_ENC_RB_RPTR[0], sizeof(mmUVD_JRBC_ENC_RB_RPTR)/sizeof(mmUVD_JRBC_ENC_RB_RPTR[0]), 0, 0 },
	{ "mmUVD_JRBC_ENC_RB_BUF_STATUS", REG_MMIO, 0x012b, 0, &mmUVD_JRBC_ENC_RB_BUF_STATUS[0], sizeof(mmUVD_JRBC_ENC_RB_BUF_STATUS)/sizeof(mmUVD_JRBC_ENC_RB_BUF_STATUS[0]), 0, 0 },
	{ "mmUVD_JRBC_ENC_IB_BUF_STATUS", REG_MMIO, 0x012c, 0, &mmUVD_JRBC_ENC_IB_BUF_STATUS[0], sizeof(mmUVD_JRBC_ENC_IB_BUF_STATUS)/sizeof(mmUVD_JRBC_ENC_IB_BUF_STATUS[0]), 0, 0 },
	{ "mmUVD_JRBC_ENC_IB_SIZE_UPDATE", REG_MMIO, 0x012d, 0, &mmUVD_JRBC_ENC_IB_SIZE_UPDATE[0], sizeof(mmUVD_JRBC_ENC_IB_SIZE_UPDATE)/sizeof(mmUVD_JRBC_ENC_IB_SIZE_UPDATE[0]), 0, 0 },
	{ "mmUVD_JRBC_ENC_IB_COND_RD_TIMER", REG_MMIO, 0x012e, 0, &mmUVD_JRBC_ENC_IB_COND_RD_TIMER[0], sizeof(mmUVD_JRBC_ENC_IB_COND_RD_TIMER)/sizeof(mmUVD_JRBC_ENC_IB_COND_RD_TIMER[0]), 0, 0 },
	{ "mmUVD_JRBC_ENC_IB_REF_DATA", REG_MMIO, 0x012f, 0, &mmUVD_JRBC_ENC_IB_REF_DATA[0], sizeof(mmUVD_JRBC_ENC_IB_REF_DATA)/sizeof(mmUVD_JRBC_ENC_IB_REF_DATA[0]), 0, 0 },
	{ "mmUVD_JPEG_ENC_PREEMPT_CMD", REG_MMIO, 0x0130, 0, &mmUVD_JPEG_ENC_PREEMPT_CMD[0], sizeof(mmUVD_JPEG_ENC_PREEMPT_CMD)/sizeof(mmUVD_JPEG_ENC_PREEMPT_CMD[0]), 0, 0 },
	{ "mmUVD_JPEG_ENC_PREEMPT_FENCE_DATA0", REG_MMIO, 0x0131, 0, &mmUVD_JPEG_ENC_PREEMPT_FENCE_DATA0[0], sizeof(mmUVD_JPEG_ENC_PREEMPT_FENCE_DATA0)/sizeof(mmUVD_JPEG_ENC_PREEMPT_FENCE_DATA0[0]), 0, 0 },
	{ "mmUVD_JPEG_ENC_PREEMPT_FENCE_DATA1", REG_MMIO, 0x0132, 0, &mmUVD_JPEG_ENC_PREEMPT_FENCE_DATA1[0], sizeof(mmUVD_JPEG_ENC_PREEMPT_FENCE_DATA1)/sizeof(mmUVD_JPEG_ENC_PREEMPT_FENCE_DATA1[0]), 0, 0 },
	{ "mmUVD_JRBC_ENC_RB_SIZE", REG_MMIO, 0x0133, 0, &mmUVD_JRBC_ENC_RB_SIZE[0], sizeof(mmUVD_JRBC_ENC_RB_SIZE)/sizeof(mmUVD_JRBC_ENC_RB_SIZE[0]), 0, 0 },
	{ "mmUVD_JRBC_ENC_SCRATCH0", REG_MMIO, 0x0134, 0, &mmUVD_JRBC_ENC_SCRATCH0[0], sizeof(mmUVD_JRBC_ENC_SCRATCH0)/sizeof(mmUVD_JRBC_ENC_SCRATCH0[0]), 0, 0 },
	{ "mmUVD_JMI_CTRL", REG_MMIO, 0x0145, 0, &mmUVD_JMI_CTRL[0], sizeof(mmUVD_JMI_CTRL)/sizeof(mmUVD_JMI_CTRL[0]), 0, 0 },
	{ "mmUVD_LMI_JRBC_CTRL", REG_MMIO, 0x0146, 0, &mmUVD_LMI_JRBC_CTRL[0], sizeof(mmUVD_LMI_JRBC_CTRL)/sizeof(mmUVD_LMI_JRBC_CTRL[0]), 0, 0 },
	{ "mmUVD_LMI_JPEG_CTRL", REG_MMIO, 0x0147, 0, &mmUVD_LMI_JPEG_CTRL[0], sizeof(mmUVD_LMI_JPEG_CTRL)/sizeof(mmUVD_LMI_JPEG_CTRL[0]), 0, 0 },
	{ "mmUVD_JMI_EJRBC_CTRL", REG_MMIO, 0x0148, 0, &mmUVD_JMI_EJRBC_CTRL[0], sizeof(mmUVD_JMI_EJRBC_CTRL)/sizeof(mmUVD_JMI_EJRBC_CTRL[0]), 0, 0 },
	{ "mmUVD_LMI_EJPEG_CTRL", REG_MMIO, 0x0149, 0, &mmUVD_LMI_EJPEG_CTRL[0], sizeof(mmUVD_LMI_EJPEG_CTRL)/sizeof(mmUVD_LMI_EJPEG_CTRL[0]), 0, 0 },
	{ "mmUVD_LMI_JRBC_IB_VMID", REG_MMIO, 0x014f, 0, &mmUVD_LMI_JRBC_IB_VMID[0], sizeof(mmUVD_LMI_JRBC_IB_VMID)/sizeof(mmUVD_LMI_JRBC_IB_VMID[0]), 0, 0 },
	{ "mmUVD_LMI_JRBC_RB_VMID", REG_MMIO, 0x0150, 0, &mmUVD_LMI_JRBC_RB_VMID[0], sizeof(mmUVD_LMI_JRBC_RB_VMID)/sizeof(mmUVD_LMI_JRBC_RB_VMID[0]), 0, 0 },
	{ "mmUVD_LMI_JPEG_VMID", REG_MMIO, 0x0151, 0, &mmUVD_LMI_JPEG_VMID[0], sizeof(mmUVD_LMI_JPEG_VMID)/sizeof(mmUVD_LMI_JPEG_VMID[0]), 0, 0 },
	{ "mmUVD_JMI_ENC_JRBC_IB_VMID", REG_MMIO, 0x0152, 0, &mmUVD_JMI_ENC_JRBC_IB_VMID[0], sizeof(mmUVD_JMI_ENC_JRBC_IB_VMID)/sizeof(mmUVD_JMI_ENC_JRBC_IB_VMID[0]), 0, 0 },
	{ "mmUVD_JMI_ENC_JRBC_RB_VMID", REG_MMIO, 0x0153, 0, &mmUVD_JMI_ENC_JRBC_RB_VMID[0], sizeof(mmUVD_JMI_ENC_JRBC_RB_VMID)/sizeof(mmUVD_JMI_ENC_JRBC_RB_VMID[0]), 0, 0 },
	{ "mmUVD_JMI_ENC_JPEG_VMID", REG_MMIO, 0x0154, 0, &mmUVD_JMI_ENC_JPEG_VMID[0], sizeof(mmUVD_JMI_ENC_JPEG_VMID)/sizeof(mmUVD_JMI_ENC_JPEG_VMID[0]), 0, 0 },
	{ "mmUVD_JMI_PERFMON_CTRL", REG_MMIO, 0x015c, 0, &mmUVD_JMI_PERFMON_CTRL[0], sizeof(mmUVD_JMI_PERFMON_CTRL)/sizeof(mmUVD_JMI_PERFMON_CTRL[0]), 0, 0 },
	{ "mmUVD_JMI_PERFMON_COUNT_LO", REG_MMIO, 0x015d, 0, &mmUVD_JMI_PERFMON_COUNT_LO[0], sizeof(mmUVD_JMI_PERFMON_COUNT_LO)/sizeof(mmUVD_JMI_PERFMON_COUNT_LO[0]), 0, 0 },
	{ "mmUVD_JMI_PERFMON_COUNT_HI", REG_MMIO, 0x015e, 0, &mmUVD_JMI_PERFMON_COUNT_HI[0], sizeof(mmUVD_JMI_PERFMON_COUNT_HI)/sizeof(mmUVD_JMI_PERFMON_COUNT_HI[0]), 0, 0 },
	{ "mmUVD_LMI_JPEG_READ_64BIT_BAR_LOW", REG_MMIO, 0x0160, 0, &mmUVD_LMI_JPEG_READ_64BIT_BAR_LOW[0], sizeof(mmUVD_LMI_JPEG_READ_64BIT_BAR_LOW)/sizeof(mmUVD_LMI_JPEG_READ_64BIT_BAR_LOW[0]), 0, 0 },
	{ "mmUVD_LMI_JPEG_READ_64BIT_BAR_HIGH", REG_MMIO, 0x0161, 0, &mmUVD_LMI_JPEG_READ_64BIT_BAR_HIGH[0], sizeof(mmUVD_LMI_JPEG_READ_64BIT_BAR_HIGH)/sizeof(mmUVD_LMI_JPEG_READ_64BIT_BAR_HIGH[0]), 0, 0 },
	{ "mmUVD_LMI_JPEG_WRITE_64BIT_BAR_LOW", REG_MMIO, 0x0162, 0, &mmUVD_LMI_JPEG_WRITE_64BIT_BAR_LOW[0], sizeof(mmUVD_LMI_JPEG_WRITE_64BIT_BAR_LOW)/sizeof(mmUVD_LMI_JPEG_WRITE_64BIT_BAR_LOW[0]), 0, 0 },
	{ "mmUVD_LMI_JPEG_WRITE_64BIT_BAR_HIGH", REG_MMIO, 0x0163, 0, &mmUVD_LMI_JPEG_WRITE_64BIT_BAR_HIGH[0], sizeof(mmUVD_LMI_JPEG_WRITE_64BIT_BAR_HIGH)/sizeof(mmUVD_LMI_JPEG_WRITE_64BIT_BAR_HIGH[0]), 0, 0 },
	{ "mmUVD_LMI_JPEG_PREEMPT_FENCE_64BIT_BAR_LOW", REG_MMIO, 0x0164, 0, &mmUVD_LMI_JPEG_PREEMPT_FENCE_64BIT_BAR_LOW[0], sizeof(mmUVD_LMI_JPEG_PREEMPT_FENCE_64BIT_BAR_LOW)/sizeof(mmUVD_LMI_JPEG_PREEMPT_FENCE_64BIT_BAR_LOW[0]), 0, 0 },
	{ "mmUVD_LMI_JPEG_PREEMPT_FENCE_64BIT_BAR_HIGH", REG_MMIO, 0x0165, 0, &mmUVD_LMI_JPEG_PREEMPT_FENCE_64BIT_BAR_HIGH[0], sizeof(mmUVD_LMI_JPEG_PREEMPT_FENCE_64BIT_BAR_HIGH)/sizeof(mmUVD_LMI_JPEG_PREEMPT_FENCE_64BIT_BAR_HIGH[0]), 0, 0 },
	{ "mmUVD_LMI_JRBC_RB_64BIT_BAR_LOW", REG_MMIO, 0x0166, 0, &mmUVD_LMI_JRBC_RB_64BIT_BAR_LOW[0], sizeof(mmUVD_LMI_JRBC_RB_64BIT_BAR_LOW)/sizeof(mmUVD_LMI_JRBC_RB_64BIT_BAR_LOW[0]), 0, 0 },
	{ "mmUVD_LMI_JRBC_RB_64BIT_BAR_HIGH", REG_MMIO, 0x0167, 0, &mmUVD_LMI_JRBC_RB_64BIT_BAR_HIGH[0], sizeof(mmUVD_LMI_JRBC_RB_64BIT_BAR_HIGH)/sizeof(mmUVD_LMI_JRBC_RB_64BIT_BAR_HIGH[0]), 0, 0 },
	{ "mmUVD_LMI_JRBC_IB_64BIT_BAR_LOW", REG_MMIO, 0x0168, 0, &mmUVD_LMI_JRBC_IB_64BIT_BAR_LOW[0], sizeof(mmUVD_LMI_JRBC_IB_64BIT_BAR_LOW)/sizeof(mmUVD_LMI_JRBC_IB_64BIT_BAR_LOW[0]), 0, 0 },
	{ "mmUVD_LMI_JRBC_IB_64BIT_BAR_HIGH", REG_MMIO, 0x0169, 0, &mmUVD_LMI_JRBC_IB_64BIT_BAR_HIGH[0], sizeof(mmUVD_LMI_JRBC_IB_64BIT_BAR_HIGH)/sizeof(mmUVD_LMI_JRBC_IB_64BIT_BAR_HIGH[0]), 0, 0 },
	{ "mmUVD_LMI_JRBC_RB_MEM_WR_64BIT_BAR_LOW", REG_MMIO, 0x016a, 0, &mmUVD_LMI_JRBC_RB_MEM_WR_64BIT_BAR_LOW[0], sizeof(mmUVD_LMI_JRBC_RB_MEM_WR_64BIT_BAR_LOW)/sizeof(mmUVD_LMI_JRBC_RB_MEM_WR_64BIT_BAR_LOW[0]), 0, 0 },
	{ "mmUVD_LMI_JRBC_RB_MEM_WR_64BIT_BAR_HIGH", REG_MMIO, 0x016b, 0, &mmUVD_LMI_JRBC_RB_MEM_WR_64BIT_BAR_HIGH[0], sizeof(mmUVD_LMI_JRBC_RB_MEM_WR_64BIT_BAR_HIGH)/sizeof(mmUVD_LMI_JRBC_RB_MEM_WR_64BIT_BAR_HIGH[0]), 0, 0 },
	{ "mmUVD_LMI_JRBC_RB_MEM_RD_64BIT_BAR_LOW", REG_MMIO, 0x016c, 0, &mmUVD_LMI_JRBC_RB_MEM_RD_64BIT_BAR_LOW[0], sizeof(mmUVD_LMI_JRBC_RB_MEM_RD_64BIT_BAR_LOW)/sizeof(mmUVD_LMI_JRBC_RB_MEM_RD_64BIT_BAR_LOW[0]), 0, 0 },
	{ "mmUVD_LMI_JRBC_RB_MEM_RD_64BIT_BAR_HIGH", REG_MMIO, 0x016d, 0, &mmUVD_LMI_JRBC_RB_MEM_RD_64BIT_BAR_HIGH[0], sizeof(mmUVD_LMI_JRBC_RB_MEM_RD_64BIT_BAR_HIGH)/sizeof(mmUVD_LMI_JRBC_RB_MEM_RD_64BIT_BAR_HIGH[0]), 0, 0 },
	{ "mmUVD_LMI_JRBC_IB_MEM_WR_64BIT_BAR_LOW", REG_MMIO, 0x016e, 0, &mmUVD_LMI_JRBC_IB_MEM_WR_64BIT_BAR_LOW[0], sizeof(mmUVD_LMI_JRBC_IB_MEM_WR_64BIT_BAR_LOW)/sizeof(mmUVD_LMI_JRBC_IB_MEM_WR_64BIT_BAR_LOW[0]), 0, 0 },
	{ "mmUVD_LMI_JRBC_IB_MEM_WR_64BIT_BAR_HIGH", REG_MMIO, 0x016f, 0, &mmUVD_LMI_JRBC_IB_MEM_WR_64BIT_BAR_HIGH[0], sizeof(mmUVD_LMI_JRBC_IB_MEM_WR_64BIT_BAR_HIGH)/sizeof(mmUVD_LMI_JRBC_IB_MEM_WR_64BIT_BAR_HIGH[0]), 0, 0 },
	{ "mmUVD_LMI_JRBC_IB_MEM_RD_64BIT_BAR_LOW", REG_MMIO, 0x0170, 0, &mmUVD_LMI_JRBC_IB_MEM_RD_64BIT_BAR_LOW[0], sizeof(mmUVD_LMI_JRBC_IB_MEM_RD_64BIT_BAR_LOW)/sizeof(mmUVD_LMI_JRBC_IB_MEM_RD_64BIT_BAR_LOW[0]), 0, 0 },
	{ "mmUVD_LMI_JRBC_IB_MEM_RD_64BIT_BAR_HIGH", REG_MMIO, 0x0171, 0, &mmUVD_LMI_JRBC_IB_MEM_RD_64BIT_BAR_HIGH[0], sizeof(mmUVD_LMI_JRBC_IB_MEM_RD_64BIT_BAR_HIGH)/sizeof(mmUVD_LMI_JRBC_IB_MEM_RD_64BIT_BAR_HIGH[0]), 0, 0 },
	{ "mmUVD_LMI_EJPEG_PREEMPT_FENCE_64BIT_BAR_LOW", REG_MMIO, 0x017a, 0, &mmUVD_LMI_EJPEG_PREEMPT_FENCE_64BIT_BAR_LOW[0], sizeof(mmUVD_LMI_EJPEG_PREEMPT_FENCE_64BIT_BAR_LOW)/sizeof(mmUVD_LMI_EJPEG_PREEMPT_FENCE_64BIT_BAR_LOW[0]), 0, 0 },
	{ "mmUVD_LMI_EJPEG_PREEMPT_FENCE_64BIT_BAR_HIGH", REG_MMIO, 0x017b, 0, &mmUVD_LMI_EJPEG_PREEMPT_FENCE_64BIT_BAR_HIGH[0], sizeof(mmUVD_LMI_EJPEG_PREEMPT_FENCE_64BIT_BAR_HIGH)/sizeof(mmUVD_LMI_EJPEG_PREEMPT_FENCE_64BIT_BAR_HIGH[0]), 0, 0 },
	{ "mmUVD_LMI_EJRBC_RB_64BIT_BAR_LOW", REG_MMIO, 0x017c, 0, &mmUVD_LMI_EJRBC_RB_64BIT_BAR_LOW[0], sizeof(mmUVD_LMI_EJRBC_RB_64BIT_BAR_LOW)/sizeof(mmUVD_LMI_EJRBC_RB_64BIT_BAR_LOW[0]), 0, 0 },
	{ "mmUVD_LMI_EJRBC_RB_64BIT_BAR_HIGH", REG_MMIO, 0x017d, 0, &mmUVD_LMI_EJRBC_RB_64BIT_BAR_HIGH[0], sizeof(mmUVD_LMI_EJRBC_RB_64BIT_BAR_HIGH)/sizeof(mmUVD_LMI_EJRBC_RB_64BIT_BAR_HIGH[0]), 0, 0 },
	{ "mmUVD_LMI_EJRBC_IB_64BIT_BAR_LOW", REG_MMIO, 0x017e, 0, &mmUVD_LMI_EJRBC_IB_64BIT_BAR_LOW[0], sizeof(mmUVD_LMI_EJRBC_IB_64BIT_BAR_LOW)/sizeof(mmUVD_LMI_EJRBC_IB_64BIT_BAR_LOW[0]), 0, 0 },
	{ "mmUVD_LMI_EJRBC_IB_64BIT_BAR_HIGH", REG_MMIO, 0x017f, 0, &mmUVD_LMI_EJRBC_IB_64BIT_BAR_HIGH[0], sizeof(mmUVD_LMI_EJRBC_IB_64BIT_BAR_HIGH)/sizeof(mmUVD_LMI_EJRBC_IB_64BIT_BAR_HIGH[0]), 0, 0 },
	{ "mmUVD_LMI_EJRBC_RB_MEM_WR_64BIT_BAR_LOW", REG_MMIO, 0x0180, 0, &mmUVD_LMI_EJRBC_RB_MEM_WR_64BIT_BAR_LOW[0], sizeof(mmUVD_LMI_EJRBC_RB_MEM_WR_64BIT_BAR_LOW)/sizeof(mmUVD_LMI_EJRBC_RB_MEM_WR_64BIT_BAR_LOW[0]), 0, 0 },
	{ "mmUVD_LMI_EJRBC_RB_MEM_WR_64BIT_BAR_HIGH", REG_MMIO, 0x0181, 0, &mmUVD_LMI_EJRBC_RB_MEM_WR_64BIT_BAR_HIGH[0], sizeof(mmUVD_LMI_EJRBC_RB_MEM_WR_64BIT_BAR_HIGH)/sizeof(mmUVD_LMI_EJRBC_RB_MEM_WR_64BIT_BAR_HIGH[0]), 0, 0 },
	{ "mmUVD_LMI_EJRBC_RB_MEM_RD_64BIT_BAR_LOW", REG_MMIO, 0x0182, 0, &mmUVD_LMI_EJRBC_RB_MEM_RD_64BIT_BAR_LOW[0], sizeof(mmUVD_LMI_EJRBC_RB_MEM_RD_64BIT_BAR_LOW)/sizeof(mmUVD_LMI_EJRBC_RB_MEM_RD_64BIT_BAR_LOW[0]), 0, 0 },
	{ "mmUVD_LMI_EJRBC_RB_MEM_RD_64BIT_BAR_HIGH", REG_MMIO, 0x0183, 0, &mmUVD_LMI_EJRBC_RB_MEM_RD_64BIT_BAR_HIGH[0], sizeof(mmUVD_LMI_EJRBC_RB_MEM_RD_64BIT_BAR_HIGH)/sizeof(mmUVD_LMI_EJRBC_RB_MEM_RD_64BIT_BAR_HIGH[0]), 0, 0 },
	{ "mmUVD_LMI_EJRBC_IB_MEM_WR_64BIT_BAR_LOW", REG_MMIO, 0x0184, 0, &mmUVD_LMI_EJRBC_IB_MEM_WR_64BIT_BAR_LOW[0], sizeof(mmUVD_LMI_EJRBC_IB_MEM_WR_64BIT_BAR_LOW)/sizeof(mmUVD_LMI_EJRBC_IB_MEM_WR_64BIT_BAR_LOW[0]), 0, 0 },
	{ "mmUVD_LMI_EJRBC_IB_MEM_WR_64BIT_BAR_HIGH", REG_MMIO, 0x0185, 0, &mmUVD_LMI_EJRBC_IB_MEM_WR_64BIT_BAR_HIGH[0], sizeof(mmUVD_LMI_EJRBC_IB_MEM_WR_64BIT_BAR_HIGH)/sizeof(mmUVD_LMI_EJRBC_IB_MEM_WR_64BIT_BAR_HIGH[0]), 0, 0 },
	{ "mmUVD_LMI_EJRBC_IB_MEM_RD_64BIT_BAR_LOW", REG_MMIO, 0x0186, 0, &mmUVD_LMI_EJRBC_IB_MEM_RD_64BIT_BAR_LOW[0], sizeof(mmUVD_LMI_EJRBC_IB_MEM_RD_64BIT_BAR_LOW)/sizeof(mmUVD_LMI_EJRBC_IB_MEM_RD_64BIT_BAR_LOW[0]), 0, 0 },
	{ "mmUVD_LMI_EJRBC_IB_MEM_RD_64BIT_BAR_HIGH", REG_MMIO, 0x0187, 0, &mmUVD_LMI_EJRBC_IB_MEM_RD_64BIT_BAR_HIGH[0], sizeof(mmUVD_LMI_EJRBC_IB_MEM_RD_64BIT_BAR_HIGH)/sizeof(mmUVD_LMI_EJRBC_IB_MEM_RD_64BIT_BAR_HIGH[0]), 0, 0 },
	{ "mmUVD_LMI_JPEG_PREEMPT_VMID", REG_MMIO, 0x0188, 0, &mmUVD_LMI_JPEG_PREEMPT_VMID[0], sizeof(mmUVD_LMI_JPEG_PREEMPT_VMID)/sizeof(mmUVD_LMI_JPEG_PREEMPT_VMID[0]), 0, 0 },
	{ "mmUVD_LMI_ENC_JPEG_PREEMPT_VMID", REG_MMIO, 0x0189, 0, &mmUVD_LMI_ENC_JPEG_PREEMPT_VMID[0], sizeof(mmUVD_LMI_ENC_JPEG_PREEMPT_VMID)/sizeof(mmUVD_LMI_ENC_JPEG_PREEMPT_VMID[0]), 0, 0 },
	{ "mmUVD_LMI_JPEG2_VMID", REG_MMIO, 0x018a, 0, &mmUVD_LMI_JPEG2_VMID[0], sizeof(mmUVD_LMI_JPEG2_VMID)/sizeof(mmUVD_LMI_JPEG2_VMID[0]), 0, 0 },
	{ "mmUVD_LMI_JPEG2_READ_64BIT_BAR_LOW", REG_MMIO, 0x018b, 0, &mmUVD_LMI_JPEG2_READ_64BIT_BAR_LOW[0], sizeof(mmUVD_LMI_JPEG2_READ_64BIT_BAR_LOW)/sizeof(mmUVD_LMI_JPEG2_READ_64BIT_BAR_LOW[0]), 0, 0 },
	{ "mmUVD_LMI_JPEG2_READ_64BIT_BAR_HIGH", REG_MMIO, 0x018c, 0, &mmUVD_LMI_JPEG2_READ_64BIT_BAR_HIGH[0], sizeof(mmUVD_LMI_JPEG2_READ_64BIT_BAR_HIGH)/sizeof(mmUVD_LMI_JPEG2_READ_64BIT_BAR_HIGH[0]), 0, 0 },
	{ "mmUVD_LMI_JPEG2_WRITE_64BIT_BAR_LOW", REG_MMIO, 0x018d, 0, &mmUVD_LMI_JPEG2_WRITE_64BIT_BAR_LOW[0], sizeof(mmUVD_LMI_JPEG2_WRITE_64BIT_BAR_LOW)/sizeof(mmUVD_LMI_JPEG2_WRITE_64BIT_BAR_LOW[0]), 0, 0 },
	{ "mmUVD_LMI_JPEG2_WRITE_64BIT_BAR_HIGH", REG_MMIO, 0x018e, 0, &mmUVD_LMI_JPEG2_WRITE_64BIT_BAR_HIGH[0], sizeof(mmUVD_LMI_JPEG2_WRITE_64BIT_BAR_HIGH)/sizeof(mmUVD_LMI_JPEG2_WRITE_64BIT_BAR_HIGH[0]), 0, 0 },
	{ "mmUVD_LMI_JPEG_CTRL2", REG_MMIO, 0x018f, 0, &mmUVD_LMI_JPEG_CTRL2[0], sizeof(mmUVD_LMI_JPEG_CTRL2)/sizeof(mmUVD_LMI_JPEG_CTRL2[0]), 0, 0 },
	{ "mmUVD_JMI_DEC_SWAP_CNTL", REG_MMIO, 0x0190, 0, &mmUVD_JMI_DEC_SWAP_CNTL[0], sizeof(mmUVD_JMI_DEC_SWAP_CNTL)/sizeof(mmUVD_JMI_DEC_SWAP_CNTL[0]), 0, 0 },
	{ "mmUVD_JMI_ENC_SWAP_CNTL", REG_MMIO, 0x0191, 0, &mmUVD_JMI_ENC_SWAP_CNTL[0], sizeof(mmUVD_JMI_ENC_SWAP_CNTL)/sizeof(mmUVD_JMI_ENC_SWAP_CNTL[0]), 0, 0 },
	{ "mmUVD_JMI_CNTL", REG_MMIO, 0x0192, 0, &mmUVD_JMI_CNTL[0], sizeof(mmUVD_JMI_CNTL)/sizeof(mmUVD_JMI_CNTL[0]), 0, 0 },
	{ "mmUVD_JMI_HUFF_FENCE_64BIT_BAR_LOW", REG_MMIO, 0x019a, 0, &mmUVD_JMI_HUFF_FENCE_64BIT_BAR_LOW[0], sizeof(mmUVD_JMI_HUFF_FENCE_64BIT_BAR_LOW)/sizeof(mmUVD_JMI_HUFF_FENCE_64BIT_BAR_LOW[0]), 0, 0 },
	{ "mmUVD_JMI_HUFF_FENCE_64BIT_BAR_HIGH", REG_MMIO, 0x019b, 0, &mmUVD_JMI_HUFF_FENCE_64BIT_BAR_HIGH[0], sizeof(mmUVD_JMI_HUFF_FENCE_64BIT_BAR_HIGH)/sizeof(mmUVD_JMI_HUFF_FENCE_64BIT_BAR_HIGH[0]), 0, 0 },
	{ "mmUVD_JMI_DEC_SWAP_CNTL2", REG_MMIO, 0x019c, 0, &mmUVD_JMI_DEC_SWAP_CNTL2[0], sizeof(mmUVD_JMI_DEC_SWAP_CNTL2)/sizeof(mmUVD_JMI_DEC_SWAP_CNTL2[0]), 0, 0 },
	{ "mmJPEG_SOFT_RESET_STATUS", REG_MMIO, 0x01c0, 0, &mmJPEG_SOFT_RESET_STATUS[0], sizeof(mmJPEG_SOFT_RESET_STATUS)/sizeof(mmJPEG_SOFT_RESET_STATUS[0]), 0, 0 },
	{ "mmJPEG_SYS_INT_EN", REG_MMIO, 0x01c1, 0, &mmJPEG_SYS_INT_EN[0], sizeof(mmJPEG_SYS_INT_EN)/sizeof(mmJPEG_SYS_INT_EN[0]), 0, 0 },
	{ "mmJPEG_SYS_INT_STATUS", REG_MMIO, 0x01c2, 0, &mmJPEG_SYS_INT_STATUS[0], sizeof(mmJPEG_SYS_INT_STATUS)/sizeof(mmJPEG_SYS_INT_STATUS[0]), 0, 0 },
	{ "mmJPEG_SYS_INT_ACK", REG_MMIO, 0x01c3, 0, &mmJPEG_SYS_INT_ACK[0], sizeof(mmJPEG_SYS_INT_ACK)/sizeof(mmJPEG_SYS_INT_ACK[0]), 0, 0 },
	{ "mmJPEG_MASTINT_EN", REG_MMIO, 0x01c8, 0, &mmJPEG_MASTINT_EN[0], sizeof(mmJPEG_MASTINT_EN)/sizeof(mmJPEG_MASTINT_EN[0]), 0, 0 },
	{ "mmJPEG_IH_CTRL", REG_MMIO, 0x01c9, 0, &mmJPEG_IH_CTRL[0], sizeof(mmJPEG_IH_CTRL)/sizeof(mmJPEG_IH_CTRL[0]), 0, 0 },
	{ "mmJRBBM_ARB_CTRL", REG_MMIO, 0x01cb, 0, &mmJRBBM_ARB_CTRL[0], sizeof(mmJRBBM_ARB_CTRL)/sizeof(mmJRBBM_ARB_CTRL[0]), 0, 0 },
	{ "mmJPEG_CGC_GATE", REG_MMIO, 0x01e0, 0, &mmJPEG_CGC_GATE[0], sizeof(mmJPEG_CGC_GATE)/sizeof(mmJPEG_CGC_GATE[0]), 0, 0 },
	{ "mmJPEG_CGC_CTRL", REG_MMIO, 0x01e1, 0, &mmJPEG_CGC_CTRL[0], sizeof(mmJPEG_CGC_CTRL)/sizeof(mmJPEG_CGC_CTRL[0]), 0, 0 },
	{ "mmJPEG_CGC_STATUS", REG_MMIO, 0x01e2, 0, &mmJPEG_CGC_STATUS[0], sizeof(mmJPEG_CGC_STATUS)/sizeof(mmJPEG_CGC_STATUS[0]), 0, 0 },
	{ "mmJPEG_COMN_CGC_MEM_CTRL", REG_MMIO, 0x01e3, 0, &mmJPEG_COMN_CGC_MEM_CTRL[0], sizeof(mmJPEG_COMN_CGC_MEM_CTRL)/sizeof(mmJPEG_COMN_CGC_MEM_CTRL[0]), 0, 0 },
	{ "mmJPEG_DEC_CGC_MEM_CTRL", REG_MMIO, 0x01e4, 0, &mmJPEG_DEC_CGC_MEM_CTRL[0], sizeof(mmJPEG_DEC_CGC_MEM_CTRL)/sizeof(mmJPEG_DEC_CGC_MEM_CTRL[0]), 0, 0 },
	{ "mmJPEG2_DEC_CGC_MEM_CTRL", REG_MMIO, 0x01e5, 0, &mmJPEG2_DEC_CGC_MEM_CTRL[0], sizeof(mmJPEG2_DEC_CGC_MEM_CTRL)/sizeof(mmJPEG2_DEC_CGC_MEM_CTRL[0]), 0, 0 },
	{ "mmJPEG_ENC_CGC_MEM_CTRL", REG_MMIO, 0x01e6, 0, &mmJPEG_ENC_CGC_MEM_CTRL[0], sizeof(mmJPEG_ENC_CGC_MEM_CTRL)/sizeof(mmJPEG_ENC_CGC_MEM_CTRL[0]), 0, 0 },
	{ "mmJPEG_SOFT_RESET2", REG_MMIO, 0x01e7, 0, &mmJPEG_SOFT_RESET2[0], sizeof(mmJPEG_SOFT_RESET2)/sizeof(mmJPEG_SOFT_RESET2[0]), 0, 0 },
	{ "mmJPEG_PERF_BANK_CONF", REG_MMIO, 0x01e8, 0, &mmJPEG_PERF_BANK_CONF[0], sizeof(mmJPEG_PERF_BANK_CONF)/sizeof(mmJPEG_PERF_BANK_CONF[0]), 0, 0 },
	{ "mmJPEG_PERF_BANK_EVENT_SEL", REG_MMIO, 0x01e9, 0, &mmJPEG_PERF_BANK_EVENT_SEL[0], sizeof(mmJPEG_PERF_BANK_EVENT_SEL)/sizeof(mmJPEG_PERF_BANK_EVENT_SEL[0]), 0, 0 },
	{ "mmJPEG_PERF_BANK_COUNT0", REG_MMIO, 0x01ea, 0, &mmJPEG_PERF_BANK_COUNT0[0], sizeof(mmJPEG_PERF_BANK_COUNT0)/sizeof(mmJPEG_PERF_BANK_COUNT0[0]), 0, 0 },
	{ "mmJPEG_PERF_BANK_COUNT1", REG_MMIO, 0x01eb, 0, &mmJPEG_PERF_BANK_COUNT1[0], sizeof(mmJPEG_PERF_BANK_COUNT1)/sizeof(mmJPEG_PERF_BANK_COUNT1[0]), 0, 0 },
	{ "mmJPEG_PERF_BANK_COUNT2", REG_MMIO, 0x01ec, 0, &mmJPEG_PERF_BANK_COUNT2[0], sizeof(mmJPEG_PERF_BANK_COUNT2)/sizeof(mmJPEG_PERF_BANK_COUNT2[0]), 0, 0 },
	{ "mmJPEG_PERF_BANK_COUNT3", REG_MMIO, 0x01ed, 0, &mmJPEG_PERF_BANK_COUNT3[0], sizeof(mmJPEG_PERF_BANK_COUNT3)/sizeof(mmJPEG_PERF_BANK_COUNT3[0]), 0, 0 },
	{ "mmUVD_PGFSM_CONFIG", REG_MMIO, 0x0000, 1, &mmUVD_PGFSM_CONFIG[0], sizeof(mmUVD_PGFSM_CONFIG)/sizeof(mmUVD_PGFSM_CONFIG[0]), 0, 0 },
	{ "mmUVD_PGFSM_STATUS", REG_MMIO, 0x0001, 1, &mmUVD_PGFSM_STATUS[0], sizeof(mmUVD_PGFSM_STATUS)/sizeof(mmUVD_PGFSM_STATUS[0]), 0, 0 },
	{ "mmUVD_POWER_STATUS", REG_MMIO, 0x0004, 1, &mmUVD_POWER_STATUS[0], sizeof(mmUVD_POWER_STATUS)/sizeof(mmUVD_POWER_STATUS[0]), 0, 0 },
	{ "mmUVD_PG_IND_INDEX", REG_MMIO, 0x0005, 1, &mmUVD_PG_IND_INDEX[0], sizeof(mmUVD_PG_IND_INDEX)/sizeof(mmUVD_PG_IND_INDEX[0]), 0, 0 },
	{ "mmUVD_PG_IND_DATA", REG_MMIO, 0x0006, 1, &mmUVD_PG_IND_DATA[0], sizeof(mmUVD_PG_IND_DATA)/sizeof(mmUVD_PG_IND_DATA[0]), 0, 0 },
	{ "mmCC_UVD_HARVESTING", REG_MMIO, 0x0007, 1, &mmCC_UVD_HARVESTING[0], sizeof(mmCC_UVD_HARVESTING)/sizeof(mmCC_UVD_HARVESTING[0]), 0, 0 },
	{ "mmUVD_JPEG_POWER_STATUS", REG_MMIO, 0x000a, 1, &mmUVD_JPEG_POWER_STATUS[0], sizeof(mmUVD_JPEG_POWER_STATUS)/sizeof(mmUVD_JPEG_POWER_STATUS[0]), 0, 0 },
	{ "mmUVD_DPG_LMA_CTL", REG_MMIO, 0x0011, 1, &mmUVD_DPG_LMA_CTL[0], sizeof(mmUVD_DPG_LMA_CTL)/sizeof(mmUVD_DPG_LMA_CTL[0]), 0, 0 },
	{ "mmUVD_DPG_LMA_DATA", REG_MMIO, 0x0012, 1, &mmUVD_DPG_LMA_DATA[0], sizeof(mmUVD_DPG_LMA_DATA)/sizeof(mmUVD_DPG_LMA_DATA[0]), 0, 0 },
	{ "mmUVD_DPG_LMA_MASK", REG_MMIO, 0x0013, 1, &mmUVD_DPG_LMA_MASK[0], sizeof(mmUVD_DPG_LMA_MASK)/sizeof(mmUVD_DPG_LMA_MASK[0]), 0, 0 },
	{ "mmUVD_DPG_PAUSE", REG_MMIO, 0x0014, 1, &mmUVD_DPG_PAUSE[0], sizeof(mmUVD_DPG_PAUSE)/sizeof(mmUVD_DPG_PAUSE[0]), 0, 0 },
	{ "mmUVD_SCRATCH1", REG_MMIO, 0x0015, 1, &mmUVD_SCRATCH1[0], sizeof(mmUVD_SCRATCH1)/sizeof(mmUVD_SCRATCH1[0]), 0, 0 },
	{ "mmUVD_SCRATCH2", REG_MMIO, 0x0016, 1, &mmUVD_SCRATCH2[0], sizeof(mmUVD_SCRATCH2)/sizeof(mmUVD_SCRATCH2[0]), 0, 0 },
	{ "mmUVD_SCRATCH3", REG_MMIO, 0x0017, 1, &mmUVD_SCRATCH3[0], sizeof(mmUVD_SCRATCH3)/sizeof(mmUVD_SCRATCH3[0]), 0, 0 },
	{ "mmUVD_SCRATCH4", REG_MMIO, 0x0018, 1, &mmUVD_SCRATCH4[0], sizeof(mmUVD_SCRATCH4)/sizeof(mmUVD_SCRATCH4[0]), 0, 0 },
	{ "mmUVD_SCRATCH5", REG_MMIO, 0x0019, 1, &mmUVD_SCRATCH5[0], sizeof(mmUVD_SCRATCH5)/sizeof(mmUVD_SCRATCH5[0]), 0, 0 },
	{ "mmUVD_SCRATCH6", REG_MMIO, 0x001a, 1, &mmUVD_SCRATCH6[0], sizeof(mmUVD_SCRATCH6)/sizeof(mmUVD_SCRATCH6[0]), 0, 0 },
	{ "mmUVD_SCRATCH7", REG_MMIO, 0x001b, 1, &mmUVD_SCRATCH7[0], sizeof(mmUVD_SCRATCH7)/sizeof(mmUVD_SCRATCH7[0]), 0, 0 },
	{ "mmUVD_SCRATCH8", REG_MMIO, 0x001c, 1, &mmUVD_SCRATCH8[0], sizeof(mmUVD_SCRATCH8)/sizeof(mmUVD_SCRATCH8[0]), 0, 0 },
	{ "mmUVD_SCRATCH9", REG_MMIO, 0x001d, 1, &mmUVD_SCRATCH9[0], sizeof(mmUVD_SCRATCH9)/sizeof(mmUVD_SCRATCH9[0]), 0, 0 },
	{ "mmUVD_SCRATCH10", REG_MMIO, 0x001e, 1, &mmUVD_SCRATCH10[0], sizeof(mmUVD_SCRATCH10)/sizeof(mmUVD_SCRATCH10[0]), 0, 0 },
	{ "mmUVD_SCRATCH11", REG_MMIO, 0x001f, 1, &mmUVD_SCRATCH11[0], sizeof(mmUVD_SCRATCH11)/sizeof(mmUVD_SCRATCH11[0]), 0, 0 },
	{ "mmUVD_SCRATCH12", REG_MMIO, 0x0020, 1, &mmUVD_SCRATCH12[0], sizeof(mmUVD_SCRATCH12)/sizeof(mmUVD_SCRATCH12[0]), 0, 0 },
	{ "mmUVD_SCRATCH13", REG_MMIO, 0x0021, 1, &mmUVD_SCRATCH13[0], sizeof(mmUVD_SCRATCH13)/sizeof(mmUVD_SCRATCH13[0]), 0, 0 },
	{ "mmUVD_SCRATCH14", REG_MMIO, 0x0022, 1, &mmUVD_SCRATCH14[0], sizeof(mmUVD_SCRATCH14)/sizeof(mmUVD_SCRATCH14[0]), 0, 0 },
	{ "mmUVD_FREE_COUNTER_REG", REG_MMIO, 0x0024, 1, &mmUVD_FREE_COUNTER_REG[0], sizeof(mmUVD_FREE_COUNTER_REG)/sizeof(mmUVD_FREE_COUNTER_REG[0]), 0, 0 },
	{ "mmUVD_DPG_LMI_VCPU_CACHE_64BIT_BAR_LOW", REG_MMIO, 0x0025, 1, &mmUVD_DPG_LMI_VCPU_CACHE_64BIT_BAR_LOW[0], sizeof(mmUVD_DPG_LMI_VCPU_CACHE_64BIT_BAR_LOW)/sizeof(mmUVD_DPG_LMI_VCPU_CACHE_64BIT_BAR_LOW[0]), 0, 0 },
	{ "mmUVD_DPG_LMI_VCPU_CACHE_64BIT_BAR_HIGH", REG_MMIO, 0x0026, 1, &mmUVD_DPG_LMI_VCPU_CACHE_64BIT_BAR_HIGH[0], sizeof(mmUVD_DPG_LMI_VCPU_CACHE_64BIT_BAR_HIGH)/sizeof(mmUVD_DPG_LMI_VCPU_CACHE_64BIT_BAR_HIGH[0]), 0, 0 },
	{ "mmUVD_DPG_VCPU_CACHE_OFFSET0", REG_MMIO, 0x0027, 1, &mmUVD_DPG_VCPU_CACHE_OFFSET0[0], sizeof(mmUVD_DPG_VCPU_CACHE_OFFSET0)/sizeof(mmUVD_DPG_VCPU_CACHE_OFFSET0[0]), 0, 0 },
	{ "mmUVD_DPG_LMI_VCPU_CACHE_VMID", REG_MMIO, 0x0028, 1, &mmUVD_DPG_LMI_VCPU_CACHE_VMID[0], sizeof(mmUVD_DPG_LMI_VCPU_CACHE_VMID)/sizeof(mmUVD_DPG_LMI_VCPU_CACHE_VMID[0]), 0, 0 },
	{ "mmUVD_PF_STATUS", REG_MMIO, 0x0039, 1, &mmUVD_PF_STATUS[0], sizeof(mmUVD_PF_STATUS)/sizeof(mmUVD_PF_STATUS[0]), 0, 0 },
	{ "mmUVD_DPG_CLK_EN_VCPU_REPORT", REG_MMIO, 0x003c, 1, &mmUVD_DPG_CLK_EN_VCPU_REPORT[0], sizeof(mmUVD_DPG_CLK_EN_VCPU_REPORT)/sizeof(mmUVD_DPG_CLK_EN_VCPU_REPORT[0]), 0, 0 },
	{ "mmUVD_GFX8_ADDR_CONFIG", REG_MMIO, 0x0049, 1, &mmUVD_GFX8_ADDR_CONFIG[0], sizeof(mmUVD_GFX8_ADDR_CONFIG)/sizeof(mmUVD_GFX8_ADDR_CONFIG[0]), 0, 0 },
	{ "mmUVD_GFX10_ADDR_CONFIG", REG_MMIO, 0x004a, 1, &mmUVD_GFX10_ADDR_CONFIG[0], sizeof(mmUVD_GFX10_ADDR_CONFIG)/sizeof(mmUVD_GFX10_ADDR_CONFIG[0]), 0, 0 },
	{ "mmUVD_GPCNT2_CNTL", REG_MMIO, 0x004b, 1, &mmUVD_GPCNT2_CNTL[0], sizeof(mmUVD_GPCNT2_CNTL)/sizeof(mmUVD_GPCNT2_CNTL[0]), 0, 0 },
	{ "mmUVD_GPCNT2_TARGET_LOWER", REG_MMIO, 0x004c, 1, &mmUVD_GPCNT2_TARGET_LOWER[0], sizeof(mmUVD_GPCNT2_TARGET_LOWER)/sizeof(mmUVD_GPCNT2_TARGET_LOWER[0]), 0, 0 },
	{ "mmUVD_GPCNT2_STATUS_LOWER", REG_MMIO, 0x004d, 1, &mmUVD_GPCNT2_STATUS_LOWER[0], sizeof(mmUVD_GPCNT2_STATUS_LOWER)/sizeof(mmUVD_GPCNT2_STATUS_LOWER[0]), 0, 0 },
	{ "mmUVD_GPCNT2_TARGET_UPPER", REG_MMIO, 0x004e, 1, &mmUVD_GPCNT2_TARGET_UPPER[0], sizeof(mmUVD_GPCNT2_TARGET_UPPER)/sizeof(mmUVD_GPCNT2_TARGET_UPPER[0]), 0, 0 },
	{ "mmUVD_GPCNT2_STATUS_UPPER", REG_MMIO, 0x004f, 1, &mmUVD_GPCNT2_STATUS_UPPER[0], sizeof(mmUVD_GPCNT2_STATUS_UPPER)/sizeof(mmUVD_GPCNT2_STATUS_UPPER[0]), 0, 0 },
	{ "mmUVD_GPCNT3_CNTL", REG_MMIO, 0x0050, 1, &mmUVD_GPCNT3_CNTL[0], sizeof(mmUVD_GPCNT3_CNTL)/sizeof(mmUVD_GPCNT3_CNTL[0]), 0, 0 },
	{ "mmUVD_GPCNT3_TARGET_LOWER", REG_MMIO, 0x0051, 1, &mmUVD_GPCNT3_TARGET_LOWER[0], sizeof(mmUVD_GPCNT3_TARGET_LOWER)/sizeof(mmUVD_GPCNT3_TARGET_LOWER[0]), 0, 0 },
	{ "mmUVD_GPCNT3_STATUS_LOWER", REG_MMIO, 0x0052, 1, &mmUVD_GPCNT3_STATUS_LOWER[0], sizeof(mmUVD_GPCNT3_STATUS_LOWER)/sizeof(mmUVD_GPCNT3_STATUS_LOWER[0]), 0, 0 },
	{ "mmUVD_GPCNT3_TARGET_UPPER", REG_MMIO, 0x0053, 1, &mmUVD_GPCNT3_TARGET_UPPER[0], sizeof(mmUVD_GPCNT3_TARGET_UPPER)/sizeof(mmUVD_GPCNT3_TARGET_UPPER[0]), 0, 0 },
	{ "mmUVD_GPCNT3_STATUS_UPPER", REG_MMIO, 0x0054, 1, &mmUVD_GPCNT3_STATUS_UPPER[0], sizeof(mmUVD_GPCNT3_STATUS_UPPER)/sizeof(mmUVD_GPCNT3_STATUS_UPPER[0]), 0, 0 },
	{ "mmUVD_TSC_LOWER", REG_MMIO, 0x0057, 1, &mmUVD_TSC_LOWER[0], sizeof(mmUVD_TSC_LOWER)/sizeof(mmUVD_TSC_LOWER[0]), 0, 0 },
	{ "mmUVD_TSC_UPPER", REG_MMIO, 0x0058, 1, &mmUVD_TSC_UPPER[0], sizeof(mmUVD_TSC_UPPER)/sizeof(mmUVD_TSC_UPPER[0]), 0, 0 },
	{ "mmUVD_SEMA_CNTL", REG_MMIO, 0x01c0, 1, &mmUVD_SEMA_CNTL[0], sizeof(mmUVD_SEMA_CNTL)/sizeof(mmUVD_SEMA_CNTL[0]), 0, 0 },
	{ "mmUVD_RB_RPTR3", REG_MMIO, 0x01db, 1, &mmUVD_RB_RPTR3[0], sizeof(mmUVD_RB_RPTR3)/sizeof(mmUVD_RB_RPTR3[0]), 0, 0 },
	{ "mmUVD_RB_WPTR3", REG_MMIO, 0x01dc, 1, &mmUVD_RB_WPTR3[0], sizeof(mmUVD_RB_WPTR3)/sizeof(mmUVD_RB_WPTR3[0]), 0, 0 },
	{ "mmUVD_RB_BASE_LO3", REG_MMIO, 0x01dd, 1, &mmUVD_RB_BASE_LO3[0], sizeof(mmUVD_RB_BASE_LO3)/sizeof(mmUVD_RB_BASE_LO3[0]), 0, 0 },
	{ "mmUVD_RB_BASE_HI3", REG_MMIO, 0x01de, 1, &mmUVD_RB_BASE_HI3[0], sizeof(mmUVD_RB_BASE_HI3)/sizeof(mmUVD_RB_BASE_HI3[0]), 0, 0 },
	{ "mmUVD_RB_SIZE3", REG_MMIO, 0x01df, 1, &mmUVD_RB_SIZE3[0], sizeof(mmUVD_RB_SIZE3)/sizeof(mmUVD_RB_SIZE3[0]), 0, 0 },
	{ "mmUVD_RB_ARB_CTRL", REG_MMIO, 0x01e0, 1, &mmUVD_RB_ARB_CTRL[0], sizeof(mmUVD_RB_ARB_CTRL)/sizeof(mmUVD_RB_ARB_CTRL[0]), 0, 0 },
	{ "mmUVD_LMI_LAT_CTRL", REG_MMIO, 0x01e2, 1, &mmUVD_LMI_LAT_CTRL[0], sizeof(mmUVD_LMI_LAT_CTRL)/sizeof(mmUVD_LMI_LAT_CTRL[0]), 0, 0 },
	{ "mmUVD_LMI_LAT_CNTR", REG_MMIO, 0x01e3, 1, &mmUVD_LMI_LAT_CNTR[0], sizeof(mmUVD_LMI_LAT_CNTR)/sizeof(mmUVD_LMI_LAT_CNTR[0]), 0, 0 },
	{ "mmUVD_LMI_AVG_LAT_CNTR", REG_MMIO, 0x01e4, 1, &mmUVD_LMI_AVG_LAT_CNTR[0], sizeof(mmUVD_LMI_AVG_LAT_CNTR)/sizeof(mmUVD_LMI_AVG_LAT_CNTR[0]), 0, 0 },
	{ "mmUVD_SOFT_RESET2", REG_MMIO, 0x01e6, 1, &mmUVD_SOFT_RESET2[0], sizeof(mmUVD_SOFT_RESET2)/sizeof(mmUVD_SOFT_RESET2[0]), 0, 0 },
	{ "mmUVD_LMI_SPH", REG_MMIO, 0x01e7, 1, &mmUVD_LMI_SPH[0], sizeof(mmUVD_LMI_SPH)/sizeof(mmUVD_LMI_SPH[0]), 0, 0 },
	{ "mmUVD_CTX_INDEX", REG_MMIO, 0x01e8, 1, &mmUVD_CTX_INDEX[0], sizeof(mmUVD_CTX_INDEX)/sizeof(mmUVD_CTX_INDEX[0]), 0, 0 },
	{ "mmUVD_CTX_DATA", REG_MMIO, 0x01e9, 1, &mmUVD_CTX_DATA[0], sizeof(mmUVD_CTX_DATA)/sizeof(mmUVD_CTX_DATA[0]), 0, 0 },
	{ "mmUVD_CGC_GATE", REG_MMIO, 0x01ea, 1, &mmUVD_CGC_GATE[0], sizeof(mmUVD_CGC_GATE)/sizeof(mmUVD_CGC_GATE[0]), 0, 0 },
	{ "mmUVD_CGC_STATUS", REG_MMIO, 0x01eb, 1, &mmUVD_CGC_STATUS[0], sizeof(mmUVD_CGC_STATUS)/sizeof(mmUVD_CGC_STATUS[0]), 0, 0 },
	{ "mmUVD_CGC_CTRL", REG_MMIO, 0x01ec, 1, &mmUVD_CGC_CTRL[0], sizeof(mmUVD_CGC_CTRL)/sizeof(mmUVD_CGC_CTRL[0]), 0, 0 },
	{ "mmUVD_CGC_UDEC_STATUS", REG_MMIO, 0x01ed, 1, &mmUVD_CGC_UDEC_STATUS[0], sizeof(mmUVD_CGC_UDEC_STATUS)/sizeof(mmUVD_CGC_UDEC_STATUS[0]), 0, 0 },
	{ "mmUVD_CXW_WR_INT_ID", REG_MMIO, 0x01ee, 1, &mmUVD_CXW_WR_INT_ID[0], sizeof(mmUVD_CXW_WR_INT_ID)/sizeof(mmUVD_CXW_WR_INT_ID[0]), 0, 0 },
	{ "mmUVD_CXW_WR_INT_CTX_ID", REG_MMIO, 0x01ef, 1, &mmUVD_CXW_WR_INT_CTX_ID[0], sizeof(mmUVD_CXW_WR_INT_CTX_ID)/sizeof(mmUVD_CXW_WR_INT_CTX_ID[0]), 0, 0 },
	{ "mmUVD_VCPU_INT_ROUTE", REG_MMIO, 0x01f3, 1, &mmUVD_VCPU_INT_ROUTE[0], sizeof(mmUVD_VCPU_INT_ROUTE)/sizeof(mmUVD_VCPU_INT_ROUTE[0]), 0, 0 },
	{ "mmUVD_GP_SCRATCH0", REG_MMIO, 0x01f4, 1, &mmUVD_GP_SCRATCH0[0], sizeof(mmUVD_GP_SCRATCH0)/sizeof(mmUVD_GP_SCRATCH0[0]), 0, 0 },
	{ "mmUVD_GP_SCRATCH1", REG_MMIO, 0x01f5, 1, &mmUVD_GP_SCRATCH1[0], sizeof(mmUVD_GP_SCRATCH1)/sizeof(mmUVD_GP_SCRATCH1[0]), 0, 0 },
	{ "mmUVD_GP_SCRATCH2", REG_MMIO, 0x01f6, 1, &mmUVD_GP_SCRATCH2[0], sizeof(mmUVD_GP_SCRATCH2)/sizeof(mmUVD_GP_SCRATCH2[0]), 0, 0 },
	{ "mmUVD_GP_SCRATCH3", REG_MMIO, 0x01f7, 1, &mmUVD_GP_SCRATCH3[0], sizeof(mmUVD_GP_SCRATCH3)/sizeof(mmUVD_GP_SCRATCH3[0]), 0, 0 },
	{ "mmUVD_GP_SCRATCH4", REG_MMIO, 0x01f8, 1, &mmUVD_GP_SCRATCH4[0], sizeof(mmUVD_GP_SCRATCH4)/sizeof(mmUVD_GP_SCRATCH4[0]), 0, 0 },
	{ "mmUVD_GP_SCRATCH5", REG_MMIO, 0x01f9, 1, &mmUVD_GP_SCRATCH5[0], sizeof(mmUVD_GP_SCRATCH5)/sizeof(mmUVD_GP_SCRATCH5[0]), 0, 0 },
	{ "mmUVD_GP_SCRATCH6", REG_MMIO, 0x01fa, 1, &mmUVD_GP_SCRATCH6[0], sizeof(mmUVD_GP_SCRATCH6)/sizeof(mmUVD_GP_SCRATCH6[0]), 0, 0 },
	{ "mmUVD_GP_SCRATCH7", REG_MMIO, 0x01fb, 1, &mmUVD_GP_SCRATCH7[0], sizeof(mmUVD_GP_SCRATCH7)/sizeof(mmUVD_GP_SCRATCH7[0]), 0, 0 },
	{ "mmUVD_LMI_VCPU_CACHE_VMID", REG_MMIO, 0x01fc, 1, &mmUVD_LMI_VCPU_CACHE_VMID[0], sizeof(mmUVD_LMI_VCPU_CACHE_VMID)/sizeof(mmUVD_LMI_VCPU_CACHE_VMID[0]), 0, 0 },
	{ "mmUVD_LMI_CTRL2", REG_MMIO, 0x01fd, 1, &mmUVD_LMI_CTRL2[0], sizeof(mmUVD_LMI_CTRL2)/sizeof(mmUVD_LMI_CTRL2[0]), 0, 0 },
	{ "mmUVD_MASTINT_EN", REG_MMIO, 0x0200, 1, &mmUVD_MASTINT_EN[0], sizeof(mmUVD_MASTINT_EN)/sizeof(mmUVD_MASTINT_EN[0]), 0, 0 },
	{ "mmUVD_SYS_INT_EN", REG_MMIO, 0x0201, 1, &mmUVD_SYS_INT_EN[0], sizeof(mmUVD_SYS_INT_EN)/sizeof(mmUVD_SYS_INT_EN[0]), 0, 0 },
	{ "mmUVD_SYS_INT_STATUS", REG_MMIO, 0x0202, 1, &mmUVD_SYS_INT_STATUS[0], sizeof(mmUVD_SYS_INT_STATUS)/sizeof(mmUVD_SYS_INT_STATUS[0]), 0, 0 },
	{ "mmUVD_SYS_INT_ACK", REG_MMIO, 0x0203, 1, &mmUVD_SYS_INT_ACK[0], sizeof(mmUVD_SYS_INT_ACK)/sizeof(mmUVD_SYS_INT_ACK[0]), 0, 0 },
	{ "mmUVD_VCPU_INT_EN", REG_MMIO, 0x0204, 1, &mmUVD_VCPU_INT_EN[0], sizeof(mmUVD_VCPU_INT_EN)/sizeof(mmUVD_VCPU_INT_EN[0]), 0, 0 },
	{ "mmUVD_VCPU_INT_ACK", REG_MMIO, 0x0206, 1, &mmUVD_VCPU_INT_ACK[0], sizeof(mmUVD_VCPU_INT_ACK)/sizeof(mmUVD_VCPU_INT_ACK[0]), 0, 0 },
	{ "mmUVD_TOP_CTRL", REG_MMIO, 0x0207, 1, &mmUVD_TOP_CTRL[0], sizeof(mmUVD_TOP_CTRL)/sizeof(mmUVD_TOP_CTRL[0]), 0, 0 },
	{ "mmUVD_ENC_VCPU_INT_EN", REG_MMIO, 0x021f, 1, &mmUVD_ENC_VCPU_INT_EN[0], sizeof(mmUVD_ENC_VCPU_INT_EN)/sizeof(mmUVD_ENC_VCPU_INT_EN[0]), 0, 0 },
	{ "mmUVD_ENC_VCPU_INT_ACK", REG_MMIO, 0x0221, 1, &mmUVD_ENC_VCPU_INT_ACK[0], sizeof(mmUVD_ENC_VCPU_INT_ACK)/sizeof(mmUVD_ENC_VCPU_INT_ACK[0]), 0, 0 },
	{ "mmUVD_LMI_VCPU_CACHE_VMIDS_MULTI", REG_MMIO, 0x0222, 1, &mmUVD_LMI_VCPU_CACHE_VMIDS_MULTI[0], sizeof(mmUVD_LMI_VCPU_CACHE_VMIDS_MULTI)/sizeof(mmUVD_LMI_VCPU_CACHE_VMIDS_MULTI[0]), 0, 0 },
	{ "mmUVD_LMI_VCPU_NC_VMIDS_MULTI", REG_MMIO, 0x0223, 1, &mmUVD_LMI_VCPU_NC_VMIDS_MULTI[0], sizeof(mmUVD_LMI_VCPU_NC_VMIDS_MULTI)/sizeof(mmUVD_LMI_VCPU_NC_VMIDS_MULTI[0]), 0, 0 },
	{ "mmUVD_LMI_URGENT_CTRL", REG_MMIO, 0x0224, 1, &mmUVD_LMI_URGENT_CTRL[0], sizeof(mmUVD_LMI_URGENT_CTRL)/sizeof(mmUVD_LMI_URGENT_CTRL[0]), 0, 0 },
	{ "mmUVD_LMI_CTRL", REG_MMIO, 0x0226, 1, &mmUVD_LMI_CTRL[0], sizeof(mmUVD_LMI_CTRL)/sizeof(mmUVD_LMI_CTRL[0]), 0, 0 },
	{ "mmUVD_LMI_STATUS", REG_MMIO, 0x0227, 1, &mmUVD_LMI_STATUS[0], sizeof(mmUVD_LMI_STATUS)/sizeof(mmUVD_LMI_STATUS[0]), 0, 0 },
	{ "mmUVD_LMI_VM_CTRL", REG_MMIO, 0x0228, 1, &mmUVD_LMI_VM_CTRL[0], sizeof(mmUVD_LMI_VM_CTRL)/sizeof(mmUVD_LMI_VM_CTRL[0]), 0, 0 },
	{ "mmUVD_LMI_PERFMON_CTRL", REG_MMIO, 0x022a, 1, &mmUVD_LMI_PERFMON_CTRL[0], sizeof(mmUVD_LMI_PERFMON_CTRL)/sizeof(mmUVD_LMI_PERFMON_CTRL[0]), 0, 0 },
	{ "mmUVD_LMI_PERFMON_COUNT_LO", REG_MMIO, 0x022b, 1, &mmUVD_LMI_PERFMON_COUNT_LO[0], sizeof(mmUVD_LMI_PERFMON_COUNT_LO)/sizeof(mmUVD_LMI_PERFMON_COUNT_LO[0]), 0, 0 },
	{ "mmUVD_LMI_PERFMON_COUNT_HI", REG_MMIO, 0x022c, 1, &mmUVD_LMI_PERFMON_COUNT_HI[0], sizeof(mmUVD_LMI_PERFMON_COUNT_HI)/sizeof(mmUVD_LMI_PERFMON_COUNT_HI[0]), 0, 0 },
	{ "mmUVD_LMI_SWAP_CNTL", REG_MMIO, 0x022d, 1, &mmUVD_LMI_SWAP_CNTL[0], sizeof(mmUVD_LMI_SWAP_CNTL)/sizeof(mmUVD_LMI_SWAP_CNTL[0]), 0, 0 },
	{ "mmUVD_UDEC_ADR", REG_MMIO, 0x022e, 1, &mmUVD_UDEC_ADR[0], sizeof(mmUVD_UDEC_ADR)/sizeof(mmUVD_UDEC_ADR[0]), 0, 0 },
	{ "mmUVD_MP_SWAP_CNTL", REG_MMIO, 0x022f, 1, &mmUVD_MP_SWAP_CNTL[0], sizeof(mmUVD_MP_SWAP_CNTL)/sizeof(mmUVD_MP_SWAP_CNTL[0]), 0, 0 },
	{ "mmUVD_MPC_LUMA_SRCH", REG_MMIO, 0x0231, 1, &mmUVD_MPC_LUMA_SRCH[0], sizeof(mmUVD_MPC_LUMA_SRCH)/sizeof(mmUVD_MPC_LUMA_SRCH[0]), 0, 0 },
	{ "mmUVD_MPC_LUMA_HIT", REG_MMIO, 0x0232, 1, &mmUVD_MPC_LUMA_HIT[0], sizeof(mmUVD_MPC_LUMA_HIT)/sizeof(mmUVD_MPC_LUMA_HIT[0]), 0, 0 },
	{ "mmUVD_MPC_LUMA_HITPEND", REG_MMIO, 0x0233, 1, &mmUVD_MPC_LUMA_HITPEND[0], sizeof(mmUVD_MPC_LUMA_HITPEND)/sizeof(mmUVD_MPC_LUMA_HITPEND[0]), 0, 0 },
	{ "mmUVD_MPC_CHROMA_SRCH", REG_MMIO, 0x0234, 1, &mmUVD_MPC_CHROMA_SRCH[0], sizeof(mmUVD_MPC_CHROMA_SRCH)/sizeof(mmUVD_MPC_CHROMA_SRCH[0]), 0, 0 },
	{ "mmUVD_MPC_CHROMA_HIT", REG_MMIO, 0x0235, 1, &mmUVD_MPC_CHROMA_HIT[0], sizeof(mmUVD_MPC_CHROMA_HIT)/sizeof(mmUVD_MPC_CHROMA_HIT[0]), 0, 0 },
	{ "mmUVD_MPC_CHROMA_HITPEND", REG_MMIO, 0x0236, 1, &mmUVD_MPC_CHROMA_HITPEND[0], sizeof(mmUVD_MPC_CHROMA_HITPEND)/sizeof(mmUVD_MPC_CHROMA_HITPEND[0]), 0, 0 },
	{ "mmUVD_MPC_CNTL", REG_MMIO, 0x0237, 1, &mmUVD_MPC_CNTL[0], sizeof(mmUVD_MPC_CNTL)/sizeof(mmUVD_MPC_CNTL[0]), 0, 0 },
	{ "mmUVD_MPC_PITCH", REG_MMIO, 0x0238, 1, &mmUVD_MPC_PITCH[0], sizeof(mmUVD_MPC_PITCH)/sizeof(mmUVD_MPC_PITCH[0]), 0, 0 },
	{ "mmUVD_MPC_SET_MUXA0", REG_MMIO, 0x0239, 1, &mmUVD_MPC_SET_MUXA0[0], sizeof(mmUVD_MPC_SET_MUXA0)/sizeof(mmUVD_MPC_SET_MUXA0[0]), 0, 0 },
	{ "mmUVD_MPC_SET_MUXA1", REG_MMIO, 0x023a, 1, &mmUVD_MPC_SET_MUXA1[0], sizeof(mmUVD_MPC_SET_MUXA1)/sizeof(mmUVD_MPC_SET_MUXA1[0]), 0, 0 },
	{ "mmUVD_MPC_SET_MUXB0", REG_MMIO, 0x023b, 1, &mmUVD_MPC_SET_MUXB0[0], sizeof(mmUVD_MPC_SET_MUXB0)/sizeof(mmUVD_MPC_SET_MUXB0[0]), 0, 0 },
	{ "mmUVD_MPC_SET_MUXB1", REG_MMIO, 0x023c, 1, &mmUVD_MPC_SET_MUXB1[0], sizeof(mmUVD_MPC_SET_MUXB1)/sizeof(mmUVD_MPC_SET_MUXB1[0]), 0, 0 },
	{ "mmUVD_MPC_SET_MUX", REG_MMIO, 0x023d, 1, &mmUVD_MPC_SET_MUX[0], sizeof(mmUVD_MPC_SET_MUX)/sizeof(mmUVD_MPC_SET_MUX[0]), 0, 0 },
	{ "mmUVD_MPC_SET_ALU", REG_MMIO, 0x023e, 1, &mmUVD_MPC_SET_ALU[0], sizeof(mmUVD_MPC_SET_ALU)/sizeof(mmUVD_MPC_SET_ALU[0]), 0, 0 },
	{ "mmUVD_GPCOM_SYS_CMD", REG_MMIO, 0x023f, 1, &mmUVD_GPCOM_SYS_CMD[0], sizeof(mmUVD_GPCOM_SYS_CMD)/sizeof(mmUVD_GPCOM_SYS_CMD[0]), 0, 0 },
	{ "mmUVD_GPCOM_SYS_DATA0", REG_MMIO, 0x0240, 1, &mmUVD_GPCOM_SYS_DATA0[0], sizeof(mmUVD_GPCOM_SYS_DATA0)/sizeof(mmUVD_GPCOM_SYS_DATA0[0]), 0, 0 },
	{ "mmUVD_GPCOM_SYS_DATA1", REG_MMIO, 0x0241, 1, &mmUVD_GPCOM_SYS_DATA1[0], sizeof(mmUVD_GPCOM_SYS_DATA1)/sizeof(mmUVD_GPCOM_SYS_DATA1[0]), 0, 0 },
	{ "mmUVD_VCPU_CACHE_OFFSET0", REG_MMIO, 0x0242, 1, &mmUVD_VCPU_CACHE_OFFSET0[0], sizeof(mmUVD_VCPU_CACHE_OFFSET0)/sizeof(mmUVD_VCPU_CACHE_OFFSET0[0]), 0, 0 },
	{ "mmUVD_VCPU_CACHE_SIZE0", REG_MMIO, 0x0243, 1, &mmUVD_VCPU_CACHE_SIZE0[0], sizeof(mmUVD_VCPU_CACHE_SIZE0)/sizeof(mmUVD_VCPU_CACHE_SIZE0[0]), 0, 0 },
	{ "mmUVD_VCPU_CACHE_OFFSET1", REG_MMIO, 0x0244, 1, &mmUVD_VCPU_CACHE_OFFSET1[0], sizeof(mmUVD_VCPU_CACHE_OFFSET1)/sizeof(mmUVD_VCPU_CACHE_OFFSET1[0]), 0, 0 },
	{ "mmUVD_VCPU_CACHE_SIZE1", REG_MMIO, 0x0245, 1, &mmUVD_VCPU_CACHE_SIZE1[0], sizeof(mmUVD_VCPU_CACHE_SIZE1)/sizeof(mmUVD_VCPU_CACHE_SIZE1[0]), 0, 0 },
	{ "mmUVD_VCPU_CACHE_OFFSET2", REG_MMIO, 0x0246, 1, &mmUVD_VCPU_CACHE_OFFSET2[0], sizeof(mmUVD_VCPU_CACHE_OFFSET2)/sizeof(mmUVD_VCPU_CACHE_OFFSET2[0]), 0, 0 },
	{ "mmUVD_VCPU_CACHE_SIZE2", REG_MMIO, 0x0247, 1, &mmUVD_VCPU_CACHE_SIZE2[0], sizeof(mmUVD_VCPU_CACHE_SIZE2)/sizeof(mmUVD_VCPU_CACHE_SIZE2[0]), 0, 0 },
	{ "mmUVD_VCPU_CACHE_OFFSET3", REG_MMIO, 0x0248, 1, &mmUVD_VCPU_CACHE_OFFSET3[0], sizeof(mmUVD_VCPU_CACHE_OFFSET3)/sizeof(mmUVD_VCPU_CACHE_OFFSET3[0]), 0, 0 },
	{ "mmUVD_VCPU_CACHE_SIZE3", REG_MMIO, 0x0249, 1, &mmUVD_VCPU_CACHE_SIZE3[0], sizeof(mmUVD_VCPU_CACHE_SIZE3)/sizeof(mmUVD_VCPU_CACHE_SIZE3[0]), 0, 0 },
	{ "mmUVD_VCPU_CACHE_OFFSET4", REG_MMIO, 0x024a, 1, &mmUVD_VCPU_CACHE_OFFSET4[0], sizeof(mmUVD_VCPU_CACHE_OFFSET4)/sizeof(mmUVD_VCPU_CACHE_OFFSET4[0]), 0, 0 },
	{ "mmUVD_VCPU_CACHE_SIZE4", REG_MMIO, 0x024b, 1, &mmUVD_VCPU_CACHE_SIZE4[0], sizeof(mmUVD_VCPU_CACHE_SIZE4)/sizeof(mmUVD_VCPU_CACHE_SIZE4[0]), 0, 0 },
	{ "mmUVD_VCPU_CACHE_OFFSET5", REG_MMIO, 0x024c, 1, &mmUVD_VCPU_CACHE_OFFSET5[0], sizeof(mmUVD_VCPU_CACHE_OFFSET5)/sizeof(mmUVD_VCPU_CACHE_OFFSET5[0]), 0, 0 },
	{ "mmUVD_VCPU_CACHE_SIZE5", REG_MMIO, 0x024d, 1, &mmUVD_VCPU_CACHE_SIZE5[0], sizeof(mmUVD_VCPU_CACHE_SIZE5)/sizeof(mmUVD_VCPU_CACHE_SIZE5[0]), 0, 0 },
	{ "mmUVD_VCPU_CACHE_OFFSET6", REG_MMIO, 0x024e, 1, &mmUVD_VCPU_CACHE_OFFSET6[0], sizeof(mmUVD_VCPU_CACHE_OFFSET6)/sizeof(mmUVD_VCPU_CACHE_OFFSET6[0]), 0, 0 },
	{ "mmUVD_VCPU_CACHE_SIZE6", REG_MMIO, 0x024f, 1, &mmUVD_VCPU_CACHE_SIZE6[0], sizeof(mmUVD_VCPU_CACHE_SIZE6)/sizeof(mmUVD_VCPU_CACHE_SIZE6[0]), 0, 0 },
	{ "mmUVD_VCPU_CACHE_OFFSET7", REG_MMIO, 0x0250, 1, &mmUVD_VCPU_CACHE_OFFSET7[0], sizeof(mmUVD_VCPU_CACHE_OFFSET7)/sizeof(mmUVD_VCPU_CACHE_OFFSET7[0]), 0, 0 },
	{ "mmUVD_VCPU_CACHE_SIZE7", REG_MMIO, 0x0251, 1, &mmUVD_VCPU_CACHE_SIZE7[0], sizeof(mmUVD_VCPU_CACHE_SIZE7)/sizeof(mmUVD_VCPU_CACHE_SIZE7[0]), 0, 0 },
	{ "mmUVD_VCPU_CACHE_OFFSET8", REG_MMIO, 0x0252, 1, &mmUVD_VCPU_CACHE_OFFSET8[0], sizeof(mmUVD_VCPU_CACHE_OFFSET8)/sizeof(mmUVD_VCPU_CACHE_OFFSET8[0]), 0, 0 },
	{ "mmUVD_VCPU_CACHE_SIZE8", REG_MMIO, 0x0253, 1, &mmUVD_VCPU_CACHE_SIZE8[0], sizeof(mmUVD_VCPU_CACHE_SIZE8)/sizeof(mmUVD_VCPU_CACHE_SIZE8[0]), 0, 0 },
	{ "mmUVD_VCPU_NONCACHE_OFFSET0", REG_MMIO, 0x0254, 1, &mmUVD_VCPU_NONCACHE_OFFSET0[0], sizeof(mmUVD_VCPU_NONCACHE_OFFSET0)/sizeof(mmUVD_VCPU_NONCACHE_OFFSET0[0]), 0, 0 },
	{ "mmUVD_VCPU_NONCACHE_SIZE0", REG_MMIO, 0x0255, 1, &mmUVD_VCPU_NONCACHE_SIZE0[0], sizeof(mmUVD_VCPU_NONCACHE_SIZE0)/sizeof(mmUVD_VCPU_NONCACHE_SIZE0[0]), 0, 0 },
	{ "mmUVD_VCPU_NONCACHE_OFFSET1", REG_MMIO, 0x0256, 1, &mmUVD_VCPU_NONCACHE_OFFSET1[0], sizeof(mmUVD_VCPU_NONCACHE_OFFSET1)/sizeof(mmUVD_VCPU_NONCACHE_OFFSET1[0]), 0, 0 },
	{ "mmUVD_VCPU_NONCACHE_SIZE1", REG_MMIO, 0x0257, 1, &mmUVD_VCPU_NONCACHE_SIZE1[0], sizeof(mmUVD_VCPU_NONCACHE_SIZE1)/sizeof(mmUVD_VCPU_NONCACHE_SIZE1[0]), 0, 0 },
	{ "mmUVD_VCPU_CNTL", REG_MMIO, 0x0258, 1, &mmUVD_VCPU_CNTL[0], sizeof(mmUVD_VCPU_CNTL)/sizeof(mmUVD_VCPU_CNTL[0]), 0, 0 },
	{ "mmUVD_VCPU_PRID", REG_MMIO, 0x0259, 1, &mmUVD_VCPU_PRID[0], sizeof(mmUVD_VCPU_PRID)/sizeof(mmUVD_VCPU_PRID[0]), 0, 0 },
	{ "mmUVD_VCPU_TRCE", REG_MMIO, 0x025a, 1, &mmUVD_VCPU_TRCE[0], sizeof(mmUVD_VCPU_TRCE)/sizeof(mmUVD_VCPU_TRCE[0]), 0, 0 },
	{ "mmUVD_VCPU_TRCE_RD", REG_MMIO, 0x025b, 1, &mmUVD_VCPU_TRCE_RD[0], sizeof(mmUVD_VCPU_TRCE_RD)/sizeof(mmUVD_VCPU_TRCE_RD[0]), 0, 0 },
	{ "mmUVD_MPC_PERF0", REG_MMIO, 0x025c, 1, &mmUVD_MPC_PERF0[0], sizeof(mmUVD_MPC_PERF0)/sizeof(mmUVD_MPC_PERF0[0]), 0, 0 },
	{ "mmUVD_MPC_PERF1", REG_MMIO, 0x025d, 1, &mmUVD_MPC_PERF1[0], sizeof(mmUVD_MPC_PERF1)/sizeof(mmUVD_MPC_PERF1[0]), 0, 0 },
	{ "mmUVD_CXW_WR", REG_MMIO, 0x025f, 1, &mmUVD_CXW_WR[0], sizeof(mmUVD_CXW_WR)/sizeof(mmUVD_CXW_WR[0]), 0, 0 },
	{ "mmUVD_SOFT_RESET", REG_MMIO, 0x0260, 1, &mmUVD_SOFT_RESET[0], sizeof(mmUVD_SOFT_RESET)/sizeof(mmUVD_SOFT_RESET[0]), 0, 0 },
	{ "mmUVD_LMI_RBC_IB_VMID", REG_MMIO, 0x0261, 1, &mmUVD_LMI_RBC_IB_VMID[0], sizeof(mmUVD_LMI_RBC_IB_VMID)/sizeof(mmUVD_LMI_RBC_IB_VMID[0]), 0, 0 },
	{ "mmUVD_RBC_IB_SIZE", REG_MMIO, 0x0262, 1, &mmUVD_RBC_IB_SIZE[0], sizeof(mmUVD_RBC_IB_SIZE)/sizeof(mmUVD_RBC_IB_SIZE[0]), 0, 0 },
	{ "mmUVD_LMI_RBC_RB_VMID", REG_MMIO, 0x0263, 1, &mmUVD_LMI_RBC_RB_VMID[0], sizeof(mmUVD_LMI_RBC_RB_VMID)/sizeof(mmUVD_LMI_RBC_RB_VMID[0]), 0, 0 },
	{ "mmUVD_RBC_RB_RPTR", REG_MMIO, 0x0264, 1, &mmUVD_RBC_RB_RPTR[0], sizeof(mmUVD_RBC_RB_RPTR)/sizeof(mmUVD_RBC_RB_RPTR[0]), 0, 0 },
	{ "mmUVD_RBC_RB_WPTR", REG_MMIO, 0x0265, 1, &mmUVD_RBC_RB_WPTR[0], sizeof(mmUVD_RBC_RB_WPTR)/sizeof(mmUVD_RBC_RB_WPTR[0]), 0, 0 },
	{ "mmUVD_RBC_RB_WPTR_CNTL", REG_MMIO, 0x0266, 1, &mmUVD_RBC_RB_WPTR_CNTL[0], sizeof(mmUVD_RBC_RB_WPTR_CNTL)/sizeof(mmUVD_RBC_RB_WPTR_CNTL[0]), 0, 0 },
	{ "mmUVD_RBC_READ_REQ_URGENT_CNTL", REG_MMIO, 0x0267, 1, &mmUVD_RBC_READ_REQ_URGENT_CNTL[0], sizeof(mmUVD_RBC_READ_REQ_URGENT_CNTL)/sizeof(mmUVD_RBC_READ_REQ_URGENT_CNTL[0]), 0, 0 },
	{ "mmUVD_RBC_WPTR_STATUS", REG_MMIO, 0x0268, 1, &mmUVD_RBC_WPTR_STATUS[0], sizeof(mmUVD_RBC_WPTR_STATUS)/sizeof(mmUVD_RBC_WPTR_STATUS[0]), 0, 0 },
	{ "mmUVD_RBC_RB_CNTL", REG_MMIO, 0x0269, 1, &mmUVD_RBC_RB_CNTL[0], sizeof(mmUVD_RBC_RB_CNTL)/sizeof(mmUVD_RBC_RB_CNTL[0]), 0, 0 },
	{ "mmUVD_RBC_RB_RPTR_ADDR", REG_MMIO, 0x026a, 1, &mmUVD_RBC_RB_RPTR_ADDR[0], sizeof(mmUVD_RBC_RB_RPTR_ADDR)/sizeof(mmUVD_RBC_RB_RPTR_ADDR[0]), 0, 0 },
	{ "mmUVD_JOB_START", REG_MMIO, 0x026d, 1, &mmUVD_JOB_START[0], sizeof(mmUVD_JOB_START)/sizeof(mmUVD_JOB_START[0]), 0, 0 },
	{ "mmUVD_JOB_DONE", REG_MMIO, 0x026e, 1, &mmUVD_JOB_DONE[0], sizeof(mmUVD_JOB_DONE)/sizeof(mmUVD_JOB_DONE[0]), 0, 0 },
	{ "mmUVD_STATUS", REG_MMIO, 0x026f, 1, &mmUVD_STATUS[0], sizeof(mmUVD_STATUS)/sizeof(mmUVD_STATUS[0]), 0, 0 },
	{ "mmUVD_SEMA_TIMEOUT_STATUS", REG_MMIO, 0x0270, 1, &mmUVD_SEMA_TIMEOUT_STATUS[0], sizeof(mmUVD_SEMA_TIMEOUT_STATUS)/sizeof(mmUVD_SEMA_TIMEOUT_STATUS[0]), 0, 0 },
	{ "mmUVD_SEMA_WAIT_INCOMPLETE_TIMEOUT_CNTL", REG_MMIO, 0x0271, 1, &mmUVD_SEMA_WAIT_INCOMPLETE_TIMEOUT_CNTL[0], sizeof(mmUVD_SEMA_WAIT_INCOMPLETE_TIMEOUT_CNTL)/sizeof(mmUVD_SEMA_WAIT_INCOMPLETE_TIMEOUT_CNTL[0]), 0, 0 },
	{ "mmUVD_SEMA_WAIT_FAULT_TIMEOUT_CNTL", REG_MMIO, 0x0272, 1, &mmUVD_SEMA_WAIT_FAULT_TIMEOUT_CNTL[0], sizeof(mmUVD_SEMA_WAIT_FAULT_TIMEOUT_CNTL)/sizeof(mmUVD_SEMA_WAIT_FAULT_TIMEOUT_CNTL[0]), 0, 0 },
	{ "mmUVD_SEMA_SIGNAL_INCOMPLETE_TIMEOUT_CNTL", REG_MMIO, 0x0273, 1, &mmUVD_SEMA_SIGNAL_INCOMPLETE_TIMEOUT_CNTL[0], sizeof(mmUVD_SEMA_SIGNAL_INCOMPLETE_TIMEOUT_CNTL)/sizeof(mmUVD_SEMA_SIGNAL_INCOMPLETE_TIMEOUT_CNTL[0]), 0, 0 },
	{ "mmUVD_CXW_EN", REG_MMIO, 0x0274, 1, &mmUVD_CXW_EN[0], sizeof(mmUVD_CXW_EN)/sizeof(mmUVD_CXW_EN[0]), 0, 0 },
	{ "mmUVD_CXW_SE", REG_MMIO, 0x0275, 1, &mmUVD_CXW_SE[0], sizeof(mmUVD_CXW_SE)/sizeof(mmUVD_CXW_SE[0]), 0, 0 },
	{ "mmUVD_CXW_FINISHED", REG_MMIO, 0x0276, 1, &mmUVD_CXW_FINISHED[0], sizeof(mmUVD_CXW_FINISHED)/sizeof(mmUVD_CXW_FINISHED[0]), 0, 0 },
	{ "mmUVD_CXW_SHIFT_FINISHED", REG_MMIO, 0x0277, 1, &mmUVD_CXW_SHIFT_FINISHED[0], sizeof(mmUVD_CXW_SHIFT_FINISHED)/sizeof(mmUVD_CXW_SHIFT_FINISHED[0]), 0, 0 },
	{ "mmUVD_CXW_START", REG_MMIO, 0x0278, 1, &mmUVD_CXW_START[0], sizeof(mmUVD_CXW_START)/sizeof(mmUVD_CXW_START[0]), 0, 0 },
	{ "mmUVD_CXW_BLOCK_STATUS", REG_MMIO, 0x0279, 1, &mmUVD_CXW_BLOCK_STATUS[0], sizeof(mmUVD_CXW_BLOCK_STATUS)/sizeof(mmUVD_CXW_BLOCK_STATUS[0]), 0, 0 },
	{ "mmUVD_STOP_CONTEXT", REG_MMIO, 0x027a, 1, &mmUVD_STOP_CONTEXT[0], sizeof(mmUVD_STOP_CONTEXT)/sizeof(mmUVD_STOP_CONTEXT[0]), 0, 0 },
	{ "mmUVD_CXW_SAVE_AREA_ADDR", REG_MMIO, 0x027b, 1, &mmUVD_CXW_SAVE_AREA_ADDR[0], sizeof(mmUVD_CXW_SAVE_AREA_ADDR)/sizeof(mmUVD_CXW_SAVE_AREA_ADDR[0]), 0, 0 },
	{ "mmUVD_CBUF_ID", REG_MMIO, 0x027c, 1, &mmUVD_CBUF_ID[0], sizeof(mmUVD_CBUF_ID)/sizeof(mmUVD_CBUF_ID[0]), 0, 0 },
	{ "mmUVD_CONTEXT_ID", REG_MMIO, 0x027d, 1, &mmUVD_CONTEXT_ID[0], sizeof(mmUVD_CONTEXT_ID)/sizeof(mmUVD_CONTEXT_ID[0]), 0, 0 },
	{ "mmUVD_CXW_SAVE_AREA_SIZE", REG_MMIO, 0x027e, 1, &mmUVD_CXW_SAVE_AREA_SIZE[0], sizeof(mmUVD_CXW_SAVE_AREA_SIZE)/sizeof(mmUVD_CXW_SAVE_AREA_SIZE[0]), 0, 0 },
	{ "mmUVD_CONTEXT_ID2", REG_MMIO, 0x027f, 1, &mmUVD_CONTEXT_ID2[0], sizeof(mmUVD_CONTEXT_ID2)/sizeof(mmUVD_CONTEXT_ID2[0]), 0, 0 },
	{ "mmUVD_CXW_CNTL", REG_MMIO, 0x0280, 1, &mmUVD_CXW_CNTL[0], sizeof(mmUVD_CXW_CNTL)/sizeof(mmUVD_CXW_CNTL[0]), 0, 0 },
	{ "mmUVD_CXW_EVENT", REG_MMIO, 0x0281, 1, &mmUVD_CXW_EVENT[0], sizeof(mmUVD_CXW_EVENT)/sizeof(mmUVD_CXW_EVENT[0]), 0, 0 },
	{ "mmUVD_CXW_SCAN_AREA_OFFSET", REG_MMIO, 0x0282, 1, &mmUVD_CXW_SCAN_AREA_OFFSET[0], sizeof(mmUVD_CXW_SCAN_AREA_OFFSET)/sizeof(mmUVD_CXW_SCAN_AREA_OFFSET[0]), 0, 0 },
	{ "mmUVD_CXW_SHIFT_CNTL", REG_MMIO, 0x0283, 1, &mmUVD_CXW_SHIFT_CNTL[0], sizeof(mmUVD_CXW_SHIFT_CNTL)/sizeof(mmUVD_CXW_SHIFT_CNTL[0]), 0, 0 },
	{ "mmUVD_RBC_CAM_EN", REG_MMIO, 0x0286, 1, &mmUVD_RBC_CAM_EN[0], sizeof(mmUVD_RBC_CAM_EN)/sizeof(mmUVD_RBC_CAM_EN[0]), 0, 0 },
	{ "mmUVD_RBC_CAM_INDEX", REG_MMIO, 0x0287, 1, &mmUVD_RBC_CAM_INDEX[0], sizeof(mmUVD_RBC_CAM_INDEX)/sizeof(mmUVD_RBC_CAM_INDEX[0]), 0, 0 },
	{ "mmUVD_RBC_CAM_DATA", REG_MMIO, 0x0288, 1, &mmUVD_RBC_CAM_DATA[0], sizeof(mmUVD_RBC_CAM_DATA)/sizeof(mmUVD_RBC_CAM_DATA[0]), 0, 0 },
	{ "mmUVD_RBC_VCPU_ACCESS", REG_MMIO, 0x0289, 1, &mmUVD_RBC_VCPU_ACCESS[0], sizeof(mmUVD_RBC_VCPU_ACCESS)/sizeof(mmUVD_RBC_VCPU_ACCESS[0]), 0, 0 },
	{ "mmUVD_CXW_INT_ID", REG_MMIO, 0x0293, 1, &mmUVD_CXW_INT_ID[0], sizeof(mmUVD_CXW_INT_ID)/sizeof(mmUVD_CXW_INT_ID[0]), 0, 0 },
	{ "mmUVD_LMI_CRC0", REG_MMIO, 0x0294, 1, &mmUVD_LMI_CRC0[0], sizeof(mmUVD_LMI_CRC0)/sizeof(mmUVD_LMI_CRC0[0]), 0, 0 },
	{ "mmUVD_LMI_CRC1", REG_MMIO, 0x0295, 1, &mmUVD_LMI_CRC1[0], sizeof(mmUVD_LMI_CRC1)/sizeof(mmUVD_LMI_CRC1[0]), 0, 0 },
	{ "mmUVD_LMI_CRC2", REG_MMIO, 0x0296, 1, &mmUVD_LMI_CRC2[0], sizeof(mmUVD_LMI_CRC2)/sizeof(mmUVD_LMI_CRC2[0]), 0, 0 },
	{ "mmUVD_LMI_CRC3", REG_MMIO, 0x0297, 1, &mmUVD_LMI_CRC3[0], sizeof(mmUVD_LMI_CRC3)/sizeof(mmUVD_LMI_CRC3[0]), 0, 0 },
	{ "mmUVD_RBC_WPTR_POLL_CNTL", REG_MMIO, 0x0298, 1, &mmUVD_RBC_WPTR_POLL_CNTL[0], sizeof(mmUVD_RBC_WPTR_POLL_CNTL)/sizeof(mmUVD_RBC_WPTR_POLL_CNTL[0]), 0, 0 },
	{ "mmUVD_RBC_WPTR_POLL_ADDR", REG_MMIO, 0x0299, 1, &mmUVD_RBC_WPTR_POLL_ADDR[0], sizeof(mmUVD_RBC_WPTR_POLL_ADDR)/sizeof(mmUVD_RBC_WPTR_POLL_ADDR[0]), 0, 0 },
	{ "mmUVD_RB_BASE_LO4", REG_MMIO, 0x029f, 1, &mmUVD_RB_BASE_LO4[0], sizeof(mmUVD_RB_BASE_LO4)/sizeof(mmUVD_RB_BASE_LO4[0]), 0, 0 },
	{ "mmUVD_RB_BASE_HI4", REG_MMIO, 0x02a0, 1, &mmUVD_RB_BASE_HI4[0], sizeof(mmUVD_RB_BASE_HI4)/sizeof(mmUVD_RB_BASE_HI4[0]), 0, 0 },
	{ "mmUVD_RB_SIZE4", REG_MMIO, 0x02a1, 1, &mmUVD_RB_SIZE4[0], sizeof(mmUVD_RB_SIZE4)/sizeof(mmUVD_RB_SIZE4[0]), 0, 0 },
	{ "mmUVD_RB_RPTR4", REG_MMIO, 0x02a2, 1, &mmUVD_RB_RPTR4[0], sizeof(mmUVD_RB_RPTR4)/sizeof(mmUVD_RB_RPTR4[0]), 0, 0 },
	{ "mmUVD_LMI_MC_CREDITS", REG_MMIO, 0x02a3, 1, &mmUVD_LMI_MC_CREDITS[0], sizeof(mmUVD_LMI_MC_CREDITS)/sizeof(mmUVD_LMI_MC_CREDITS[0]), 0, 0 },
	{ "mmUVD_RBC_BUF_STATUS", REG_MMIO, 0x02b0, 1, &mmUVD_RBC_BUF_STATUS[0], sizeof(mmUVD_RBC_BUF_STATUS)/sizeof(mmUVD_RBC_BUF_STATUS[0]), 0, 0 },
	{ "mmUVD_RBC_IB_SIZE_UPDATE", REG_MMIO, 0x02b1, 1, &mmUVD_RBC_IB_SIZE_UPDATE[0], sizeof(mmUVD_RBC_IB_SIZE_UPDATE)/sizeof(mmUVD_RBC_IB_SIZE_UPDATE[0]), 0, 0 },
	{ "mmUVD_RBC_BDM_PRE", REG_MMIO, 0x02b2, 1, &mmUVD_RBC_BDM_PRE[0], sizeof(mmUVD_RBC_BDM_PRE)/sizeof(mmUVD_RBC_BDM_PRE[0]), 0, 0 },
	{ "mmCG_TIMESTAMP_LOW", REG_MMIO, 0x02b5, 1, &mmCG_TIMESTAMP_LOW[0], sizeof(mmCG_TIMESTAMP_LOW)/sizeof(mmCG_TIMESTAMP_LOW[0]), 0, 0 },
	{ "mmCG_TIMESTAMP_HIGH", REG_MMIO, 0x02b6, 1, &mmCG_TIMESTAMP_HIGH[0], sizeof(mmCG_TIMESTAMP_HIGH)/sizeof(mmCG_TIMESTAMP_HIGH[0]), 0, 0 },
	{ "mmUVD_UMC_UVD_CTL_CMD", REG_MMIO, 0x02b7, 1, &mmUVD_UMC_UVD_CTL_CMD[0], sizeof(mmUVD_UMC_UVD_CTL_CMD)/sizeof(mmUVD_UMC_UVD_CTL_CMD[0]), 0, 0 },
	{ "mmUVD_UMC_UVD_BLOCK_REQ", REG_MMIO, 0x02b8, 1, &mmUVD_UMC_UVD_BLOCK_REQ[0], sizeof(mmUVD_UMC_UVD_BLOCK_REQ)/sizeof(mmUVD_UMC_UVD_BLOCK_REQ[0]), 0, 0 },
	{ "mmUVD_RBC_CXW_RELEASE", REG_MMIO, 0x02b9, 1, &mmUVD_RBC_CXW_RELEASE[0], sizeof(mmUVD_RBC_CXW_RELEASE)/sizeof(mmUVD_RBC_CXW_RELEASE[0]), 0, 0 },
	{ "mmUVD_YBASE", REG_MMIO, 0x02ba, 1, &mmUVD_YBASE[0], sizeof(mmUVD_YBASE)/sizeof(mmUVD_YBASE[0]), 0, 0 },
	{ "mmUVD_UVBASE", REG_MMIO, 0x02bb, 1, &mmUVD_UVBASE[0], sizeof(mmUVD_UVBASE)/sizeof(mmUVD_UVBASE[0]), 0, 0 },
	{ "mmUVD_PITCH", REG_MMIO, 0x02bc, 1, &mmUVD_PITCH[0], sizeof(mmUVD_PITCH)/sizeof(mmUVD_PITCH[0]), 0, 0 },
	{ "mmUVD_WIDTH", REG_MMIO, 0x02bd, 1, &mmUVD_WIDTH[0], sizeof(mmUVD_WIDTH)/sizeof(mmUVD_WIDTH[0]), 0, 0 },
	{ "mmUVD_HEIGHT", REG_MMIO, 0x02be, 1, &mmUVD_HEIGHT[0], sizeof(mmUVD_HEIGHT)/sizeof(mmUVD_HEIGHT[0]), 0, 0 },
	{ "mmUVD_PICCOUNT", REG_MMIO, 0x02bf, 1, &mmUVD_PICCOUNT[0], sizeof(mmUVD_PICCOUNT)/sizeof(mmUVD_PICCOUNT[0]), 0, 0 },
	{ "mmUVD_SEMA_ADDR_LOW", REG_MMIO, 0x0580, 1, &mmUVD_SEMA_ADDR_LOW[0], sizeof(mmUVD_SEMA_ADDR_LOW)/sizeof(mmUVD_SEMA_ADDR_LOW[0]), 0, 0 },
	{ "mmUVD_SEMA_ADDR_HIGH", REG_MMIO, 0x0581, 1, &mmUVD_SEMA_ADDR_HIGH[0], sizeof(mmUVD_SEMA_ADDR_HIGH)/sizeof(mmUVD_SEMA_ADDR_HIGH[0]), 0, 0 },
	{ "mmUVD_SEMA_CMD", REG_MMIO, 0x0582, 1, &mmUVD_SEMA_CMD[0], sizeof(mmUVD_SEMA_CMD)/sizeof(mmUVD_SEMA_CMD[0]), 0, 0 },
	{ "mmUVD_GPCOM_VCPU_CMD", REG_MMIO, 0x0583, 1, &mmUVD_GPCOM_VCPU_CMD[0], sizeof(mmUVD_GPCOM_VCPU_CMD)/sizeof(mmUVD_GPCOM_VCPU_CMD[0]), 0, 0 },
	{ "mmUVD_GPCOM_VCPU_DATA0", REG_MMIO, 0x0584, 1, &mmUVD_GPCOM_VCPU_DATA0[0], sizeof(mmUVD_GPCOM_VCPU_DATA0)/sizeof(mmUVD_GPCOM_VCPU_DATA0[0]), 0, 0 },
	{ "mmUVD_GPCOM_VCPU_DATA1", REG_MMIO, 0x0585, 1, &mmUVD_GPCOM_VCPU_DATA1[0], sizeof(mmUVD_GPCOM_VCPU_DATA1)/sizeof(mmUVD_GPCOM_VCPU_DATA1[0]), 0, 0 },
	{ "mmUVD_ENGINE_CNTL", REG_MMIO, 0x0586, 1, &mmUVD_ENGINE_CNTL[0], sizeof(mmUVD_ENGINE_CNTL)/sizeof(mmUVD_ENGINE_CNTL[0]), 0, 0 },
	{ "mmUVD_SUVD_CGC_GATE", REG_MMIO, 0x05a4, 1, &mmUVD_SUVD_CGC_GATE[0], sizeof(mmUVD_SUVD_CGC_GATE)/sizeof(mmUVD_SUVD_CGC_GATE[0]), 0, 0 },
	{ "mmUVD_SUVD_CGC_STATUS", REG_MMIO, 0x05a5, 1, &mmUVD_SUVD_CGC_STATUS[0], sizeof(mmUVD_SUVD_CGC_STATUS)/sizeof(mmUVD_SUVD_CGC_STATUS[0]), 0, 0 },
	{ "mmUVD_SUVD_CGC_CTRL", REG_MMIO, 0x05a6, 1, &mmUVD_SUVD_CGC_CTRL[0], sizeof(mmUVD_SUVD_CGC_CTRL)/sizeof(mmUVD_SUVD_CGC_CTRL[0]), 0, 0 },
	{ "mmUVD_LMI_VCPU_CACHE1_64BIT_BAR_LOW", REG_MMIO, 0x05ac, 1, &mmUVD_LMI_VCPU_CACHE1_64BIT_BAR_LOW[0], sizeof(mmUVD_LMI_VCPU_CACHE1_64BIT_BAR_LOW)/sizeof(mmUVD_LMI_VCPU_CACHE1_64BIT_BAR_LOW[0]), 0, 0 },
	{ "mmUVD_LMI_VCPU_CACHE1_64BIT_BAR_HIGH", REG_MMIO, 0x05ad, 1, &mmUVD_LMI_VCPU_CACHE1_64BIT_BAR_HIGH[0], sizeof(mmUVD_LMI_VCPU_CACHE1_64BIT_BAR_HIGH)/sizeof(mmUVD_LMI_VCPU_CACHE1_64BIT_BAR_HIGH[0]), 0, 0 },
	{ "mmUVD_LMI_VCPU_CACHE8_64BIT_BAR_LOW", REG_MMIO, 0x05ae, 1, &mmUVD_LMI_VCPU_CACHE8_64BIT_BAR_LOW[0], sizeof(mmUVD_LMI_VCPU_CACHE8_64BIT_BAR_LOW)/sizeof(mmUVD_LMI_VCPU_CACHE8_64BIT_BAR_LOW[0]), 0, 0 },
	{ "mmUVD_LMI_VCPU_CACHE8_64BIT_BAR_HIGH", REG_MMIO, 0x05af, 1, &mmUVD_LMI_VCPU_CACHE8_64BIT_BAR_HIGH[0], sizeof(mmUVD_LMI_VCPU_CACHE8_64BIT_BAR_HIGH)/sizeof(mmUVD_LMI_VCPU_CACHE8_64BIT_BAR_HIGH[0]), 0, 0 },
	{ "mmUVD_LMI_VCPU_CACHE2_64BIT_BAR_LOW", REG_MMIO, 0x05b0, 1, &mmUVD_LMI_VCPU_CACHE2_64BIT_BAR_LOW[0], sizeof(mmUVD_LMI_VCPU_CACHE2_64BIT_BAR_LOW)/sizeof(mmUVD_LMI_VCPU_CACHE2_64BIT_BAR_LOW[0]), 0, 0 },
	{ "mmUVD_LMI_VCPU_CACHE2_64BIT_BAR_HIGH", REG_MMIO, 0x05b1, 1, &mmUVD_LMI_VCPU_CACHE2_64BIT_BAR_HIGH[0], sizeof(mmUVD_LMI_VCPU_CACHE2_64BIT_BAR_HIGH)/sizeof(mmUVD_LMI_VCPU_CACHE2_64BIT_BAR_HIGH[0]), 0, 0 },
	{ "mmUVD_LMI_VCPU_CACHE3_64BIT_BAR_LOW", REG_MMIO, 0x05b2, 1, &mmUVD_LMI_VCPU_CACHE3_64BIT_BAR_LOW[0], sizeof(mmUVD_LMI_VCPU_CACHE3_64BIT_BAR_LOW)/sizeof(mmUVD_LMI_VCPU_CACHE3_64BIT_BAR_LOW[0]), 0, 0 },
	{ "mmUVD_LMI_VCPU_CACHE3_64BIT_BAR_HIGH", REG_MMIO, 0x05b3, 1, &mmUVD_LMI_VCPU_CACHE3_64BIT_BAR_HIGH[0], sizeof(mmUVD_LMI_VCPU_CACHE3_64BIT_BAR_HIGH)/sizeof(mmUVD_LMI_VCPU_CACHE3_64BIT_BAR_HIGH[0]), 0, 0 },
	{ "mmUVD_LMI_VCPU_CACHE4_64BIT_BAR_LOW", REG_MMIO, 0x05b4, 1, &mmUVD_LMI_VCPU_CACHE4_64BIT_BAR_LOW[0], sizeof(mmUVD_LMI_VCPU_CACHE4_64BIT_BAR_LOW)/sizeof(mmUVD_LMI_VCPU_CACHE4_64BIT_BAR_LOW[0]), 0, 0 },
	{ "mmUVD_LMI_VCPU_CACHE4_64BIT_BAR_HIGH", REG_MMIO, 0x05b5, 1, &mmUVD_LMI_VCPU_CACHE4_64BIT_BAR_HIGH[0], sizeof(mmUVD_LMI_VCPU_CACHE4_64BIT_BAR_HIGH)/sizeof(mmUVD_LMI_VCPU_CACHE4_64BIT_BAR_HIGH[0]), 0, 0 },
	{ "mmUVD_LMI_VCPU_CACHE5_64BIT_BAR_LOW", REG_MMIO, 0x05b6, 1, &mmUVD_LMI_VCPU_CACHE5_64BIT_BAR_LOW[0], sizeof(mmUVD_LMI_VCPU_CACHE5_64BIT_BAR_LOW)/sizeof(mmUVD_LMI_VCPU_CACHE5_64BIT_BAR_LOW[0]), 0, 0 },
	{ "mmUVD_LMI_VCPU_CACHE5_64BIT_BAR_HIGH", REG_MMIO, 0x05b7, 1, &mmUVD_LMI_VCPU_CACHE5_64BIT_BAR_HIGH[0], sizeof(mmUVD_LMI_VCPU_CACHE5_64BIT_BAR_HIGH)/sizeof(mmUVD_LMI_VCPU_CACHE5_64BIT_BAR_HIGH[0]), 0, 0 },
	{ "mmUVD_LMI_VCPU_CACHE6_64BIT_BAR_LOW", REG_MMIO, 0x05b8, 1, &mmUVD_LMI_VCPU_CACHE6_64BIT_BAR_LOW[0], sizeof(mmUVD_LMI_VCPU_CACHE6_64BIT_BAR_LOW)/sizeof(mmUVD_LMI_VCPU_CACHE6_64BIT_BAR_LOW[0]), 0, 0 },
	{ "mmUVD_LMI_VCPU_CACHE6_64BIT_BAR_HIGH", REG_MMIO, 0x05b9, 1, &mmUVD_LMI_VCPU_CACHE6_64BIT_BAR_HIGH[0], sizeof(mmUVD_LMI_VCPU_CACHE6_64BIT_BAR_HIGH)/sizeof(mmUVD_LMI_VCPU_CACHE6_64BIT_BAR_HIGH[0]), 0, 0 },
	{ "mmUVD_LMI_VCPU_CACHE7_64BIT_BAR_LOW", REG_MMIO, 0x05ba, 1, &mmUVD_LMI_VCPU_CACHE7_64BIT_BAR_LOW[0], sizeof(mmUVD_LMI_VCPU_CACHE7_64BIT_BAR_LOW)/sizeof(mmUVD_LMI_VCPU_CACHE7_64BIT_BAR_LOW[0]), 0, 0 },
	{ "mmUVD_LMI_VCPU_CACHE7_64BIT_BAR_HIGH", REG_MMIO, 0x05bb, 1, &mmUVD_LMI_VCPU_CACHE7_64BIT_BAR_HIGH[0], sizeof(mmUVD_LMI_VCPU_CACHE7_64BIT_BAR_HIGH)/sizeof(mmUVD_LMI_VCPU_CACHE7_64BIT_BAR_HIGH[0]), 0, 0 },
	{ "mmUVD_SCRATCH_NP", REG_MMIO, 0x05bc, 1, &mmUVD_SCRATCH_NP[0], sizeof(mmUVD_SCRATCH_NP)/sizeof(mmUVD_SCRATCH_NP[0]), 0, 0 },
	{ "mmUVD_NO_OP", REG_MMIO, 0x05bf, 1, &mmUVD_NO_OP[0], sizeof(mmUVD_NO_OP)/sizeof(mmUVD_NO_OP[0]), 0, 0 },
	{ "mmMDM_DMA_CMD", REG_MMIO, 0x05c0, 1, &mmMDM_DMA_CMD[0], sizeof(mmMDM_DMA_CMD)/sizeof(mmMDM_DMA_CMD[0]), 0, 0 },
	{ "mmMDM_DMA_STATUS", REG_MMIO, 0x05c1, 1, &mmMDM_DMA_STATUS[0], sizeof(mmMDM_DMA_STATUS)/sizeof(mmMDM_DMA_STATUS[0]), 0, 0 },
	{ "mmMDM_DMA_CTL", REG_MMIO, 0x05c2, 1, &mmMDM_DMA_CTL[0], sizeof(mmMDM_DMA_CTL)/sizeof(mmMDM_DMA_CTL[0]), 0, 0 },
	{ "mmMDM_ENC_PIPE_BUSY", REG_MMIO, 0x05c3, 1, &mmMDM_ENC_PIPE_BUSY[0], sizeof(mmMDM_ENC_PIPE_BUSY)/sizeof(mmMDM_ENC_PIPE_BUSY[0]), 0, 0 },
	{ "mmMDM_WIG_PIPE_BUSY", REG_MMIO, 0x05c5, 1, &mmMDM_WIG_PIPE_BUSY[0], sizeof(mmMDM_WIG_PIPE_BUSY)/sizeof(mmMDM_WIG_PIPE_BUSY[0]), 0, 0 },
	{ "mmUVD_VERSION", REG_MMIO, 0x05c9, 1, &mmUVD_VERSION[0], sizeof(mmUVD_VERSION)/sizeof(mmUVD_VERSION[0]), 0, 0 },
	{ "mmUVD_GP_SCRATCH8", REG_MMIO, 0x05ca, 1, &mmUVD_GP_SCRATCH8[0], sizeof(mmUVD_GP_SCRATCH8)/sizeof(mmUVD_GP_SCRATCH8[0]), 0, 0 },
	{ "mmUVD_GP_SCRATCH9", REG_MMIO, 0x05cb, 1, &mmUVD_GP_SCRATCH9[0], sizeof(mmUVD_GP_SCRATCH9)/sizeof(mmUVD_GP_SCRATCH9[0]), 0, 0 },
	{ "mmUVD_GP_SCRATCH10", REG_MMIO, 0x05cc, 1, &mmUVD_GP_SCRATCH10[0], sizeof(mmUVD_GP_SCRATCH10)/sizeof(mmUVD_GP_SCRATCH10[0]), 0, 0 },
	{ "mmUVD_GP_SCRATCH11", REG_MMIO, 0x05cd, 1, &mmUVD_GP_SCRATCH11[0], sizeof(mmUVD_GP_SCRATCH11)/sizeof(mmUVD_GP_SCRATCH11[0]), 0, 0 },
	{ "mmUVD_GP_SCRATCH12", REG_MMIO, 0x05ce, 1, &mmUVD_GP_SCRATCH12[0], sizeof(mmUVD_GP_SCRATCH12)/sizeof(mmUVD_GP_SCRATCH12[0]), 0, 0 },
	{ "mmUVD_GP_SCRATCH13", REG_MMIO, 0x05cf, 1, &mmUVD_GP_SCRATCH13[0], sizeof(mmUVD_GP_SCRATCH13)/sizeof(mmUVD_GP_SCRATCH13[0]), 0, 0 },
	{ "mmUVD_GP_SCRATCH14", REG_MMIO, 0x05d0, 1, &mmUVD_GP_SCRATCH14[0], sizeof(mmUVD_GP_SCRATCH14)/sizeof(mmUVD_GP_SCRATCH14[0]), 0, 0 },
	{ "mmUVD_GP_SCRATCH15", REG_MMIO, 0x05d1, 1, &mmUVD_GP_SCRATCH15[0], sizeof(mmUVD_GP_SCRATCH15)/sizeof(mmUVD_GP_SCRATCH15[0]), 0, 0 },
	{ "mmUVD_GP_SCRATCH16", REG_MMIO, 0x05d2, 1, &mmUVD_GP_SCRATCH16[0], sizeof(mmUVD_GP_SCRATCH16)/sizeof(mmUVD_GP_SCRATCH16[0]), 0, 0 },
	{ "mmUVD_GP_SCRATCH17", REG_MMIO, 0x05d3, 1, &mmUVD_GP_SCRATCH17[0], sizeof(mmUVD_GP_SCRATCH17)/sizeof(mmUVD_GP_SCRATCH17[0]), 0, 0 },
	{ "mmUVD_GP_SCRATCH18", REG_MMIO, 0x05d4, 1, &mmUVD_GP_SCRATCH18[0], sizeof(mmUVD_GP_SCRATCH18)/sizeof(mmUVD_GP_SCRATCH18[0]), 0, 0 },
	{ "mmUVD_GP_SCRATCH19", REG_MMIO, 0x05d5, 1, &mmUVD_GP_SCRATCH19[0], sizeof(mmUVD_GP_SCRATCH19)/sizeof(mmUVD_GP_SCRATCH19[0]), 0, 0 },
	{ "mmUVD_GP_SCRATCH20", REG_MMIO, 0x05d6, 1, &mmUVD_GP_SCRATCH20[0], sizeof(mmUVD_GP_SCRATCH20)/sizeof(mmUVD_GP_SCRATCH20[0]), 0, 0 },
	{ "mmUVD_GP_SCRATCH21", REG_MMIO, 0x05d7, 1, &mmUVD_GP_SCRATCH21[0], sizeof(mmUVD_GP_SCRATCH21)/sizeof(mmUVD_GP_SCRATCH21[0]), 0, 0 },
	{ "mmUVD_GP_SCRATCH22", REG_MMIO, 0x05d8, 1, &mmUVD_GP_SCRATCH22[0], sizeof(mmUVD_GP_SCRATCH22)/sizeof(mmUVD_GP_SCRATCH22[0]), 0, 0 },
	{ "mmUVD_GP_SCRATCH23", REG_MMIO, 0x05d9, 1, &mmUVD_GP_SCRATCH23[0], sizeof(mmUVD_GP_SCRATCH23)/sizeof(mmUVD_GP_SCRATCH23[0]), 0, 0 },
	{ "mmUVD_ENC_REG_INDEX", REG_MMIO, 0x05da, 1, &mmUVD_ENC_REG_INDEX[0], sizeof(mmUVD_ENC_REG_INDEX)/sizeof(mmUVD_ENC_REG_INDEX[0]), 0, 0 },
	{ "mmUVD_ENC_REG_DATA", REG_MMIO, 0x05db, 1, &mmUVD_ENC_REG_DATA[0], sizeof(mmUVD_ENC_REG_DATA)/sizeof(mmUVD_ENC_REG_DATA[0]), 0, 0 },
	{ "mmUVD_OUT_RB_BASE_LO", REG_MMIO, 0x05dc, 1, &mmUVD_OUT_RB_BASE_LO[0], sizeof(mmUVD_OUT_RB_BASE_LO)/sizeof(mmUVD_OUT_RB_BASE_LO[0]), 0, 0 },
	{ "mmUVD_OUT_RB_BASE_HI", REG_MMIO, 0x05dd, 1, &mmUVD_OUT_RB_BASE_HI[0], sizeof(mmUVD_OUT_RB_BASE_HI)/sizeof(mmUVD_OUT_RB_BASE_HI[0]), 0, 0 },
	{ "mmUVD_OUT_RB_SIZE", REG_MMIO, 0x05de, 1, &mmUVD_OUT_RB_SIZE[0], sizeof(mmUVD_OUT_RB_SIZE)/sizeof(mmUVD_OUT_RB_SIZE[0]), 0, 0 },
	{ "mmUVD_OUT_RB_RPTR", REG_MMIO, 0x05df, 1, &mmUVD_OUT_RB_RPTR[0], sizeof(mmUVD_OUT_RB_RPTR)/sizeof(mmUVD_OUT_RB_RPTR[0]), 0, 0 },
	{ "mmUVD_OUT_RB_WPTR", REG_MMIO, 0x05e0, 1, &mmUVD_OUT_RB_WPTR[0], sizeof(mmUVD_OUT_RB_WPTR)/sizeof(mmUVD_OUT_RB_WPTR[0]), 0, 0 },
	{ "mmUVD_RB_BASE_LO2", REG_MMIO, 0x05e1, 1, &mmUVD_RB_BASE_LO2[0], sizeof(mmUVD_RB_BASE_LO2)/sizeof(mmUVD_RB_BASE_LO2[0]), 0, 0 },
	{ "mmUVD_RB_BASE_HI2", REG_MMIO, 0x05e2, 1, &mmUVD_RB_BASE_HI2[0], sizeof(mmUVD_RB_BASE_HI2)/sizeof(mmUVD_RB_BASE_HI2[0]), 0, 0 },
	{ "mmUVD_RB_SIZE2", REG_MMIO, 0x05e3, 1, &mmUVD_RB_SIZE2[0], sizeof(mmUVD_RB_SIZE2)/sizeof(mmUVD_RB_SIZE2[0]), 0, 0 },
	{ "mmUVD_RB_RPTR2", REG_MMIO, 0x05e4, 1, &mmUVD_RB_RPTR2[0], sizeof(mmUVD_RB_RPTR2)/sizeof(mmUVD_RB_RPTR2[0]), 0, 0 },
	{ "mmUVD_RB_WPTR2", REG_MMIO, 0x05e5, 1, &mmUVD_RB_WPTR2[0], sizeof(mmUVD_RB_WPTR2)/sizeof(mmUVD_RB_WPTR2[0]), 0, 0 },
	{ "mmUVD_RB_BASE_LO", REG_MMIO, 0x05e6, 1, &mmUVD_RB_BASE_LO[0], sizeof(mmUVD_RB_BASE_LO)/sizeof(mmUVD_RB_BASE_LO[0]), 0, 0 },
	{ "mmUVD_RB_BASE_HI", REG_MMIO, 0x05e7, 1, &mmUVD_RB_BASE_HI[0], sizeof(mmUVD_RB_BASE_HI)/sizeof(mmUVD_RB_BASE_HI[0]), 0, 0 },
	{ "mmUVD_RB_SIZE", REG_MMIO, 0x05e8, 1, &mmUVD_RB_SIZE[0], sizeof(mmUVD_RB_SIZE)/sizeof(mmUVD_RB_SIZE[0]), 0, 0 },
	{ "mmUVD_RB_RPTR", REG_MMIO, 0x05e9, 1, &mmUVD_RB_RPTR[0], sizeof(mmUVD_RB_RPTR)/sizeof(mmUVD_RB_RPTR[0]), 0, 0 },
	{ "mmUVD_RB_WPTR", REG_MMIO, 0x05ea, 1, &mmUVD_RB_WPTR[0], sizeof(mmUVD_RB_WPTR)/sizeof(mmUVD_RB_WPTR[0]), 0, 0 },
	{ "mmUVD_ENC_PIPE_BUSY", REG_MMIO, 0x05eb, 1, &mmUVD_ENC_PIPE_BUSY[0], sizeof(mmUVD_ENC_PIPE_BUSY)/sizeof(mmUVD_ENC_PIPE_BUSY[0]), 0, 0 },
	{ "mmUVD_RB_WPTR4", REG_MMIO, 0x0616, 1, &mmUVD_RB_WPTR4[0], sizeof(mmUVD_RB_WPTR4)/sizeof(mmUVD_RB_WPTR4[0]), 0, 0 },
	{ "mmUVD_LMI_VCPU_CACHE_64BIT_BAR_HIGH", REG_MMIO, 0x061e, 1, &mmUVD_LMI_VCPU_CACHE_64BIT_BAR_HIGH[0], sizeof(mmUVD_LMI_VCPU_CACHE_64BIT_BAR_HIGH)/sizeof(mmUVD_LMI_VCPU_CACHE_64BIT_BAR_HIGH[0]), 0, 0 },
	{ "mmUVD_LMI_VCPU_CACHE_64BIT_BAR_LOW", REG_MMIO, 0x061f, 1, &mmUVD_LMI_VCPU_CACHE_64BIT_BAR_LOW[0], sizeof(mmUVD_LMI_VCPU_CACHE_64BIT_BAR_LOW)/sizeof(mmUVD_LMI_VCPU_CACHE_64BIT_BAR_LOW[0]), 0, 0 },
	{ "mmUVD_LMI_VCPU_NC1_64BIT_BAR_HIGH", REG_MMIO, 0x0620, 1, &mmUVD_LMI_VCPU_NC1_64BIT_BAR_HIGH[0], sizeof(mmUVD_LMI_VCPU_NC1_64BIT_BAR_HIGH)/sizeof(mmUVD_LMI_VCPU_NC1_64BIT_BAR_HIGH[0]), 0, 0 },
	{ "mmUVD_LMI_VCPU_NC1_64BIT_BAR_LOW", REG_MMIO, 0x0621, 1, &mmUVD_LMI_VCPU_NC1_64BIT_BAR_LOW[0], sizeof(mmUVD_LMI_VCPU_NC1_64BIT_BAR_LOW)/sizeof(mmUVD_LMI_VCPU_NC1_64BIT_BAR_LOW[0]), 0, 0 },
	{ "mmUVD_LMI_VCPU_NC0_64BIT_BAR_HIGH", REG_MMIO, 0x0622, 1, &mmUVD_LMI_VCPU_NC0_64BIT_BAR_HIGH[0], sizeof(mmUVD_LMI_VCPU_NC0_64BIT_BAR_HIGH)/sizeof(mmUVD_LMI_VCPU_NC0_64BIT_BAR_HIGH[0]), 0, 0 },
	{ "mmUVD_LMI_VCPU_NC0_64BIT_BAR_LOW", REG_MMIO, 0x0623, 1, &mmUVD_LMI_VCPU_NC0_64BIT_BAR_LOW[0], sizeof(mmUVD_LMI_VCPU_NC0_64BIT_BAR_LOW)/sizeof(mmUVD_LMI_VCPU_NC0_64BIT_BAR_LOW[0]), 0, 0 },
	{ "mmUVD_LMI_RBC_IB_64BIT_BAR_HIGH", REG_MMIO, 0x0626, 1, &mmUVD_LMI_RBC_IB_64BIT_BAR_HIGH[0], sizeof(mmUVD_LMI_RBC_IB_64BIT_BAR_HIGH)/sizeof(mmUVD_LMI_RBC_IB_64BIT_BAR_HIGH[0]), 0, 0 },
	{ "mmUVD_LMI_RBC_IB_64BIT_BAR_LOW", REG_MMIO, 0x0627, 1, &mmUVD_LMI_RBC_IB_64BIT_BAR_LOW[0], sizeof(mmUVD_LMI_RBC_IB_64BIT_BAR_LOW)/sizeof(mmUVD_LMI_RBC_IB_64BIT_BAR_LOW[0]), 0, 0 },
	{ "mmUVD_LMI_RBC_RB_64BIT_BAR_HIGH", REG_MMIO, 0x0628, 1, &mmUVD_LMI_RBC_RB_64BIT_BAR_HIGH[0], sizeof(mmUVD_LMI_RBC_RB_64BIT_BAR_HIGH)/sizeof(mmUVD_LMI_RBC_RB_64BIT_BAR_HIGH[0]), 0, 0 },
	{ "mmUVD_LMI_RBC_RB_64BIT_BAR_LOW", REG_MMIO, 0x0629, 1, &mmUVD_LMI_RBC_RB_64BIT_BAR_LOW[0], sizeof(mmUVD_LMI_RBC_RB_64BIT_BAR_LOW)/sizeof(mmUVD_LMI_RBC_RB_64BIT_BAR_LOW[0]), 0, 0 },
	{ "mmUVD_LMI_MMSCH_NC0_64BIT_BAR_LOW", REG_MMIO, 0x0640, 1, &mmUVD_LMI_MMSCH_NC0_64BIT_BAR_LOW[0], sizeof(mmUVD_LMI_MMSCH_NC0_64BIT_BAR_LOW)/sizeof(mmUVD_LMI_MMSCH_NC0_64BIT_BAR_LOW[0]), 0, 0 },
	{ "mmUVD_LMI_MMSCH_NC0_64BIT_BAR_HIGH", REG_MMIO, 0x0641, 1, &mmUVD_LMI_MMSCH_NC0_64BIT_BAR_HIGH[0], sizeof(mmUVD_LMI_MMSCH_NC0_64BIT_BAR_HIGH)/sizeof(mmUVD_LMI_MMSCH_NC0_64BIT_BAR_HIGH[0]), 0, 0 },
	{ "mmUVD_LMI_MMSCH_NC1_64BIT_BAR_LOW", REG_MMIO, 0x0642, 1, &mmUVD_LMI_MMSCH_NC1_64BIT_BAR_LOW[0], sizeof(mmUVD_LMI_MMSCH_NC1_64BIT_BAR_LOW)/sizeof(mmUVD_LMI_MMSCH_NC1_64BIT_BAR_LOW[0]), 0, 0 },
	{ "mmUVD_LMI_MMSCH_NC1_64BIT_BAR_HIGH", REG_MMIO, 0x0643, 1, &mmUVD_LMI_MMSCH_NC1_64BIT_BAR_HIGH[0], sizeof(mmUVD_LMI_MMSCH_NC1_64BIT_BAR_HIGH)/sizeof(mmUVD_LMI_MMSCH_NC1_64BIT_BAR_HIGH[0]), 0, 0 },
	{ "mmUVD_LMI_MMSCH_NC2_64BIT_BAR_LOW", REG_MMIO, 0x0644, 1, &mmUVD_LMI_MMSCH_NC2_64BIT_BAR_LOW[0], sizeof(mmUVD_LMI_MMSCH_NC2_64BIT_BAR_LOW)/sizeof(mmUVD_LMI_MMSCH_NC2_64BIT_BAR_LOW[0]), 0, 0 },
	{ "mmUVD_LMI_MMSCH_NC2_64BIT_BAR_HIGH", REG_MMIO, 0x0645, 1, &mmUVD_LMI_MMSCH_NC2_64BIT_BAR_HIGH[0], sizeof(mmUVD_LMI_MMSCH_NC2_64BIT_BAR_HIGH)/sizeof(mmUVD_LMI_MMSCH_NC2_64BIT_BAR_HIGH[0]), 0, 0 },
	{ "mmUVD_LMI_MMSCH_NC3_64BIT_BAR_LOW", REG_MMIO, 0x0646, 1, &mmUVD_LMI_MMSCH_NC3_64BIT_BAR_LOW[0], sizeof(mmUVD_LMI_MMSCH_NC3_64BIT_BAR_LOW)/sizeof(mmUVD_LMI_MMSCH_NC3_64BIT_BAR_LOW[0]), 0, 0 },
	{ "mmUVD_LMI_MMSCH_NC3_64BIT_BAR_HIGH", REG_MMIO, 0x0647, 1, &mmUVD_LMI_MMSCH_NC3_64BIT_BAR_HIGH[0], sizeof(mmUVD_LMI_MMSCH_NC3_64BIT_BAR_HIGH)/sizeof(mmUVD_LMI_MMSCH_NC3_64BIT_BAR_HIGH[0]), 0, 0 },
	{ "mmUVD_LMI_MMSCH_NC4_64BIT_BAR_LOW", REG_MMIO, 0x0648, 1, &mmUVD_LMI_MMSCH_NC4_64BIT_BAR_LOW[0], sizeof(mmUVD_LMI_MMSCH_NC4_64BIT_BAR_LOW)/sizeof(mmUVD_LMI_MMSCH_NC4_64BIT_BAR_LOW[0]), 0, 0 },
	{ "mmUVD_LMI_MMSCH_NC4_64BIT_BAR_HIGH", REG_MMIO, 0x0649, 1, &mmUVD_LMI_MMSCH_NC4_64BIT_BAR_HIGH[0], sizeof(mmUVD_LMI_MMSCH_NC4_64BIT_BAR_HIGH)/sizeof(mmUVD_LMI_MMSCH_NC4_64BIT_BAR_HIGH[0]), 0, 0 },
	{ "mmUVD_LMI_MMSCH_NC5_64BIT_BAR_LOW", REG_MMIO, 0x064a, 1, &mmUVD_LMI_MMSCH_NC5_64BIT_BAR_LOW[0], sizeof(mmUVD_LMI_MMSCH_NC5_64BIT_BAR_LOW)/sizeof(mmUVD_LMI_MMSCH_NC5_64BIT_BAR_LOW[0]), 0, 0 },
	{ "mmUVD_LMI_MMSCH_NC5_64BIT_BAR_HIGH", REG_MMIO, 0x064b, 1, &mmUVD_LMI_MMSCH_NC5_64BIT_BAR_HIGH[0], sizeof(mmUVD_LMI_MMSCH_NC5_64BIT_BAR_HIGH)/sizeof(mmUVD_LMI_MMSCH_NC5_64BIT_BAR_HIGH[0]), 0, 0 },
	{ "mmUVD_LMI_MMSCH_NC6_64BIT_BAR_LOW", REG_MMIO, 0x064c, 1, &mmUVD_LMI_MMSCH_NC6_64BIT_BAR_LOW[0], sizeof(mmUVD_LMI_MMSCH_NC6_64BIT_BAR_LOW)/sizeof(mmUVD_LMI_MMSCH_NC6_64BIT_BAR_LOW[0]), 0, 0 },
	{ "mmUVD_LMI_MMSCH_NC6_64BIT_BAR_HIGH", REG_MMIO, 0x064d, 1, &mmUVD_LMI_MMSCH_NC6_64BIT_BAR_HIGH[0], sizeof(mmUVD_LMI_MMSCH_NC6_64BIT_BAR_HIGH)/sizeof(mmUVD_LMI_MMSCH_NC6_64BIT_BAR_HIGH[0]), 0, 0 },
	{ "mmUVD_LMI_MMSCH_NC7_64BIT_BAR_LOW", REG_MMIO, 0x064e, 1, &mmUVD_LMI_MMSCH_NC7_64BIT_BAR_LOW[0], sizeof(mmUVD_LMI_MMSCH_NC7_64BIT_BAR_LOW)/sizeof(mmUVD_LMI_MMSCH_NC7_64BIT_BAR_LOW[0]), 0, 0 },
	{ "mmUVD_LMI_MMSCH_NC7_64BIT_BAR_HIGH", REG_MMIO, 0x064f, 1, &mmUVD_LMI_MMSCH_NC7_64BIT_BAR_HIGH[0], sizeof(mmUVD_LMI_MMSCH_NC7_64BIT_BAR_HIGH)/sizeof(mmUVD_LMI_MMSCH_NC7_64BIT_BAR_HIGH[0]), 0, 0 },
	{ "mmUVD_LMI_MMSCH_NC_VMID", REG_MMIO, 0x0651, 1, &mmUVD_LMI_MMSCH_NC_VMID[0], sizeof(mmUVD_LMI_MMSCH_NC_VMID)/sizeof(mmUVD_LMI_MMSCH_NC_VMID[0]), 0, 0 },
	{ "mmUVD_LMI_MMSCH_CTRL", REG_MMIO, 0x0652, 1, &mmUVD_LMI_MMSCH_CTRL[0], sizeof(mmUVD_LMI_MMSCH_CTRL)/sizeof(mmUVD_LMI_MMSCH_CTRL[0]), 0, 0 },
	{ "mmUVD_MMSCH_SOFT_RESET", REG_MMIO, 0x0654, 1, &mmUVD_MMSCH_SOFT_RESET[0], sizeof(mmUVD_MMSCH_SOFT_RESET)/sizeof(mmUVD_MMSCH_SOFT_RESET[0]), 0, 0 },
	{ "mmUVD_LMI_ARB_CTRL2", REG_MMIO, 0x0662, 1, &mmUVD_LMI_ARB_CTRL2[0], sizeof(mmUVD_LMI_ARB_CTRL2)/sizeof(mmUVD_LMI_ARB_CTRL2[0]), 0, 0 },
